275-SC-MIPS/sc_mips/mips.vcd
$date
    Mar 20, 2015  13:52:20
$end
$version
    TOOL:	ncsim	14.10-p001
$end
$timescale
    100 ps
$end

$scope module tb_mips $end
$var reg       1 !    clock  $end
$var reg       1 "    reset  $end
$var reg      32 #    Inst [31:0] $end
$var reg      32 $    Dout [31:0] $end
$var wire     32 %    PC [31:0] $end
$var wire      1 &    MemRead  $end
$var wire      1 '    MemWrite  $end
$var wire     32 (    Addr [31:0] $end
$var wire     32 )    Din [31:0] $end
$var wire     32 *    mem_addr [31:0] $end

$scope module P $end
$var wire      1 +    clock  $end
$var wire      1 ,    reset  $end
$var wire     32 -    Inst [31:0] $end
$var wire     32 .    Dout [31:0] $end
$var wire      1 &    MemRead  $end
$var wire      1 '    MemWrite  $end
$var wire     32 %    PC [31:0] $end
$var wire     32 (    Addr [31:0] $end
$var wire     32 )    Din [31:0] $end
$var wire     26 /    Inst_25_0 [25:0] $end
$var wire      5 0    Inst_25_21 [4:0] $end
$var wire      5 1    Inst_20_16 [4:0] $end
$var wire      5 2    Inst_15_11 [4:0] $end
$var wire     16 3    Inst_15_0 [15:0] $end
$var wire     32 4    shamt [31:0] $end
$var wire     32 5    pc [31:0] $end
$var wire      6 6    opcode [5:0] $end
$var wire      6 7    funct [5:0] $end
$var wire      1 8    bcond  $end
$var wire      1 9    RegDest  $end
$var wire      1 :    ALUSrc [1] $end
$var wire      1 ;    ALUSrc [0] $end
$var wire      1 &    MemtoReg  $end
$var wire      1 <    RegWrite  $end
$var wire      1 =    PCSrc1  $end
$var wire      1 >    PCSrc2  $end
$var wire      1 ?    PCSrc3  $end
$var wire      4 @    ALU_Control [3:0] $end
$var wire     32 A    ALU_Result [31:0] $end
$var wire     32 B    ALU_datain2_src0 [31:0] $end
$var wire     32 C    ALU_datain2 [31:0] $end
$var wire      5 D    gpr_wr_addr [4:0] $end
$var wire      5 E    gpr_rd_addr1 [4:0] $end
$var wire      5 F    gpr_wr_addr0 [4:0] $end
$var wire     32 G    gpr_wr_data [31:0] $end
$var wire     32 H    gpr_rd_data1 [31:0] $end
$var wire     32 I    gpr_rd_data2 [31:0] $end
$var wire     32 J    mem_alu_data_out [31:0] $end
$var wire     32 K    pc_plus_8 [31:0] $end
$var wire      1 L    isJAL  $end
$var wire      1 M    isSLL_SRL  $end
$var wire     32 N    Inst_15_0_signext [31:0] $end
$var wire     32 O    br_signext_sl2 [31:0] $end

$scope module signext_u0 $end
$var wire     16 3    ip [15:0] $end
$var wire     32 N    op [31:0] $end
$var reg      32 P    ext [31:0] $end
$upscope $end


$scope module br_lshift $end
$var wire     32 N    ip [31:0] $end
$var wire     32 O    op [31:0] $end
$var reg      32 Q    shift [31:0] $end
$upscope $end


$scope module pc_u0 $end
$var wire      1 +    clk  $end
$var wire      1 ,    rst  $end
$var wire     32 O    br_signext_sl2 [31:0] $end
$var wire     26 /    Inst_25_0 [25:0] $end
$var wire     32 H    gpr_rd_data1 [31:0] $end
$var wire      1 =    jump  $end
$var wire      1 >    branch  $end
$var wire      1 ?    jump_reg  $end
$var wire     32 5    pc [31:0] $end
$var wire     32 K    pc_plus_8 [31:0] $end
$var parameter 32 R    TD  $end
$var reg      32 S    pc_val [31:0] $end
$var wire     32 T    br_loc [31:0] $end
$var wire     32 U    pc_plus_4 [31:0] $end

$scope module next $end
$var wire     32 V    ip1 [31:0] $end
$var wire     32 W    ip2 [31:0] $end
$var wire     32 U    out [31:0] $end
$var reg      32 X    add [31:0] $end
$upscope $end


$scope module jal $end
$var wire     32 V    ip1 [31:0] $end
$var wire     32 Y    ip2 [31:0] $end
$var wire     32 K    out [31:0] $end
$var reg      32 Z    add [31:0] $end
$upscope $end


$scope module br $end
$var wire     32 U    ip1 [31:0] $end
$var wire     32 O    ip2 [31:0] $end
$var wire     32 T    out [31:0] $end
$var reg      32 [    add [31:0] $end
$upscope $end

$upscope $end


$scope module control_unit_u0 $end
$var wire      6 6    opcode [5:0] $end
$var wire      6 7    funct [5:0] $end
$var wire      1 8    bcond  $end
$var wire      1 9    RegDest  $end
$var wire      1 :    ALUSrc [1] $end
$var wire      1 ;    ALUSrc [0] $end
$var wire      1 &    MemtoReg  $end
$var wire      1 <    RegWrite  $end
$var wire      1 &    MemRead  $end
$var wire      1 '    MemWrite  $end
$var wire      1 =    PCSrc1  $end
$var wire      1 >    PCSrc2  $end
$var wire      1 ?    PCSrc3  $end
$var wire      1 L    isJAL  $end
$var wire      1 M    isSLL_SRL  $end
$var wire      4 @    ALU_Control [3:0] $end
$var reg       4 \    alu_ctrl [3:0] $end
$upscope $end


$scope module mux_2x1_u0 $end
$var parameter 32 ]    DATA_WIDTH  $end
$var wire      5 2    ip1 [4:0] $end
$var wire      5 1    ip0 [4:0] $end
$var wire      1 9    sel  $end
$var reg       5 ^    out [4:0] $end
$upscope $end


$scope module mux_2x1_u1 $end
$var parameter 32 _    DATA_WIDTH  $end
$var wire      5 `    ip1 [4:0] $end
$var wire      5 F    ip0 [4:0] $end
$var wire      1 L    sel  $end
$var reg       5 a    out [4:0] $end
$upscope $end


$scope module mux_2x1_u2 $end
$var parameter 32 b    DATA_WIDTH  $end
$var wire     32 .    ip1 [31:0] $end
$var wire     32 A    ip0 [31:0] $end
$var wire      1 &    sel  $end
$var reg      32 c    out [31:0] $end
$upscope $end


$scope module mux_2x1_u3 $end
$var parameter 32 d    DATA_WIDTH  $end
$var wire     32 K    ip1 [31:0] $end
$var wire     32 J    ip0 [31:0] $end
$var wire      1 L    sel  $end
$var reg      32 e    out [31:0] $end
$upscope $end


$scope module mux_2x1_u4 $end
$var parameter 32 f    DATA_WIDTH  $end
$var wire      5 1    ip1 [4:0] $end
$var wire      5 0    ip0 [4:0] $end
$var wire      1 M    sel  $end
$var reg       5 g    out [4:0] $end
$upscope $end


$scope module gpr_u0 $end
$var wire      1 +    clk  $end
$var wire      1 <    RegWrite  $end
$var wire      5 E    rd_addr1 [4:0] $end
$var wire      5 1    rd_addr2 [4:0] $end
$var wire      5 D    wr_addr [4:0] $end
$var wire     32 G    wr_data [31:0] $end
$var wire     32 H    rd_data1 [31:0] $end
$var wire     32 I    rd_data2 [31:0] $end
$var parameter 32 h    TD  $end
$upscope $end


$scope module mux_2x1_u5 $end
$var parameter 32 i    DATA_WIDTH  $end
$var wire     32 N    ip1 [31:0] $end
$var wire     32 I    ip0 [31:0] $end
$var wire      1 ;    sel  $end
$var reg      32 j    out [31:0] $end
$upscope $end


$scope module mux_2x1_u6 $end
$var parameter 32 k    DATA_WIDTH  $end
$var wire     32 4    ip1 [31:0] $end
$var wire     32 B    ip0 [31:0] $end
$var wire      1 :    sel  $end
$var reg      32 l    out [31:0] $end
$upscope $end


$scope module alu_u0 $end
$var wire     32 H    r1 [31:0] $end
$var wire     32 C    r2 [31:0] $end
$var wire      4 @    control [3:0] $end
$var wire     32 A    result [31:0] $end
$var wire      1 8    bcond  $end
$var integer  32 m    in1  $end
$var integer  32 n    in2  $end
$var integer  32 o    out  $end
$var reg       1 p    bcond_w  $end
$upscope $end

$upscope $end

$upscope $end

$enddefinitions $end
$dumpvars
b100000 k
b100000 i
b1 h
b101 f
b100000 d
b100000 b
b101 _
b101 ]
b1 R
0!
x"
bx #
bx $
bx %
x&
x'
bx (
bx )
b0xxxxxxxxxxxxxxxxxxxxxxxxxxxxxx *
0+
x,
bx -
bx .
bx /
bx 0
bx 1
bx 2
bx 3
b0xxxxx 4
bx 5
bx 6
bx 7
x8
x9
x:
x;
x<
x=
x>
x?
bx @
bx A
bx B
bx C
bx D
bx E
bx F
bx G
bx H
bx I
bx J
bx K
xL
xM
bx N
bx O
bx P
bx Q
bx S
bx T
bx U
bx V
b100 W
bx X
b1000 Y
bx Z
bx [
bx \
bx ^
b11111 `
bx a
bx c
bx e
bx g
bx j
bx l
bx m
bx n
bx o
xp
$end
#50
1!
1"
b0 #
1,
b0 -
1+
b0 4
b0 3
b0 2
b0 1
b0 0
b0 /
b0 7
b0 6
bx0000000000000000 P
b0 P
b0 ^
b0 g
b11 \
0L
0=
0'
0&
19
0>
1:
0;
1M
0?
1<
b11 @
b0 E
b0 I
b0 F
b0 N
b0 a
b0 l
b0 j
0p
b0 Q
b0 O
b0 )
b0 H
08
b0 B
b0 C
b0 D
b0 m
b0 n
b0 o
b0 A
b0 c
b0 J
b0 (
b0 e
b0 *
b0 G
#60
b0 S
b0 V
b0 5
b0 %
b1000 Z
b100 X
b100 U
b1000 K
b100 [
b100 T
#100
0!
0+
#150
0"
1!
1+
0,
#160
b100 S
b100 V
b100 5
b100 %
b100000000000110000000000000111 #
b100000000000110000000000000111 -
b111 3
b11 1
b110000000000000111 /
b111 7
b1000 6
b111 P
b11 g
b0 \
09
0:
1;
0M
b0 @
b11 E
bx I
b111 N
b11 ^
b111 j
b0 g
b11100 Q
b11100 O
bx )
bx H
b0 E
b111 B
b11 F
bx m
bx o
b111 l
b11 a
b11 D
b111 C
b0 H
bx A
b0 m
b111 n
b111 o
bx c
bx J
bx (
b111 A
bx e
b111 c
b111 J
b111 (
b0xxxxxxxxxxxxxxxxxxxxxxxxxxxxxx *
bx G
b111 e
b1 *
b111 G
b1100 Z
b1000 X
b100000 [
b100000 T
b1000 U
b1100 K
b100100 [
b100100 T
#200
0!
0+
#250
1!
1+
#260
b1000 S
b111 I
b1000 V
b1000 5
b1000 %
b111 )
b11000000010000000100100 #
b11000000010000000100100 -
b10000000100100 3
b100 2
b0 1
b11 0
b11000000010000000100100 /
b100100 7
b0 6
b10000000100100 P
b0 ^
b11 g
b1 \
19
0;
b1 @
b11 E
b0 I
b0 F
b10000000100100 N
b100 ^
b0 j
b0 o
b0 a
b1000000010010000 Q
b1000000010010000 O
b0 D
b0 )
b111 H
b0 A
b0 B
b100 F
b111 m
b111 o
b0 c
b0 l
b100 a
b100 D
b0 C
b0 J
b0 (
b111 A
b0 n
b0 o
b0 e
b111 c
b111 J
b111 (
b0 *
b0 G
b0 A
b111 e
b0 c
b0 J
b0 (
b1 *
b111 G
b0 e
b0 *
b0 G
b10000 Z
b1100 X
b1000000010011000 [
b1000000010011000 T
b1100 U
b10000 K
b1000000010011100 [
b1000000010011100 T
#300
0!
0+
#350
1!
1+
#360
b1100 S
b1100 V
b1100 5
b1100 %
b110010100010000000 #
b110010100010000000 -
b10 4
b10100010000000 3
b101 2
b11 1
b0 0
b110010100010000000 /
b0 7
b10100010000000 P
b101 ^
b0 g
b11 \
1:
1M
b11 @
b0 E
b111 I
b101 F
b10100010000000 N
b10 l
b11 g
b111 o
b111 j
b101 a
b1010001000000000 Q
b1010001000000000 O
b101 D
b111 B
b111 )
b0 H
b111 A
b11 E
b10 C
b0 m
b10 n
b0 o
b111 c
b111 H
b111 J
b111 (
b0 A
b111 m
b11100 o
b111 e
b0 c
b0 J
b0 (
b1 *
b111 G
b11100 A
b0 e
b11100 c
b11100 J
b11100 (
b0 *
b0 G
b11100 e
b111 *
b11100 G
b10100 Z
b10000 X
b1010001000001100 [
b1010001000001100 T
b10000 U
b10100 K
b1010001000010000 [
b1010001000010000 T
#400
0!
0+
#450
1!
1+
#460
b10000 S
b10000 V
b10000 5
b10000 %
b100000000001100000000000000100 #
b100000000001100000000000000100 -
b0 4
b100 3
b0 2
b110 1
b1100000000000000100 /
b100 7
b1000 6
b0 l
b100 P
b0 ^
b110 g
b0 \
09
0:
1;
0M
b0 @
b110 E
bx I
b0 F
b100 N
b0 C
b110 ^
b111 l
b100 j
b0 g
b0 n
b111 o
b0 a
b10000 Q
b10000 O
b0 D
bx )
bx H
b111 A
b0 E
b100 B
b111 C
b110 F
bx m
b111 n
bx o
b111 c
b100 l
b110 a
b110 D
b100 C
b0 H
b111 J
b111 (
bx A
b0 m
b100 n
b100 o
b111 e
bx c
bx J
bx (
b1 *
b111 G
b100 A
bx e
b100 c
b100 J
b100 (
b0xxxxxxxxxxxxxxxxxxxxxxxxxxxxxx *
bx G
b100 e
b1 *
b100 G
b11000 Z
b10100 X
b100000 [
b100000 T
b10100 U
b11000 K
b100100 [
b100100 T
#500
0!
0+
#550
1!
1+
#560
b10100 S
b100 I
b10100 V
b10100 5
b10100 %
b100 )
b100000000011000000000000000111 #
b100000000011000000000000000111 -
b111 3
b1100 1
b11000000000000000111 /
b111 7
b111 P
b1100 ^
b1100 F
bx I
b111 N
b1100 a
b111 j
b11100 Q
b11100 O
b111 B
bx )
b1100 D
b111 l
b111 C
b111 n
b111 o
b111 A
b111 c
b111 J
b111 (
b111 e
b111 G
b11100 Z
b11000 X
b110000 [
b110000 T
b11000 U
b11100 K
b110100 [
b110100 T
#600
0!
0+
#650
1!
1+
#660
b11000 S
b111 I
b11000 V
b11000 5
b11000 %
b111 )
b100000000010100000000000000001 #
b100000000010100000000000000001 -
b1 3
b1010 1
b10100000000000000001 /
b1 7
b1 P
b1010 ^
b1010 F
bx I
b1 N
b1010 a
b1 j
b100 Q
b100 O
b1 B
bx )
b1010 D
b1 l
b1 C
b1 n
b1 o
b1 A
b1 c
b1 J
b1 (
b1 e
b0 *
b1 G
b100000 Z
b11100 X
b11100 [
b11100 T
b11100 U
b100000 K
b100000 [
b100000 T
#700
0!
0+
#750
1!
1+
#760
b11100 S
b1 I
b11100 V
b11100 5
b11100 %
b1 )
b100000000010010000000000000000 #
b100000000010010000000000000000 -
b0 3
b1001 1
b10010000000000000000 /
b0 7
b0 P
b1001 ^
b1001 F
bx I
b0 N
b1001 a
b0 j
b0 Q
b0 O
b0 B
bx )
b1001 D
b0 l
b0 C
b0 n
b0 o
b0 A
b0 c
b0 J
b0 (
b0 e
b0 G
b100100 Z
b100000 X
b11100 [
b11100 T
b100000 U
b100100 K
b100000 [
b100000 T
#800
0!
0+
#850
1!
1+
#860
b100000 S
b0 I
b100000 V
b100000 5
b100000 %
b0 )
b10001101001000010000000000000100 #
b10001101001000010000000000000100 -
b100 3
b1 1
b1001 0
b1001000010000000000000100 /
b100 7
b100011 6
b100 P
b1001 g
b1 ^
1&
b1 F
b1001 E
bx I
b100 N
bx c
b0 $
b1 a
b100 j
b10000 Q
b10000 O
b100 B
bx )
b1 D
b0 .
bx J
b100 l
b0 c
bx e
bx G
b0 J
b100 C
b0 e
b100 n
b100 o
b100 A
b0 G
b100 (
b1 *
b1000 $
b1000 .
b1000 c
b1000 J
b1000 e
b1000 G
b101000 Z
b100100 X
b110000 [
b110000 T
b100100 U
b101000 K
b110100 [
b110100 T
#900
0!
0+
#950
1!
1+
#960
b100100 S
b1000 I
b100100 V
b100100 5
b100100 %
b1000 )
b10001101001000100000000000001000 #
b10001101001000100000000000001000 -
b1000 3
b10 1
b1001000100000000000001000 /
b1000 7
b1000 P
b10 ^
b10 F
bx I
b1000 N
b10 a
b1000 j
b100000 Q
b100000 O
b1000 B
bx )
b10 D
b1000 l
b1000 C
b1000 n
b1000 o
b1000 A
b1000 (
b10 *
b1001 $
b1001 .
b1001 c
b1001 J
b1001 e
b1001 G
b101100 Z
b101000 X
b1000100 [
b1000100 T
b101000 U
b101100 K
b1001000 [
b1001000 T
#1000
0!
0+
#1050
1!
1+
#1060
b101000 S
b1001 I
b101000 V
b101000 5
b101000 %
b1001 )
b1000100101100000101010 #
b1000100101100000101010 -
b101100000101010 3
b1011 2
b1 0
b1000100101100000101010 /
b101010 7
b0 6
b101100000101010 P
b1 g
b100 \
0&
19
0;
b100 @
b1 E
b101100000101010 N
b1000 c
b1011 ^
b1001 j
b1 o
b10110000010101000 Q
b10110000010101000 O
b1000 H
b1 A
b1001 B
b1011 F
b1000 J
b1000 m
b0 o
b1 c
b1001 l
b1011 a
b1000 e
b1000 G
b1011 D
b1001 C
b1 J
b1 (
b0 A
b1001 n
b1 o
b1 e
b0 c
b0 J
b0 (
b0 *
b1 G
b1 A
b0 e
b1 c
b1 J
b1 (
b0 G
b1 e
b1 G
b110000 Z
b101100 X
b10110000011010000 [
b10110000011010000 T
b101100 U
b110000 K
b10110000011010100 [
b10110000011010100 T
#1100
0!
0+
#1150
1!
1+
#1160
b101100 S
b101100 V
b101100 5
b101100 %
b10101101001000010000000000001000 #
b10101101001000010000000000001000 -
b1000 3
b0 2
b1 1
b1001 0
b1001000010000000000001000 /
b1000 7
b101011 6
b1000 P
b0 ^
b1001 g
b0 \
1'
09
1;
0<
b0 @
b1001 E
b1000 I
b0 F
b1000 N
b1 ^
b1000 j
b10001 o
b0 a
b100000 Q
b100000 O
b0 D
b1000 )
b0 H
b10001 A
b1000 B
b1 F
b0 m
b1001 o
b10001 c
b1000 l
b1 a
b1 D
b1000 C
b10001 J
b10001 (
b1001 A
b1000 n
b1000 o
b10001 e
b1001 c
b1001 J
b1001 (
b100 *
b10001 G
b1000 A
b1001 e
b1000 c
b1000 J
b1000 (
b10 *
b1001 G
b1000 e
b1000 G
b110100 Z
b110000 X
b1001100 [
b1001100 T
b110000 U
b110100 K
b1010000 [
b1010000 T
#1200
0!
0+
#1250
1!
1+
#1260
b110000 S
b110000 V
b110000 5
b110000 %
b10101101001000100000000000000100 #
b10101101001000100000000000000100 -
b100 3
b10 1
b1001000100000000000000100 /
b100 7
b100 P
b10 ^
b10 F
b1001 I
b100 N
b10 a
b100 j
b10000 Q
b10000 O
b100 B
b1001 )
b10 D
b100 l
b100 C
b100 n
b100 o
b100 A
b100 c
b100 J
b100 (
b100 e
b1 *
b100 G
b111000 Z
b110100 X
b1000000 [
b1000000 T
b110100 U
b111000 K
b1000100 [
b1000100 T
#1300
0!
0+
#1350
1!
1+
#1360
b110100 S
b110100 V
b110100 5
b110100 %
b10101010010110000000000000010 #
b10101010010110000000000000010 -
b10 3
b1011 1
b1010 0
b1010010110000000000000010 /
b10 7
b101 6
b10 P
b1010 g
b1011 ^
b1001 \
0'
0;
b1001 @
b1011 F
b1010 E
b1 I
b10 N
b1 j
1p
b1011 a
b1000 Q
b1000 O
b1 )
b1 H
b1011 D
18
b1 B
0p
b1 m
1p
b1 l
b1 C
1>
0p
b1 n
08
0>
b111100 Z
b111000 X
b111100 [
b111100 T
b111000 U
b111100 K
b1000000 [
b1000000 T
#1400
0!
0+
#1450
1!
1+
#1460
b111000 S
b111000 V
b111000 5
b111000 %
b10101101001000010000000000000100 #
b10101101001000010000000000000100 -
b100 3
b1 1
b1001 0
b1001000010000000000000100 /
b100 7
b101011 6
b100 P
b1001 g
b1 ^
b0 \
1'
1;
b0 @
b1 F
b1001 E
b1000 I
b100 N
b100 j
b10 o
b1 a
b10000 Q
b10000 O
b1000 )
b0 H
b1 D
b10 A
b100 B
b0 m
b1 o
b10 c
b100 l
b100 C
b10 J
b10 (
b1 A
b100 n
b100 o
b10 e
b1 c
b1 J
b1 (
b0 *
b10 G
b100 A
b1 e
b100 c
b100 J
b100 (
b1 G
b100 e
b1 *
b100 G
b1000000 Z
b111100 X
b1001000 [
b1001000 T
b111100 U
b1000000 K
b1001100 [
b1001100 T
#1500
0!
0+
#1550
1!
1+
#1560
b111100 S
b111100 V
b111100 5
b111100 %
b10101101001000100000000000001000 #
b10101101001000100000000000001000 -
b1000 3
b10 1
b1001000100000000000001000 /
b1000 7
b1000 P
b10 ^
b10 F
b1001 I
b1000 N
b10 a
b1000 j
b100000 Q
b100000 O
b1000 B
b1001 )
b10 D
b1000 l
b1000 C
b1000 n
b1000 o
b1000 A
b1000 c
b1000 J
b1000 (
b1000 e
b10 *
b1000 G
b1000100 Z
b1000000 X
b1011100 [
b1011100 T
b1000000 U
b1000100 K
b1100000 [
b1100000 T
#1600
0!
0+
#1650
1!
1+
#1660
b1000000 S
b1000000 V
b1000000 5
b1000000 %
b100001001010010000000000000100 #
b100001001010010000000000000100 -
b100 3
b1001 1
b1001010010000000000000100 /
b100 7
b1000 6
b100 P
b1001 ^
0'
1<
b1001 F
b0 I
b100 N
b1001 a
b100 j
b10000 Q
b10000 O
b100 B
b0 )
b1001 D
b100 l
b100 C
b100 n
b100 o
b100 A
b100 c
b100 J
b100 (
b100 e
b1 *
b100 G
b1001000 Z
b1000100 X
b1010000 [
b1010000 T
b1000100 U
b1001000 K
b1010100 [
b1010100 T
#1700
0!
0+
#1750
1!
1+
#1760
b1000100 S
b100 I
b100 H
b1000100 V
b1000100 5
b100 m
b1000 o
b1000100 %
b1000 A
b100 )
b10101001001011111111111110110 #
b1000 c
b1000 J
b1000 (
b10101001001011111111111110110 -
b1000 e
b11111 4
b1111111111110110 3
b11111 2
b101 1
b1001001011111111111110110 /
b110110 7
b101 6
b10 *
b1000 G
b1111111111110110 P
b11111111111111111111111111110110 P
b101 ^
b1001 \
0;
0<
b1001 @
b11100 I
b101 F
b11111111111111111111111111110110 N
b11100 j
b101 a
b11111111111111111111111111011000 Q
b11111111111111111111111111011000 O
b101 D
b11100 )
b11100 B
b11100 l
b11100 C
b11100 n
1p
18
1>
b1001100 Z
b1001000 X
b11100 [
b11100 T
b1001000 U
b1001100 K
b100000 [
b100000 T
#1800
0!
0+
#1850
1!
1+
#1860
b100000 S
b100000 V
b100000 5
b100000 %
b10001101001000010000000000000100 #
b10001101001000010000000000000100 -
b0 4
b100 3
b0 2
b1 1
b1001000010000000000000100 /
b100 7
b100011 6
b11111111111111110000000000000100 P
b100 P
b1 ^
b0 \
1&
0>
1;
1<
b0 @
b1000 I
b1 F
b100 N
b1001 c
b100 j
0p
b100000 o
b1 a
b10000 Q
b10000 O
b1 D
b1000 )
b100000 A
08
b100 B
b1001 J
b100 l
b1001 e
b1001 G
b100 C
b100000 (
b100 n
b1000 o
b1000 *
b1000 A
b101 $
b1000 (
b101 .
b101 c
b101 J
b10 *
b101 e
b1001 $
b1001 .
b101 G
b1001 c
b1001 J
b1001 e
b1001 G
b101000 Z
b100100 X
b1011000 [
b1011000 T
b100100 U
b101000 K
b110100 [
b110100 T
#1900
0!
0+
#1950
1!
1+
#1960
b100100 S
b1001 I
b100100 V
b100100 5
b100100 %
b1001 )
b10001101001000100000000000001000 #
b10001101001000100000000000001000 -
b1000 3
b10 1
b1001000100000000000001000 /
b1000 7
b1000 P
b10 ^
b10 F
b1000 N
b10 a
b1000 j
b100000 Q
b100000 O
b1000 B
b10 D
b1000 l
b1000 C
b1000 n
b1100 o
b1100 A
b1100 (
b11 *
b111 $
b111 .
b111 c
b111 J
b111 e
b111 G
b101100 Z
b101000 X
b1000100 [
b1000100 T
b101000 U
b101100 K
b1001000 [
b1001000 T
#2000
0!
0+
#2050
1!
1+
#2060
b101000 S
b111 I
b101000 V
b101000 5
b101000 %
b111 )
b1000100101100000101010 #
b1000100101100000101010 -
b101100000101010 3
b1011 2
b1 0
b1000100101100000101010 /
b101010 7
b0 6
b101100000101010 P
b1 g
b100 \
0&
19
0;
b100 @
b1 E
b101100000101010 N
b1100 c
b1011 ^
b111 j
b1 o
b10110000010101000 Q
b10110000010101000 O
b1001 H
b1 A
b111 B
b1011 F
b1100 J
b1001 m
b0 o
b1 c
b111 l
b1011 a
b1100 e
b1100 G
b1011 D
b111 C
b1 J
b1 (
b0 A
b111 n
b1 e
b0 c
b0 J
b0 (
b0 *
b1 G
b0 e
b0 G
b110000 Z
b101100 X
b10110000011010000 [
b10110000011010000 T
b101100 U
b110000 K
b10110000011010100 [
b10110000011010100 T
#2100
0!
0+
#2150
1!
1+
#2160
b101100 S
b101100 V
b101100 5
b101100 %
b10101101001000010000000000001000 #
b10101101001000010000000000001000 -
b1000 3
b0 2
b1 1
b1001 0
b1001000010000000000001000 /
b1000 7
b101011 6
b1000 P
b0 ^
b1001 g
b0 \
1'
09
1;
0<
b0 @
b1001 E
b1001 I
b0 F
b1000 N
b1 ^
b1000 j
b10000 o
b0 a
b100000 Q
b100000 O
b0 D
b1001 )
b100 H
b10000 A
b1000 B
b1 F
b100 m
b1011 o
b10000 c
b1000 l
b1 a
b1 D
b1000 C
b10000 J
b10000 (
b1011 A
b1000 n
b1100 o
b10000 e
b1011 c
b1011 J
b1011 (
b100 *
b10000 G
b1100 A
b1011 e
b1100 c
b1100 J
b1100 (
b10 *
b1011 G
b1100 e
b11 *
b1100 G
b110100 Z
b110000 X
b1001100 [
b1001100 T
b110000 U
b110100 K
b1010000 [
b1010000 T
#2200
0!
0+
#2250
1!
1+
#2260
b110000 S
b110000 V
b110000 5
b110000 %
b10101101001000100000000000000100 #
b10101101001000100000000000000100 -
b100 3
b10 1
b1001000100000000000000100 /
b100 7
b100 P
b10 ^
b10 F
b111 I
b100 N
b10 a
b100 j
b10000 Q
b10000 O
b100 B
b111 )
b10 D
b100 l
b100 C
b100 n
b1000 o
b1000 A
b1000 c
b1000 J
b1000 (
b1000 e
b10 *
b1000 G
b111000 Z
b110100 X
b1000000 [
b1000000 T
b110100 U
b111000 K
b1000100 [
b1000100 T
#2300
0!
0+
#2350
1!
1+
#2360
b110100 S
b110100 V
b110100 5
b110100 %
b10101010010110000000000000010 #
b10101010010110000000000000010 -
b10 3
b1011 1
b1010 0
b1010010110000000000000010 /
b10 7
b101 6
b10 P
b1010 g
b1011 ^
b1001 \
0'
0;
b1001 @
b1011 F
b1010 E
b0 I
b10 N
b0 j
b1011 a
b1000 Q
b1000 O
b0 )
b1 H
b1011 D
b0 B
b1 m
1p
b0 l
b0 C
18
0p
b0 n
1p
1>
b111100 Z
b111000 X
b111100 [
b111100 T
b111000 U
b111100 K
b1000000 [
b1000000 T
#2400
0!
0+
#2450
1!
1+
#2460
b1000000 S
b1000000 V
b1000000 5
b1000000 %
b100001001010010000000000000100 #
b100001001010010000000000000100 -
b100 3
b1001 1
b1001 0
b1001010010000000000000100 /
b100 7
b1000 6
b100 P
b1001 g
b1001 ^
b0 \
0>
1;
1<
b0 @
b1001 F
b1001 E
b100 I
b100 N
b100 j
0p
b1 o
b1001 a
b10000 Q
b10000 O
b100 )
b100 H
b1001 D
b1 A
08
b100 B
b100 m
b100 o
b1 c
b100 l
b100 C
b1 J
b1 (
b100 A
b100 n
b1000 o
b1 e
b100 c
b100 J
b100 (
b0 *
b1 G
b1000 A
b100 e
b1000 c
b1000 J
b1000 (
b1 *
b100 G
b1000 e
b10 *
b1000 G
b1001000 Z
b1000100 X
b1001000 [
b1001000 T
b1000100 U
b1001000 K
b1010100 [
b1010100 T
#2500
0!
0+
#2550
1!
1+
#2560
b1000100 S
b1000 I
b1000 H
b1000100 V
b1000100 5
b1000 m
b1100 o
b1000100 %
b1100 A
b1000 )
b10101001001011111111111110110 #
b1100 c
b1100 J
b1100 (
b10101001001011111111111110110 -
b1100 e
b11111 4
b1111111111110110 3
b11111 2
b101 1
b1001001011111111111110110 /
b110110 7
b101 6
b11 *
b1100 G
b1111111111110110 P
b11111111111111111111111111110110 P
b101 ^
b1001 \
0;
0<
b1001 @
b11100 I
b101 F
b11111111111111111111111111110110 N
b11100 j
1p
b101 a
b11111111111111111111111111011000 Q
b11111111111111111111111111011000 O
b101 D
b11100 )
18
b11100 B
b11100 l
b11100 C
1>
0p
b11100 n
1p
b1001100 Z
b1001000 X
b11100 [
b11100 T
b1001000 U
b1001100 K
b100000 [
b100000 T
#2600
0!
0+
#2650
1!
1+
#2660
b100000 S
b100000 V
b100000 5
b100000 %
b10001101001000010000000000000100 #
b10001101001000010000000000000100 -
b0 4
b100 3
b0 2
b1 1
b1001000010000000000000100 /
b100 7
b100011 6
b11111111111111110000000000000100 P
b100 P
b1 ^
b0 \
1&
0>
1;
1<
b0 @
b1001 I
b1 F
b100 N
b111 c
b1001 $
b100 j
0p
b100100 o
b1 a
b10000 Q
b10000 O
b1 D
b1001 )
b100100 A
08
b100 B
b1001 .
b111 J
b1001 c
b100 l
b111 e
b111 G
b100 C
b1001 J
b100100 (
b100 n
b1100 o
b1001 e
b1001 *
b1001 G
b1100 A
b1010 $
b1100 (
b1010 .
b1010 c
b1010 J
b11 *
b1010 e
b1001 $
b1001 .
b1010 G
b1001 c
b1001 J
b1001 e
b1001 G
b101000 Z
b100100 X
b1011000 [
b1011000 T
b100100 U
b101000 K
b110100 [
b110100 T
#2700
0!
0+
#2750
1!
1+
#2760
b100100 S
b100100 V
b100100 5
b100100 %
b10001101001000100000000000001000 #
b10001101001000100000000000001000 -
b1000 3
b10 1
b1001000100000000000001000 /
b1000 7
b1000 P
b10 ^
b10 F
b111 I
b1000 N
b10 a
b1000 j
b100000 Q
b100000 O
b1000 B
b111 )
b10 D
b1000 l
b1000 C
b1000 n
b10000 o
b10000 A
b10000 (
b100 *
b1010 $
b1010 .
b1010 c
b1010 J
b1010 e
b1010 G
b101100 Z
b101000 X
b1000100 [
b1000100 T
b101000 U
b101100 K
b1001000 [
b1001000 T
#2800
0!
0+
#2850
1!
1+
#2860
b101000 S
b1010 I
b101000 V
b101000 5
b101000 %
b1010 )
b1000100101100000101010 #
b1000100101100000101010 -
b101100000101010 3
b1011 2
b1 0
b1000100101100000101010 /
b101010 7
b0 6
b101100000101010 P
b1 g
b100 \
0&
19
0;
b100 @
b1 E
b101100000101010 N
b10000 c
b1011 ^
b1010 j
b0 o
b10110000010101000 Q
b10110000010101000 O
b1001 H
b0 A
b1010 B
b1011 F
b10000 J
b1001 m
b0 c
b1010 l
b1011 a
b10000 e
b10000 G
b1011 D
b1010 C
b0 J
b0 (
b1010 n
b1 o
b0 e
b0 *
b0 G
b1 A
b1 c
b1 J
b1 (
b1 e
b1 G
b110000 Z
b101100 X
b10110000011010000 [
b10110000011010000 T
b101100 U
b110000 K
b10110000011010100 [
b10110000011010100 T
#2900
0!
0+
#2950
1!
1+
