271-HW/adder.vcd
$date
    Mar  3, 2015  21:33:03
$end
$version
    TOOL:	ncsim	14.10-p001
$end
$timescale
    1 ns
$end

$scope module t_Adder $end
$var wire      1 !    sum  $end
$var wire      1 "    c_out  $end
$var reg       1 #    a  $end
$var reg       1 $    b  $end
$var reg       1 %    c_in  $end

$scope module M0 $end
$var wire      1 !    sum  $end
$var wire      1 "    c_out  $end
$var wire      1 &    a  $end
$var wire      1 '    b  $end
$var wire      1 (    c_in  $end
$var wire      1 )    w1  $end
$var wire      1 *    w2  $end
$var wire      1 +    w3  $end

$scope module M1 $end
$var wire      1 )    sum  $end
$var wire      1 *    c_out  $end
$var wire      1 &    a  $end
$var wire      1 '    b  $end
$upscope $end


$scope module M2 $end
$var wire      1 !    sum  $end
$var wire      1 +    c_out  $end
$var wire      1 )    a  $end
$var wire      1 (    b  $end
$upscope $end

$upscope $end

$upscope $end

$enddefinitions $end
$dumpvars
x!
x"
x#
x$
x%
x&
x'
x(
x)
x*
x+
$end
#10
0#
0$
0%
0(
0'
0&
#11
0)
0*
0+
#12
0"
0!
#20
1%
1(
#21
1!
#30
1$
0%
0(
1'
#31
1)
#40
1%
1(
#41
0!
1+
#42
1"
#50
1#
0$
0%
0(
0'
1&
#51
1!
0+
#52
0"
#60
1%
1(
#61
0!
1+
#62
1"
#70
1$
0%
0(
1'
#71
0)
1*
0+
#80
1%
1(
#81
1!
