271-HW6/ripple.vcd
$date
    Apr 21, 2015  14:07:44
$end
$version
    TOOL:	ncsim	14.10-p001
$end
$timescale
    1 ns
$end

$scope module stimulus_fulladder_16bit $end
$var reg      16 !    a [15:0] $end
$var reg      16 "    b [15:0] $end
$var reg       1 #    cin  $end
$var wire      1 $    s [15] $end
$var wire      1 %    s [14] $end
$var wire      1 &    s [13] $end
$var wire      1 '    s [12] $end
$var wire      1 (    s [11] $end
$var wire      1 )    s [10] $end
$var wire      1 *    s [9] $end
$var wire      1 +    s [8] $end
$var wire      1 ,    s [7] $end
$var wire      1 -    s [6] $end
$var wire      1 .    s [5] $end
$var wire      1 /    s [4] $end
$var wire      1 0    s [3] $end
$var wire      1 1    s [2] $end
$var wire      1 2    s [1] $end
$var wire      1 3    s [0] $end
$var wire      1 4    c  $end

$scope module inst_fulladdder_16bit $end
$var wire      1 5    a [15] $end
$var wire      1 6    a [14] $end
$var wire      1 7    a [13] $end
$var wire      1 8    a [12] $end
$var wire      1 9    a [11] $end
$var wire      1 :    a [10] $end
$var wire      1 ;    a [9] $end
$var wire      1 <    a [8] $end
$var wire      1 =    a [7] $end
$var wire      1 >    a [6] $end
$var wire      1 ?    a [5] $end
$var wire      1 @    a [4] $end
$var wire      1 A    a [3] $end
$var wire      1 B    a [2] $end
$var wire      1 C    a [1] $end
$var wire      1 D    a [0] $end
$var wire      1 E    b [15] $end
$var wire      1 F    b [14] $end
$var wire      1 G    b [13] $end
$var wire      1 H    b [12] $end
$var wire      1 I    b [11] $end
$var wire      1 J    b [10] $end
$var wire      1 K    b [9] $end
$var wire      1 L    b [8] $end
$var wire      1 M    b [7] $end
$var wire      1 N    b [6] $end
$var wire      1 O    b [5] $end
$var wire      1 P    b [4] $end
$var wire      1 Q    b [3] $end
$var wire      1 R    b [2] $end
$var wire      1 S    b [1] $end
$var wire      1 T    b [0] $end
$var wire      1 U    cin  $end
$var wire      1 $    s [15] $end
$var wire      1 %    s [14] $end
$var wire      1 &    s [13] $end
$var wire      1 '    s [12] $end
$var wire      1 (    s [11] $end
$var wire      1 )    s [10] $end
$var wire      1 *    s [9] $end
$var wire      1 +    s [8] $end
$var wire      1 ,    s [7] $end
$var wire      1 -    s [6] $end
$var wire      1 .    s [5] $end
$var wire      1 /    s [4] $end
$var wire      1 0    s [3] $end
$var wire      1 1    s [2] $end
$var wire      1 2    s [1] $end
$var wire      1 3    s [0] $end
$var wire      1 4    c  $end
$var wire      1 V    c0  $end
$var wire      1 W    c1  $end
$var wire      1 X    c2  $end

$scope module f0 $end
$var wire      1 A    a [3] $end
$var wire      1 B    a [2] $end
$var wire      1 C    a [1] $end
$var wire      1 D    a [0] $end
$var wire      1 Q    b [3] $end
$var wire      1 R    b [2] $end
$var wire      1 S    b [1] $end
$var wire      1 T    b [0] $end
$var wire      1 U    cin  $end
$var wire      1 0    s [3] $end
$var wire      1 1    s [2] $end
$var wire      1 2    s [1] $end
$var wire      1 3    s [0] $end
$var wire      1 V    c  $end
$var wire      1 Y    c0  $end
$var wire      1 Z    c1  $end
$var wire      1 [    c2  $end

$scope module f0 $end
$var wire      1 D    a  $end
$var wire      1 T    b  $end
$var wire      1 U    cin  $end
$var wire      1 3    s  $end
$var wire      1 Y    c  $end
$var wire      1 \    s1  $end
$var wire      1 ]    c1  $end
$var wire      1 ^    c2  $end

$scope module ha1 $end
$var wire      1 D    a  $end
$var wire      1 T    b  $end
$var wire      1 \    s  $end
$var wire      1 ]    c  $end
$upscope $end


$scope module ha2 $end
$var wire      1 \    a  $end
$var wire      1 U    b  $end
$var wire      1 3    s  $end
$var wire      1 ^    c  $end
$upscope $end

$upscope $end


$scope module f1 $end
$var wire      1 C    a  $end
$var wire      1 S    b  $end
$var wire      1 Y    cin  $end
$var wire      1 2    s  $end
$var wire      1 Z    c  $end
$var wire      1 _    s1  $end
$var wire      1 `    c1  $end
$var wire      1 a    c2  $end

$scope module ha1 $end
$var wire      1 C    a  $end
$var wire      1 S    b  $end
$var wire      1 _    s  $end
$var wire      1 `    c  $end
$upscope $end


$scope module ha2 $end
$var wire      1 _    a  $end
$var wire      1 Y    b  $end
$var wire      1 2    s  $end
$var wire      1 a    c  $end
$upscope $end

$upscope $end


$scope module f2 $end
$var wire      1 B    a  $end
$var wire      1 R    b  $end
$var wire      1 Z    cin  $end
$var wire      1 1    s  $end
$var wire      1 [    c  $end
$var wire      1 b    s1  $end
$var wire      1 c    c1  $end
$var wire      1 d    c2  $end

$scope module ha1 $end
$var wire      1 B    a  $end
$var wire      1 R    b  $end
$var wire      1 b    s  $end
$var wire      1 c    c  $end
$upscope $end


$scope module ha2 $end
$var wire      1 b    a  $end
$var wire      1 Z    b  $end
$var wire      1 1    s  $end
$var wire      1 d    c  $end
$upscope $end

$upscope $end


$scope module f3 $end
$var wire      1 A    a  $end
$var wire      1 Q    b  $end
$var wire      1 [    cin  $end
$var wire      1 0    s  $end
$var wire      1 V    c  $end
$var wire      1 e    s1  $end
$var wire      1 f    c1  $end
$var wire      1 g    c2  $end

$scope module ha1 $end
$var wire      1 A    a  $end
$var wire      1 Q    b  $end
$var wire      1 e    s  $end
$var wire      1 f    c  $end
$upscope $end


$scope module ha2 $end
$var wire      1 e    a  $end
$var wire      1 [    b  $end
$var wire      1 0    s  $end
$var wire      1 g    c  $end
$upscope $end

$upscope $end

$upscope $end


$scope module f1 $end
$var wire      1 =    a [3] $end
$var wire      1 >    a [2] $end
$var wire      1 ?    a [1] $end
$var wire      1 @    a [0] $end
$var wire      1 M    b [3] $end
$var wire      1 N    b [2] $end
$var wire      1 O    b [1] $end
$var wire      1 P    b [0] $end
$var wire      1 V    cin  $end
$var wire      1 ,    s [3] $end
$var wire      1 -    s [2] $end
$var wire      1 .    s [1] $end
$var wire      1 /    s [0] $end
$var wire      1 W    c  $end
$var wire      1 h    c0  $end
$var wire      1 i    c1  $end
$var wire      1 j    c2  $end

$scope module f0 $end
$var wire      1 @    a  $end
$var wire      1 P    b  $end
$var wire      1 V    cin  $end
$var wire      1 /    s  $end
$var wire      1 h    c  $end
$var wire      1 k    s1  $end
$var wire      1 l    c1  $end
$var wire      1 m    c2  $end

$scope module ha1 $end
$var wire      1 @    a  $end
$var wire      1 P    b  $end
$var wire      1 k    s  $end
$var wire      1 l    c  $end
$upscope $end


$scope module ha2 $end
$var wire      1 k    a  $end
$var wire      1 V    b  $end
$var wire      1 /    s  $end
$var wire      1 m    c  $end
$upscope $end

$upscope $end


$scope module f1 $end
$var wire      1 ?    a  $end
$var wire      1 O    b  $end
$var wire      1 h    cin  $end
$var wire      1 .    s  $end
$var wire      1 i    c  $end
$var wire      1 n    s1  $end
$var wire      1 o    c1  $end
$var wire      1 p    c2  $end

$scope module ha1 $end
$var wire      1 ?    a  $end
$var wire      1 O    b  $end
$var wire      1 n    s  $end
$var wire      1 o    c  $end
$upscope $end


$scope module ha2 $end
$var wire      1 n    a  $end
$var wire      1 h    b  $end
$var wire      1 .    s  $end
$var wire      1 p    c  $end
$upscope $end

$upscope $end


$scope module f2 $end
$var wire      1 >    a  $end
$var wire      1 N    b  $end
$var wire      1 i    cin  $end
$var wire      1 -    s  $end
$var wire      1 j    c  $end
$var wire      1 q    s1  $end
$var wire      1 r    c1  $end
$var wire      1 s    c2  $end

$scope module ha1 $end
$var wire      1 >    a  $end
$var wire      1 N    b  $end
$var wire      1 q    s  $end
$var wire      1 r    c  $end
$upscope $end


$scope module ha2 $end
$var wire      1 q    a  $end
$var wire      1 i    b  $end
$var wire      1 -    s  $end
$var wire      1 s    c  $end
$upscope $end

$upscope $end


$scope module f3 $end
$var wire      1 =    a  $end
$var wire      1 M    b  $end
$var wire      1 j    cin  $end
$var wire      1 ,    s  $end
$var wire      1 W    c  $end
$var wire      1 t    s1  $end
$var wire      1 u    c1  $end
$var wire      1 v    c2  $end

$scope module ha1 $end
$var wire      1 =    a  $end
$var wire      1 M    b  $end
$var wire      1 t    s  $end
$var wire      1 u    c  $end
$upscope $end


$scope module ha2 $end
$var wire      1 t    a  $end
$var wire      1 j    b  $end
$var wire      1 ,    s  $end
$var wire      1 v    c  $end
$upscope $end

$upscope $end

$upscope $end


$scope module f2 $end
$var wire      1 9    a [3] $end
$var wire      1 :    a [2] $end
$var wire      1 ;    a [1] $end
$var wire      1 <    a [0] $end
$var wire      1 I    b [3] $end
$var wire      1 J    b [2] $end
$var wire      1 K    b [1] $end
$var wire      1 L    b [0] $end
$var wire      1 W    cin  $end
$var wire      1 (    s [3] $end
$var wire      1 )    s [2] $end
$var wire      1 *    s [1] $end
$var wire      1 +    s [0] $end
$var wire      1 X    c  $end
$var wire      1 w    c0  $end
$var wire      1 x    c1  $end
$var wire      1 y    c2  $end

$scope module f0 $end
$var wire      1 <    a  $end
$var wire      1 L    b  $end
$var wire      1 W    cin  $end
$var wire      1 +    s  $end
$var wire      1 w    c  $end
$var wire      1 z    s1  $end
$var wire      1 {    c1  $end
$var wire      1 |    c2  $end

$scope module ha1 $end
$var wire      1 <    a  $end
$var wire      1 L    b  $end
$var wire      1 z    s  $end
$var wire      1 {    c  $end
$upscope $end


$scope module ha2 $end
$var wire      1 z    a  $end
$var wire      1 W    b  $end
$var wire      1 +    s  $end
$var wire      1 |    c  $end
$upscope $end

$upscope $end


$scope module f1 $end
$var wire      1 ;    a  $end
$var wire      1 K    b  $end
$var wire      1 w    cin  $end
$var wire      1 *    s  $end
$var wire      1 x    c  $end
$var wire      1 }    s1  $end
$var wire      1 ~    c1  $end
$var wire      1 !!   c2  $end

$scope module ha1 $end
$var wire      1 ;    a  $end
$var wire      1 K    b  $end
$var wire      1 }    s  $end
$var wire      1 ~    c  $end
$upscope $end


$scope module ha2 $end
$var wire      1 }    a  $end
$var wire      1 w    b  $end
$var wire      1 *    s  $end
$var wire      1 !!   c  $end
$upscope $end

$upscope $end


$scope module f2 $end
$var wire      1 :    a  $end
$var wire      1 J    b  $end
$var wire      1 x    cin  $end
$var wire      1 )    s  $end
$var wire      1 y    c  $end
$var wire      1 "!   s1  $end
$var wire      1 #!   c1  $end
$var wire      1 $!   c2  $end

$scope module ha1 $end
$var wire      1 :    a  $end
$var wire      1 J    b  $end
$var wire      1 "!   s  $end
$var wire      1 #!   c  $end
$upscope $end


$scope module ha2 $end
$var wire      1 "!   a  $end
$var wire      1 x    b  $end
$var wire      1 )    s  $end
$var wire      1 $!   c  $end
$upscope $end

$upscope $end


$scope module f3 $end
$var wire      1 9    a  $end
$var wire      1 I    b  $end
$var wire      1 y    cin  $end
$var wire      1 (    s  $end
$var wire      1 X    c  $end
$var wire      1 %!   s1  $end
$var wire      1 &!   c1  $end
$var wire      1 '!   c2  $end

$scope module ha1 $end
$var wire      1 9    a  $end
$var wire      1 I    b  $end
$var wire      1 %!   s  $end
$var wire      1 &!   c  $end
$upscope $end


$scope module ha2 $end
$var wire      1 %!   a  $end
$var wire      1 y    b  $end
$var wire      1 (    s  $end
$var wire      1 '!   c  $end
$upscope $end

$upscope $end

$upscope $end


$scope module f3 $end
$var wire      1 5    a [3] $end
$var wire      1 6    a [2] $end
$var wire      1 7    a [1] $end
$var wire      1 8    a [0] $end
$var wire      1 E    b [3] $end
$var wire      1 F    b [2] $end
$var wire      1 G    b [1] $end
$var wire      1 H    b [0] $end
$var wire      1 X    cin  $end
$var wire      1 $    s [3] $end
$var wire      1 %    s [2] $end
$var wire      1 &    s [1] $end
$var wire      1 '    s [0] $end
$var wire      1 4    c  $end
$var wire      1 (!   c0  $end
$var wire      1 )!   c1  $end
$var wire      1 *!   c2  $end

$scope module f0 $end
$var wire      1 8    a  $end
$var wire      1 H    b  $end
$var wire      1 X    cin  $end
$var wire      1 '    s  $end
$var wire      1 (!   c  $end
$var wire      1 +!   s1  $end
$var wire      1 ,!   c1  $end
$var wire      1 -!   c2  $end

$scope module ha1 $end
$var wire      1 8    a  $end
$var wire      1 H    b  $end
$var wire      1 +!   s  $end
$var wire      1 ,!   c  $end
$upscope $end


$scope module ha2 $end
$var wire      1 +!   a  $end
$var wire      1 X    b  $end
$var wire      1 '    s  $end
$var wire      1 -!   c  $end
$upscope $end

$upscope $end


$scope module f1 $end
$var wire      1 7    a  $end
$var wire      1 G    b  $end
$var wire      1 (!   cin  $end
$var wire      1 &    s  $end
$var wire      1 )!   c  $end
$var wire      1 .!   s1  $end
$var wire      1 /!   c1  $end
$var wire      1 0!   c2  $end

$scope module ha1 $end
$var wire      1 7    a  $end
$var wire      1 G    b  $end
$var wire      1 .!   s  $end
$var wire      1 /!   c  $end
$upscope $end


$scope module ha2 $end
$var wire      1 .!   a  $end
$var wire      1 (!   b  $end
$var wire      1 &    s  $end
$var wire      1 0!   c  $end
$upscope $end

$upscope $end


$scope module f2 $end
$var wire      1 6    a  $end
$var wire      1 F    b  $end
$var wire      1 )!   cin  $end
$var wire      1 %    s  $end
$var wire      1 *!   c  $end
$var wire      1 1!   s1  $end
$var wire      1 2!   c1  $end
$var wire      1 3!   c2  $end

$scope module ha1 $end
$var wire      1 6    a  $end
$var wire      1 F    b  $end
$var wire      1 1!   s  $end
$var wire      1 2!   c  $end
$upscope $end


$scope module ha2 $end
$var wire      1 1!   a  $end
$var wire      1 )!   b  $end
$var wire      1 %    s  $end
$var wire      1 3!   c  $end
$upscope $end

$upscope $end


$scope module f3 $end
$var wire      1 5    a  $end
$var wire      1 E    b  $end
$var wire      1 *!   cin  $end
$var wire      1 $    s  $end
$var wire      1 4    c  $end
$var wire      1 4!   s1  $end
$var wire      1 5!   c1  $end
$var wire      1 6!   c2  $end

$scope module ha1 $end
$var wire      1 5    a  $end
$var wire      1 E    b  $end
$var wire      1 4!   s  $end
$var wire      1 5!   c  $end
$upscope $end


$scope module ha2 $end
$var wire      1 4!   a  $end
$var wire      1 *!   b  $end
$var wire      1 $    s  $end
$var wire      1 6!   c  $end
$upscope $end

$upscope $end

$upscope $end

$upscope $end

$upscope $end

$enddefinitions $end
$dumpvars
b0 !
b0 "
0#
0$
0%
0&
0'
0(
0)
0*
0+
0,
0-
0.
0/
00
01
02
03
04
05
06
07
08
09
0:
0;
0<
0=
0>
0?
0@
0A
0B
0C
0D
0E
0F
0G
0H
0I
0J
0K
0L
0M
0N
0O
0P
0Q
0R
0S
0T
0U
0V
0W
0X
0Y
0Z
0[
0\
0]
0^
0_
0`
0a
0b
0c
0d
0e
0f
0g
0h
0i
0j
0k
0l
0m
0n
0o
0p
0q
0r
0s
0t
0u
0v
0w
0x
0y
0z
0{
0|
0}
0~
0!!
0"!
0#!
0$!
0%!
0&!
0'!
0(!
0)!
0*!
0+!
0,!
0-!
0.!
0/!
00!
01!
02!
03!
04!
05!
06!
$end
#10
b10001 !
b1 "
1#
1U
1T
1@
1D
1]
1k
13
1/
1Y
12
#20
b100010000 !
0#
0U
1<
0D
1\
0]
1z
1+
0Y
02
#30
b1000100010000 !
b100000001 "
1#
1U
1L
18
1+!
0z
1{
03
1^
1Y
1w
0+
1'
1*
12
#40
b10000 !
0#
0U
08
0<
1z
0{
0+!
13
0^
0Y
0'
0w
1+
0*
02
#50
b100010000 !
b1000000000001 "
1#
1U
1H
0L
1<
1+!
03
1^
1Y
1'
12
#60
b10001 !
0#
0U
0<
1D
0\
1]
0z
0^
0+
#70
b100010001 !
1#
1U
1<
1z
13
1+
#80
b10001 !
b10101011 "
0#
0U
0H
1M
1O
1Q
1S
0<
0z
1_
1e
1n
1t
0+!
03
0'
1,
1.
10
02
1a
0+
1Z
11
#90
b1010101100010001 !
b1000111001101 "
1#
1U
1H
1L
1N
0O
1R
0S
15
17
19
1;
1<
1{
1}
1%!
1.!
14!
0_
1b
0n
1q
1+!
13
1'
1-
0.
11
0d
12
0a
1$
1&
1(
0*
1w
1!!
0Z
0[
10
0g
1x
1)
0V
1/
0m
0h
