playground/checktest/tc.vcd
$date
	Wed Feb 25 14:19:50 2015
$end

$version
	Synopsys VCS version I-2014.03-2
$end

$timescale
	10ps
$end

$comment Csum: 1 0feb69f1cbba5211 $end


$scope module top $end
$var reg 1 ! debug $end
$var reg 1 " test1_running $end
$var reg 1 # test2_running $end
$var reg 1 $ test3_running $end
$var reg 1 % test4_running $end
$var reg 1 & test5_running $end
$var reg 1 ' test6_running $end
$var reg 1 ( test7_running $end
$var reg 1 ) test8_running $end
$var reg 1 * test9_running $end
$var reg 1 + test10_running $end
$var reg 1 , test11_running $end
$var reg 1 - test12_running $end
$var reg 1 . test13_running $end
$var reg 1 / test14_running $end
$var reg 32 0 death [31:0] $end
$var reg 8 1 A_tccra [7:0] $end
$var reg 8 2 A_tccra1 [7:0] $end
$var reg 8 3 A_tccrb [7:0] $end
$var reg 8 4 A_tccrb1 [7:0] $end
$var reg 8 5 A_ocra [7:0] $end
$var reg 8 6 A_ocra1 [7:0] $end
$var reg 8 7 A_ocrb [7:0] $end
$var reg 8 8 A_ocrb1 [7:0] $end
$var reg 8 9 A_tcnt [7:0] $end
$var reg 8 : A_tcnt1 [7:0] $end
$var reg 8 ; A_timsk [7:0] $end
$var reg 8 < A_tifr [7:0] $end
$var reg 8 = A_tifr1 [7:0] $end
$var reg 32 > div [31:0] $end

$scope task die $end
$upscope $end


$scope task wreg $end
$var reg 8 ? addr [7:0] $end
$var reg 8 @ datax [7:0] $end
$upscope $end


$scope task rreg $end
$var reg 8 A addr [7:0] $end
$var reg 8 B datax [7:0] $end
$upscope $end


$scope task easyplay $end
$upscope $end


$scope task test1 $end
$upscope $end


$scope task test2 $end
$upscope $end


$scope task test3 $end
$upscope $end


$scope task test4 $end
$upscope $end


$scope task test5 $end
$upscope $end


$scope task test6 $end
$upscope $end


$scope task test7 $end
$upscope $end


$scope task test8 $end
$upscope $end


$scope task test9 $end
$upscope $end


$scope task test10 $end
$upscope $end


$scope task test11 $end
$upscope $end


$scope task test12 $end
$upscope $end


$scope task test13 $end
$upscope $end


$scope task test14 $end
$upscope $end


$scope task _$$txp_fail_action_unnamed$$_8 $end
$upscope $end


$scope task _$$txp_fail_action_unnamed$$_9 $end
$upscope $end


$scope task _$$txp_fail_action_unnamed$$_10 $end
$upscope $end


$scope task _$$txp_fail_action_unnamed$$_11 $end
$upscope $end


$scope task _$$txp_fail_action_unnamed$$_12 $end
$upscope $end


$scope task _$$txp_fail_action_unnamed$$_13 $end
$upscope $end


$scope task _$$txp_fail_action_unnamed$$_14 $end
$upscope $end


$scope task _$$txp_fail_action_unnamed$$_15 $end
$upscope $end


$scope task _$$txp_fail_action_unnamed$$_16 $end
$upscope $end


$scope task _$$txp_fail_action_unnamed$$_17 $end
$upscope $end


$scope task _$$txp_fail_action_unnamed$$_18 $end
$upscope $end


$scope task _$$txp_fail_action_unnamed$$_19 $end
$upscope $end


$scope task _$$txp_fail_action_unnamed$$_20 $end
$upscope $end


$scope task _$$txp_fail_action_unnamed$$_21 $end
$upscope $end


$scope task _$$txp_fail_action_unnamed$$_22 $end
$upscope $end


$scope task _$$txp_fail_action_unnamed$$_23 $end
$upscope $end


$scope task _$$txp_fail_action_unnamed$$_24 $end
$upscope $end


$scope task _$$txp_fail_action_unnamed$$_25 $end
$upscope $end


$scope task _$$txp_fail_action_unnamed$$_26 $end
$upscope $end


$scope task _$$txp_fail_action_unnamed$$_27 $end
$upscope $end


$scope task _$$txp_fail_action_unnamed$$_28 $end
$upscope $end


$scope task _$$txp_fail_action_unnamed$$_29 $end
$upscope $end


$scope task _$$txp_fail_action_unnamed$$_30 $end
$upscope $end


$scope task _$$txp_fail_action_unnamed$$_31 $end
$upscope $end


$scope task _$$txp_fail_action_unnamed$$_32 $end
$upscope $end


$scope task _$$txp_fail_action_unnamed$$_33 $end
$upscope $end


$scope task _$$txp_fail_action_unnamed$$_34 $end
$upscope $end


$scope task _$$txp_fail_action_unnamed$$_35 $end
$upscope $end


$scope task _$$txp_fail_action_unnamed$$_36 $end
$upscope $end


$scope task _$$txp_fail_action_unnamed$$_37 $end
$upscope $end


$scope task _$$txp_fail_action_unnamed$$_38 $end
$upscope $end


$scope task _$$txp_fail_action_unnamed$$_39 $end
$upscope $end


$scope task _$$txp_fail_action_unnamed$$_40 $end
$upscope $end


$scope task _$$txp_fail_action_unnamed$$_41 $end
$upscope $end


$scope module ai $end
$var reg 1 C clk $end
$var reg 1 D rst $end
$var reg 1 E write $end
$var reg 8 F addr [7:0] $end
$var reg 8 G wdata [7:0] $end
$var reg 1 H read $end
$var reg 8 I rdata [7:0] $end
$var reg 1 J t0 $end
$var reg 1 K oca_data $end
$var reg 1 L ocb_data $end
$var reg 1 M interrupt_request $end
$var reg 1 N status_reg_interrupt_enable $end
$var reg 1 O interrupt_executed $end
$upscope $end


$scope module t $end
$var reg 3 P wgm [2:0] $end
$var reg 8 Q tcnt [7:0] $end
$var reg 8 R tcnt_d [7:0] $end
$var reg 8 S ocra [7:0] $end
$var reg 8 T ocra_d [7:0] $end
$var reg 8 U ocrb [7:0] $end
$var reg 8 V ocrb_d [7:0] $end
$var reg 8 W ocra_wk [7:0] $end
$var reg 8 X ocra_wk_d [7:0] $end
$var reg 8 Y ocrb_wk [7:0] $end
$var reg 8 Z ocrb_wk_d [7:0] $end
$var reg 11 [ clkdiv [10:0] $end
$var reg 11 \ clkdiv_d [10:0] $end
$var reg 1 ] t0a $end
$var reg 1 ^ t0b $end
$var reg 1 _ tov $end
$var reg 1 ` tov_d $end
$var reg 1 a top $end
$var reg 1 b bottom $end
$var reg 1 c timer_event $end
$var reg 1 d oca_raw $end
$var reg 1 e ocb_raw $end
$var reg 1 f oca_d $end
$var reg 1 g oca $end
$var reg 1 h ocb_d $end
$var reg 1 i ocb $end
$var reg 1 j cntdir $end
$var reg 1 k cntdir_d $end
$var reg 1 l irq $end
$var reg 1 m irq_d $end
$var reg 1 n intr_exec $end
$var reg 8 o tccra [7:0] $end
$var reg 8 p tccra_d [7:0] $end
$var reg 8 q tccrb [7:0] $end
$var reg 8 r tccrb_d [7:0] $end
$var reg 8 s timsk [7:0] $end
$var reg 8 t timsk_d [7:0] $end
$var reg 8 u tifr [7:0] $end
$var reg 8 v tifr_d [7:0] $end
$upscope $end

$upscope $end

$enddefinitions $end

#0
$dumpvars
0b
xj
xk
1!
xn
xl
xm
xg
xf
xd
xi
xh
xe
x]
x^
0a
0+
0,
0-
0.
0/
0"
0#
0$
0%
0&
0'
0(
0)
0*
xc
0_
0`
b00100111 5
b01000111 6
b00101000 7
b01001000 8
b00100100 1
b01000100 2
b00100101 3
b01000101 4
b00100110 9
b01000110 :
b00010101 <
b00110101 =
b01101110 ;
bxxxxxxxx p
bxxxxxxxx o
b00xxxxxx r
bxxxxxxxx q
bxxxxxxxx v
bxxxxxxxx u
bxxxxxxxx t
bxxxxxxxx s
bxxxxxxxxxxx [
bxxxxxxxxxxx \
bxxxxxxxx S
bxxxxxxxx T
bxxxxxxxx W
bxxxxxxxx X
bxxxxxxxx U
bxxxxxxxx V
bxxxxxxxx Y
bxxxxxxxx Z
bxxxxxxxx A
bxxxxxxxx B
bxxxxxxxx Q
bxxxxxxxx R
bxxx P
bxxxxxxxx ?
bxxxxxxxx @
b00000000000000000000000000000000 0
b00000000000000000000000000001000 >
1O
1N
xM
xL
xK
xJ
0H
0E
0D
0C
bxxxxxxxx I
b00110100 G
b00010010 F
$end
#500
1C
#600
0O
1D
0n
b00xxxxxx q
#700
b00000000 o
b00000000 q
b00000000 s
b00000000 u
b00000000 Q
b00000000 S
b00000000 U
0]
0^
b00000000000 [
0j
0g
0K
0i
0L
0l
0M
b00000000 W
b00000000 Y
b00000000 v
0h
0f
0k
b00000000 t
b00000000 Z
b00000000 X
b00000000 V
b00000000 T
b00000000 R
b00000000 p
b00000000 r
0c
b000 P
1e
1d
0m
b00000000001 \
#1000
0C
#1500
1C
#2000
0C
#2500
1C
#3000
0C
#3500
1C
#4000
0C
#4500
1C
#5000
0C
#5500
1C
#5600
0D
b00100111 ?
b00000101 @
b00100111 F
b00000101 G
1E
b00000101 T
#6000
0C
#6500
1C
#6600
0E
b00000000 F
b00000000 G
b00101000 ?
b01110111 @
b00101000 F
b01110111 G
1E
b00000000 T
b01110111 V
b00000101 S
x]
b00000000001 [
b00000101 T
b00000000010 \
#7000
0C
#7500
1C
#7600
0E
b00000000 F
b00000000 G
b00100100 ?
b00000010 @
b00100100 F
b00000010 G
1E
b00000000 V
b00000010 p
b01110111 U
x^
b00000000010 [
b01110111 V
b00000000011 \
#8000
0C
#8500
1C
#8600
0E
b00000000 F
b00000000 G
b00100101 ?
b00100101 F
b00000010 G
1E
b00000000 p
b00000010 r
b00000010 o
b00000000011 [
b00000010 p
b010 P
b00000000100 \
#9000
0C
#9500
1C
#9600
0E
b00000000 F
b00000000 G
b00010101 ?
b00000111 @
b00010101 F
b00000111 G
1E
b00000000 r
b00000010 q
b00000000100 [
b00000010 r
b00000000101 \
#10000
0C
#10500
1C
#10600
0E
b00000000 F
b00000000 G
b01101110 ?
b01101110 F
b00000111 G
1E
b00000111 t
b00000000101 [
b00000000110 \
#11000
0C
#11500
1C
#11600
0E
b00000000 F
b00000000 G
b00100111 A
b00000101 B
b00100111 F
1H
b00000000 t
b00000101 I
b00000111 s
b00000000110 [
b00000111 t
b00000000111 \
#12000
0C
#12500
1C
#12600
b00100100 A
b00000010 B
b00100100 F
b00000010 I
b00000000111 [
b00000001000 \
#13000
0C
#13500
1C
#13600
b00100101 A
b00100101 F
b00000001000 [
b00000110 v
b01110111 Z
b00000101 X
b00000001 R
1c
b00000001001 \
#14000
0C
#14500
1C
#14600
b01000111 A
b00000101 B
b01000111 F
b00000101 I
b00000110 u
b00000001 Q
b00000001001 [
b00000101 W
b01110111 Y
0c
1m
b00000001010 \
0e
0d
#15000
0C
#15500
1C
#15600
b01000100 A
b00000010 B
b01000100 F
b00000010 I
b00000001010 [
1l
1M
b00000001011 \
#16000
0C
#16500
1C
#16600
b01000101 A
b01000101 F
b00000001011 [
b00000001100 \
#17000
0C
#17500
1C
#17600
b00010101 A
b00000110 B
b00010101 F
b00000110 I
b00000001100 [
b00000001101 \
#18000
0C
#18500
1C
#18600
b01101110 A
b00000111 B
b01101110 F
b00000111 I
b00000001101 [
b00000001110 \
#19000
0C
#19500
1C
#19600
b00110101 A
b00000110 B
b00110101 F
b00000110 I
b00000001110 [
b00000001111 \
#20000
0C
#20500
1C
#20600
1O
b00101000 A
b01110111 B
b00101000 F
0m
1n
b01110111 I
b00000000 u
b00000000 v
b00000110 u
b00000001111 [
b00000110 v
b00000000 u
b00000010000 \
b00000000 v
#21000
0C
#21500
1C
#21600
b01001000 A
b01001000 F
b00000010000 [
0l
0M
b00000010 R
1c
0n
b00000010001 \
#22000
0C
#22500
1C
#22600
b01000110 F
b00000001 I
b00000010 Q
b00000010001 [
b00000010 I
0c
b00000010010 \
#23000
0C
#23500
1C
#23600
0O
b00000010010 [
b00000010011 \
#24000
0C
#24500
1C
#24600
b00000010011 [
b00000010100 \
#25000
0C
#25500
1C
#25600
b00000010100 [
b00000010101 \
#26000
0C
#26500
1C
#26600
b00000010101 [
b00000010110 \
#27000
0C
#27500
1C
#27600
b00000010110 [
b00000010111 \
#28000
0C
#28500
1C
#28600
b00000010111 [
b00000011000 \
#29000
0C
#29500
1C
#29600
b00000011000 [
b00000011 R
1c
b00000011001 \
#30000
0C
#30500
1C
#30600
b00000011 Q
b00000011001 [
b00000011 I
0c
b00000011010 \
#31000
0C
#31500
1C
#31600
b00000011010 [
b00000011011 \
#32000
0C
#32500
1C
#32600
1"
b00000011011 [
b00000011100 \
#33000
0C
#33500
1C
#33600
b00000011100 [
b00000011101 \
#34000
0C
#34500
1C
#34600
b00000011101 [
b00000011110 \
#35000
0C
#35500
1C
#35600
b00000011110 [
b00000011111 \
#36000
0C
#36500
1C
#36600
b00000011111 [
b00000100000 \
#37000
0C
#37500
1C
#37600
b00000100000 [
b00000100 R
1c
b00000100001 \
#38000
0C
#38500
1C
#38600
b00000100 Q
b00000100001 [
b00000100 I
0c
b00000100010 \
#39000
0C
#39500
1C
#39600
b00000100010 [
b00000100011 \
#40000
0C
#40500
1C
#40600
b00000100011 [
b00000100100 \
#41000
0C
#41500
1C
#41600
b00000100100 [
b00000100101 \
#42000
0C
#42500
1C
#42600
b00000100101 [
b00000100110 \
#43000
0C
#43500
1C
#43600
b00000100110 [
b00000100111 \
#44000
0C
#44500
1C
#44600
b00000100111 [
b00000101000 \
#45000
0C
#45500
1C
#45600
b00000101000 [
b00000101 R
1c
b00000101001 \
#46000
0C
#46500
1C
#46600
b00000101 Q
b00000101001 [
b00000101 I
0c
1d
b00000101010 \
#47000
0C
#47500
1C
#47600
b00000101010 [
b00000101011 \
#48000
0C
#48500
1C
#48600
b00000101011 [
b00000101100 \
#49000
0C
#49500
1C
#49600
b00000101100 [
b00000101101 \
#50000
0C
#50500
1C
#50600
b00000101101 [
b00000101110 \
#51000
0C
#51500
1C
#51600
b00000101110 [
b00000101111 \
#52000
0C
#52500
1C
#52600
b00000101111 [
b00000110000 \
#53000
0C
#53500
1C
#53600
b00000110000 [
b00000010 v
b00000000 R
1a
1c
b00000110001 \
#54000
0C
#54500
1C
#54600
b00000010 u
b00000000 Q
b00000110001 [
b00000000 I
0a
0c
1m
b00000110010 \
0d
#55000
0C
#55500
1C
#55600
b00000110010 [
1l
1M
b00000110011 \
#56000
0C
#56500
1C
#56600
b00000110011 [
b00000110100 \
#57000
0C
#57500
1C
#57600
1O
0m
1n
b00000000 u
b00000000 v
b00000010 u
b00000110100 [
b00000010 v
b00000000 u
b00000110101 \
b00000000 v
#58000
0C
#58500
1C
#58600
b00000110101 [
0l
0M
0n
b00000110110 \
#59000
0C
#59500
1C
#59600
b00000110110 [
b00000110111 \
#60000
0C
#60500
1C
#60600
b00000110111 [
b00000111000 \
#61000
0C
#61500
1C
#61600
b00000111000 [
b00000001 R
1c
b00000111001 \
#62000
0C
#62500
1C
#62600
0O
b00000001 Q
b00000111001 [
b00000001 I
0c
b00000111010 \
#63000
0C
#63500
1C
#63600
b00000111010 [
b00000111011 \
#64000
0C
#64500
1C
#64600
b00000111011 [
b00000111100 \
#65000
0C
#65500
1C
#65600
b00000111100 [
b00000111101 \
#66000
0C
#66500
1C
#66600
b00000111101 [
b00000111110 \
#67000
0C
#67500
1C
#67600
b00000111110 [
b00000111111 \
#68000
0C
#68500
1C
#68600
b00000111111 [
b00001000000 \
#69000
0C
#69500
1C
#69600
b00001000000 [
b00000010 R
1c
b00001000001 \
#70000
0C
#70500
1C
#70600
b00000010 Q
b00001000001 [
b00000010 I
0c
b00001000010 \
#71000
0C
#71500
1C
#71600
b00001000010 [
b00001000011 \
#72000
0C
#72500
1C
#72600
b00001000011 [
b00001000100 \
#73000
0C
#73500
1C
#73600
b00001000100 [
b00001000101 \
#74000
0C
#74500
1C
#74600
b00001000101 [
b00001000110 \
#75000
0C
#75500
1C
#75600
b00001000110 [
b00001000111 \
#76000
0C
#76500
1C
#76600
b00001000111 [
b00001001000 \
#77000
0C
#77500
1C
#77600
b00001001000 [
b00000011 R
1c
b00001001001 \
#78000
0C
#78500
1C
#78600
b00000011 Q
b00001001001 [
b00000011 I
0c
b00001001010 \
#79000
0C
#79500
1C
#79600
b00001001010 [
b00001001011 \
#80000
0C
#80500
1C
#80600
b00001001011 [
b00001001100 \
#81000
0C
#81500
1C
#81600
b00001001100 [
b00001001101 \
#82000
0C
#82500
1C
#82600
b00001001101 [
b00001001110 \
#83000
0C
#83500
1C
#83600
b00001001110 [
b00001001111 \
#84000
0C
#84500
1C
#84600
b00001001111 [
b00001010000 \
#85000
0C
#85500
1C
#85600
b00001010000 [
b00000100 R
1c
b00001010001 \
#86000
0C
#86500
1C
#86600
b00000100 Q
b00001010001 [
b00000100 I
0c
b00001010010 \
#87000
0C
#87500
1C
#87600
b00001010010 [
b00001010011 \
#88000
0C
#88500
1C
#88600
b00001010011 [
b00001010100 \
#89000
0C
#89500
1C
#89600
b00001010100 [
b00001010101 \
#90000
0C
#90500
1C
#90600
b00001010101 [
b00001010110 \
#91000
0C
#91500
1C
#91600
b00001010110 [
b00001010111 \
#92000
0C
#92500
1C
#92600
b00001010111 [
b00001011000 \
#93000
0C
#93500
1C
#93600
b00001011000 [
b00000101 R
1c
b00001011001 \
#94000
0C
#94500
1C
#94600
b00000101 Q
b00001011001 [
b00000101 I
0c
1d
b00001011010 \
#95000
0C
#95500
1C
#95600
b00001011010 [
b00001011011 \
#96000
0C
#96500
1C
#96600
b00001011011 [
b00001011100 \
#97000
0C
#97500
1C
#97600
b00001011100 [
b00001011101 \
#98000
0C
#98500
1C
#98600
b00001011101 [
b00001011110 \
#99000
0C
#99500
1C
#99600
b00001011110 [
b00001011111 \
#100000
0C
#100500
1C
#100600
b00001011111 [
b00001100000 \
#101000
0C
#101500
1C
#101600
b00001100000 [
b00000010 v
b00000000 R
1a
1c
b00001100001 \
#102000
0C
#102500
1C
#102600
b00000010 u
b00000000 Q
b00001100001 [
b00000000 I
0a
0c
1m
b00001100010 \
0d
#103000
0C
#103500
1C
#103600
b00001100010 [
1l
1M
b00001100011 \
#104000
0C
#104500
1C
#104600
b00001100011 [
b00001100100 \
#105000
0C
#105500
1C
#105600
b00001100100 [
b00001100101 \
#106000
0C
#106500
1C
#106600
b00001100101 [
b00001100110 \
#107000
0C
#107500
1C
#107600
b00001100110 [
b00001100111 \
#108000
0C
#108500
1C
#108600
b00001100111 [
b00001101000 \
#109000
0C
#109500
1C
#109600
1O
0m
1n
b00000000 u
b00000000 v
b00000010 u
b00001101000 [
b00000010 v
b00000000 u
b00000001 R
1c
b00001101001 \
b00000000 v
#110000
0C
#110500
1C
#110600
b00000001 Q
b00001101001 [
0l
0M
b00000001 I
0c
0n
b00001101010 \
#111000
0C
#111500
1C
#111600
b00001101010 [
b00001101011 \
#112000
0C
#112500
1C
#112600
b00001101011 [
b00001101100 \
#113000
0C
#113500
1C
#113600
b00001101100 [
b00001101101 \
#114000
0C
#114500
1C
#114600
b00001101101 [
b00001101110 \
#115000
0C
#115500
1C
#115600
b00001101110 [
b00001101111 \
#116000
0C
#116500
1C
#116600
0O
b00001101111 [
b00001110000 \
#117000
0C
#117500
1C
#117600
b00001110000 [
b00000010 R
1c
b00001110001 \
#118000
0C
#118500
1C
#118600
b00000010 Q
b00001110001 [
b00000010 I
0c
b00001110010 \
#119000
0C
#119500
1C
#119600
b00001110010 [
b00001110011 \
#120000
0C
#120500
1C
#120600
b00001110011 [
b00001110100 \
#121000
0C
#121500
1C
#121600
b00001110100 [
b00001110101 \
#122000
0C
#122500
1C
#122600
b00001110101 [
b00001110110 \
#123000
0C
#123500
1C
#123600
b00001110110 [
b00001110111 \
#124000
0C
#124500
1C
#124600
b00001110111 [
b00001111000 \
#125000
0C
#125500
1C
#125600
b00001111000 [
b00000011 R
1c
b00001111001 \
#126000
0C
#126500
1C
#126600
b00000011 Q
b00001111001 [
b00000011 I
0c
b00001111010 \
#127000
0C
#127500
1C
#127600
b00001111010 [
b00001111011 \
#128000
0C
#128500
1C
#128600
b00001111011 [
b00001111100 \
#129000
0C
#129500
1C
#129600
b00001111100 [
b00001111101 \
#130000
0C
#130500
1C
#130600
b00001111101 [
b00001111110 \
#131000
0C
#131500
1C
#131600
b00001111110 [
b00001111111 \
#132000
0C
#132500
1C
#132600
b00001111111 [
b00010000000 \
#133000
0C
#133500
1C
#133600
b00010000000 [
b00000100 R
1c
b00010000001 \
#134000
0C
#134500
1C
#134600
b00000100 Q
b00010000001 [
b00000100 I
0c
b00010000010 \
#135000
0C
#135500
1C
#135600
b00010000010 [
b00010000011 \
#136000
0C
#136500
1C
#136600
b00010000011 [
b00010000100 \
#137000
0C
#137500
1C
#137600
b00010000100 [
b00010000101 \
#138000
0C
#138500
1C
#138600
b00010000101 [
b00010000110 \
#139000
0C
#139500
1C
#139600
b00010000110 [
b00010000111 \
#140000
0C
#140500
1C
#140600
b00010000111 [
b00010001000 \
#141000
0C
#141500
1C
#141600
b00010001000 [
b00000101 R
1c
b00010001001 \
#142000
0C
#142500
1C
#142600
b00000101 Q
b00010001001 [
b00000101 I
0c
1d
b00010001010 \
#143000
0C
#143500
1C
#143600
b00010001010 [
b00010001011 \
#144000
0C
#144500
1C
#144600
b00010001011 [
b00010001100 \
#145000
0C
#145500
1C
#145600
b00010001100 [
b00010001101 \
#146000
0C
#146500
1C
#146600
b00010001101 [
b00010001110 \
#147000
0C
#147500
1C
#147600
b00010001110 [
b00010001111 \
#148000
0C
#148500
1C
#148600
b00010001111 [
b00010010000 \
#149000
0C
#149500
1C
#149600
b00010010000 [
b00000010 v
b00000000 R
1a
1c
b00010010001 \
#150000
0C
#150500
1C
#150600
b00000010 u
b00000000 Q
b00010010001 [
b00000000 I
0a
0c
1m
b00010010010 \
0d
#151000
0C
#151500
1C
#151600
b00010010010 [
1l
1M
b00010010011 \
#152000
0C
#152500
1C
#152600
b00010010011 [
b00010010100 \
#153000
0C
#153500
1C
#153600
b00010010100 [
b00010010101 \
#154000
0C
#154500
1C
#154600
b00010010101 [
b00010010110 \
#155000
0C
#155500
1C
#155600
b00010010110 [
b00010010111 \
#156000
0C
#156500
1C
#156600
b00010010111 [
b00010011000 \
#157000
0C
#157500
1C
#157600
1O
0m
1n
b00000000 u
b00000000 v
b00000010 u
b00010011000 [
b00000010 v
b00000000 u
b00000001 R
1c
b00010011001 \
b00000000 v
#158000
0C
#158500
1C
#158600
b00000001 Q
b00010011001 [
0l
0M
b00000001 I
0c
0n
b00010011010 \
#159000
0C
#159500
1C
#159600
b00010011010 [
b00010011011 \
#160000
0C
#160500
1C
#160600
b00010011011 [
b00010011100 \
#161000
0C
#161500
1C
#161600
0O
b00010011100 [
b00010011101 \
#162000
0C
#162500
1C
#162600
b00010011101 [
b00010011110 \
#163000
0C
#163500
1C
#163600
b00010011110 [
b00010011111 \
#164000
0C
#164500
1C
#164600
b00010011111 [
b00010100000 \
#165000
0C
#165500
1C
#165600
b00010100000 [
b00000010 R
1c
b00010100001 \
#166000
0C
#166500
1C
#166600
b00000010 Q
b00010100001 [
b00000010 I
0c
b00010100010 \
#167000
0C
#167500
1C
#167600
b00010100010 [
b00010100011 \
#168000
0C
#168500
1C
#168600
b00010100011 [
b00010100100 \
#169000
0C
#169500
1C
#169600
b00010100100 [
b00010100101 \
#170000
0C
#170500
1C
#170600
b00010100101 [
b00010100110 \
#171000
0C
#171500
1C
#171600
b00010100110 [
b00010100111 \
#172000
0C
#172500
1C
#172600
b00010100111 [
b00010101000 \
#173000
0C
#173500
1C
#173600
b00010101000 [
b00000011 R
1c
b00010101001 \
#174000
0C
#174500
1C
#174600
b00000011 Q
b00010101001 [
b00000011 I
0c
b00010101010 \
#175000
0C
#175500
1C
#175600
b00010101010 [
b00010101011 \
#176000
0C
#176500
1C
#176600
b00010101011 [
b00010101100 \
#177000
0C
#177500
1C
#177600
b00010101100 [
b00010101101 \
#178000
0C
#178500
1C
#178600
b00010101101 [
b00010101110 \
#179000
0C
#179500
1C
#179600
b00010101110 [
b00010101111 \
#180000
0C
#180500
1C
#180600
b00010101111 [
b00010110000 \
#181000
0C
#181500
1C
#181600
b00010110000 [
b00000100 R
1c
b00010110001 \
#182000
0C
#182500
1C
#182600
b00000100 Q
b00010110001 [
b00000100 I
0c
b00010110010 \
#183000
0C
#183500
1C
#183600
b00010110010 [
b00010110011 \
#184000
0C
#184500
1C
#184600
b00010110011 [
b00010110100 \
#185000
0C
#185500
1C
#185600
b00010110100 [
b00010110101 \
#186000
0C
#186500
1C
#186600
b00010110101 [
b00010110110 \
#187000
0C
#187500
1C
#187600
b00010110110 [
b00010110111 \
#188000
0C
#188500
1C
#188600
b00010110111 [
b00010111000 \
#189000
0C
#189500
1C
#189600
b00010111000 [
b00000101 R
1c
b00010111001 \
#190000
0C
#190500
1C
#190600
b00000101 Q
b00010111001 [
b00000101 I
0c
1d
b00010111010 \
#191000
0C
#191500
1C
#191600
b00010111010 [
b00010111011 \
#192000
0C
#192500
1C
#192600
b00010111011 [
b00010111100 \
#193000
0C
#193500
1C
#193600
b00010111100 [
b00010111101 \
#194000
0C
#194500
1C
#194600
b00010111101 [
b00010111110 \
#195000
0C
#195500
1C
#195600
b00010111110 [
b00010111111 \
#196000
0C
#196500
1C
#196600
b00010111111 [
b00011000000 \
#197000
0C
#197500
1C
#197600
b00011000000 [
b00000010 v
b00000000 R
1a
1c
b00011000001 \
#198000
0C
#198500
1C
#198600
b00000010 u
b00000000 Q
b00011000001 [
b00000000 I
0a
0c
1m
b00011000010 \
0d
#199000
0C
#199500
1C
#199600
b00011000010 [
1l
1M
b00011000011 \
#200000
0C
#200500
1C
#200600
b00011000011 [
b00011000100 \
#201000
0C
#201500
1C
#201600
1O
0m
1n
b00000000 u
b00000000 v
b00000010 u
b00011000100 [
b00000010 v
b00000000 u
b00011000101 \
b00000000 v
#202000
0C
#202500
1C
#202600
b00011000101 [
0l
0M
0n
b00011000110 \
#203000
0C
#203500
1C
#203600
b00011000110 [
b00011000111 \
#204000
0C
#204500
1C
#204600
b00011000111 [
b00011001000 \
#205000
0C
#205500
1C
#205600
b00011001000 [
b00000001 R
1c
b00011001001 \
#206000
0C
#206500
1C
#206600
b00000001 Q
b00011001001 [
b00000001 I
0c
b00011001010 \
#207000
0C
#207500
1C
#207600
b00011001010 [
b00011001011 \
#208000
0C
#208500
1C
#208600
0O
b00011001011 [
b00011001100 \
#209000
0C
#209500
1C
#209600
b00011001100 [
b00011001101 \
#210000
0C
#210500
1C
#210600
b00011001101 [
b00011001110 \
#211000
0C
#211500
1C
#211600
b00011001110 [
b00011001111 \
#212000
0C
#212500
1C
#212600
b00011001111 [
b00011010000 \
#213000
0C
#213500
1C
#213600
b00011010000 [
b00000010 R
1c
b00011010001 \
#214000
0C
#214500
1C
#214600
b00000010 Q
b00011010001 [
b00000010 I
0c
b00011010010 \
#215000
0C
#215500
1C
#215600
b00011010010 [
b00011010011 \
#216000
0C
#216500
1C
#216600
b00011010011 [
b00011010100 \
#217000
0C
#217500
1C
#217600
b00011010100 [
b00011010101 \
#218000
0C
#218500
1C
#218600
b00011010101 [
b00011010110 \
#219000
0C
#219500
1C
#219600
b00011010110 [
b00011010111 \
#220000
0C
#220500
1C
#220600
b00011010111 [
b00011011000 \
#221000
0C
#221500
1C
#221600
b00011011000 [
b00000011 R
1c
b00011011001 \
#222000
0C
#222500
1C
#222600
b00000011 Q
b00011011001 [
b00000011 I
0c
b00011011010 \
#223000
0C
#223500
1C
#223600
b00011011010 [
b00011011011 \
#224000
0C
#224500
1C
#224600
b00011011011 [
b00011011100 \
#225000
0C
#225500
1C
#225600
b00011011100 [
b00011011101 \
#226000
0C
#226500
1C
#226600
b00011011101 [
b00011011110 \
#227000
0C
#227500
1C
#227600
b00011011110 [
b00011011111 \
#228000
0C
#228500
1C
#228600
b00011011111 [
b00011100000 \
#229000
0C
#229500
1C
#229600
b00011100000 [
b00000100 R
1c
b00011100001 \
#230000
0C
#230500
1C
#230600
b00000100 Q
b00011100001 [
b00000100 I
0c
b00011100010 \
#231000
0C
#231500
1C
#231600
b00011100010 [
b00011100011 \
#232000
0C
#232500
1C
#232600
b00011100011 [
b00011100100 \
#233000
0C
#233500
1C
#233600
b00011100100 [
b00011100101 \
#234000
0C
#234500
1C
#234600
b00011100101 [
b00011100110 \
#235000
0C
#235500
1C
#235600
b00011100110 [
b00011100111 \
#236000
0C
#236500
1C
#236600
b00011100111 [
b00011101000 \
#237000
0C
#237500
1C
#237600
b00011101000 [
b00000101 R
1c
b00011101001 \
#238000
0C
#238500
1C
#238600
b00000101 Q
b00011101001 [
b00000101 I
0c
1d
b00011101010 \
#239000
0C
#239500
1C
#239600
b00011101010 [
b00011101011 \
#240000
0C
#240500
1C
#240600
b00011101011 [
b00011101100 \
#241000
0C
#241500
1C
#241600
b00011101100 [
b00011101101 \
#242000
0C
#242500
1C
#242600
b00011101101 [
b00011101110 \
#243000
0C
#243500
1C
#243600
b00011101110 [
b00011101111 \
#244000
0C
#244500
1C
#244600
b00011101111 [
b00011110000 \
#245000
0C
#245500
1C
#245600
b00011110000 [
b00000010 v
b00000000 R
1a
1c
b00011110001 \
#246000
0C
#246500
1C
#246600
b00000010 u
b00000000 Q
b00011110001 [
b00000000 I
0a
0c
1m
b00011110010 \
0d
#247000
0C
#247500
1C
#247600
b00011110010 [
1l
1M
b00011110011 \
#248000
0C
#248500
1C
#248600
b00011110011 [
b00011110100 \
#249000
0C
#249500
1C
#249600
b00011110100 [
b00011110101 \
#250000
0C
#250500
1C
#250600
b00011110101 [
b00011110110 \
#251000
0C
#251500
1C
#251600
b00011110110 [
b00011110111 \
#252000
0C
#252500
1C
#252600
b00011110111 [
b00011111000 \
#253000
0C
#253500
1C
#253600
b00011111000 [
b00000001 R
1c
b00011111001 \
#254000
0C
#254500
1C
#254600
1O
0m
1n
b00000000 u
b00000000 v
b00000010 u
b00000001 Q
b00011111001 [
b00000001 I
b00000010 v
b00000000 u
0c
b00011111010 \
b00000000 v
#255000
0C
#255500
1C
#255600
b00011111010 [
0l
0M
0n
b00011111011 \
#256000
0C
#256500
1C
#256600
b00011111011 [
b00011111100 \
#257000
0C
#257500
1C
#257600
b00011111100 [
b00011111101 \
#258000
0C
#258500
1C
#258600
b00011111101 [
b00011111110 \
#259000
0C
#259500
1C
#259600
b00011111110 [
b00011111111 \
#260000
0C
#260500
1C
#260600
b00011111111 [
b00100000000 \
#261000
0C
#261500
1C
#261600
0O
b00100000000 [
b00000010 R
1c
b00100000001 \
#262000
0C
#262500
1C
