playground/272/tc.vcd
$date
	Tue Feb 24 18:15:24 2015
$end

$version
	Synopsys VCS version I-2014.03-2
$end

$timescale
	10ps
$end

$comment Csum: 1 efb95b8895fe16d6 $end


$scope module top $end
$var reg 1 ! debug $end
$var reg 1 " test1_running $end
$var reg 1 # test2_running $end
$var reg 1 $ test3_running $end
$var reg 1 % test4_running $end
$var reg 1 & test5_running $end
$var reg 1 ' test6_running $end
$var reg 1 ( test7_running $end
$var reg 1 ) test8_running $end
$var reg 1 * test9_running $end
$var reg 32 + death [31:0] $end
$var reg 8 , A_tccra [7:0] $end
$var reg 8 - A_tccra1 [7:0] $end
$var reg 8 . A_tccrb [7:0] $end
$var reg 8 / A_tccrb1 [7:0] $end
$var reg 8 0 A_ocra [7:0] $end
$var reg 8 1 A_ocra1 [7:0] $end
$var reg 8 2 A_ocrb [7:0] $end
$var reg 8 3 A_ocrb1 [7:0] $end
$var reg 8 4 A_tcnt [7:0] $end
$var reg 8 5 A_tcnt1 [7:0] $end
$var reg 8 6 A_timsk [7:0] $end
$var reg 8 7 A_tifr [7:0] $end
$var reg 8 8 A_tifr1 [7:0] $end
$var reg 32 9 div [31:0] $end

$scope task die $end
$upscope $end


$scope task wreg $end
$var reg 8 : addr [7:0] $end
$var reg 8 ; datax [7:0] $end
$upscope $end


$scope task rreg $end
$var reg 8 < addr [7:0] $end
$var reg 8 = datax [7:0] $end
$upscope $end


$scope task easyplay $end
$upscope $end


$scope task test1 $end
$upscope $end


$scope task test2 $end
$upscope $end


$scope task test3 $end
$upscope $end


$scope task test4 $end
$upscope $end


$scope task test5 $end
$upscope $end


$scope task test6 $end
$upscope $end


$scope task test7 $end
$upscope $end


$scope task test8 $end
$upscope $end


$scope task test9 $end
$upscope $end


$scope task _$$txp______assert_unnamed$$_16 $end
$upscope $end


$scope task _$$txp______assert_unnamed$$_19 $end
$upscope $end


$scope task _$$txp______assert_unnamed$$_21 $end
$upscope $end


$scope task _$$txp______assert_unnamed$$_24 $end
$upscope $end


$scope task _$$txp______assert_unnamed$$_26 $end
$upscope $end


$scope task _$$txp______assert_unnamed$$_29 $end
$upscope $end


$scope task _$$txp______assert_unnamed$$_31 $end
$upscope $end


$scope task _$$txp______assert_unnamed$$_37 $end
$upscope $end


$scope task _$$txp______assert_unnamed$$_42 $end
$upscope $end


$scope task _$$txp_fail_action_unnamed$$_9 $end
$upscope $end


$scope task _$$txp_fail_action_unnamed$$_10 $end
$upscope $end


$scope task _$$txp_fail_action_unnamed$$_11 $end
$upscope $end


$scope task _$$txp_fail_action_unnamed$$_12 $end
$upscope $end


$scope task _$$txp_fail_action_unnamed$$_13 $end
$upscope $end


$scope task _$$txp_fail_action_unnamed$$_14 $end
$upscope $end


$scope task _$$txp_fail_action_unnamed$$_15 $end
$upscope $end


$scope task _$$txp_fail_action_unnamed$$_17 $end
$upscope $end


$scope task _$$txp_fail_action_unnamed$$_18 $end
$upscope $end


$scope task _$$txp_fail_action_unnamed$$_20 $end
$upscope $end


$scope task _$$txp_fail_action_unnamed$$_22 $end
$upscope $end


$scope task _$$txp_fail_action_unnamed$$_23 $end
$upscope $end


$scope task _$$txp_fail_action_unnamed$$_25 $end
$upscope $end


$scope task _$$txp_fail_action_unnamed$$_27 $end
$upscope $end


$scope task _$$txp_fail_action_unnamed$$_28 $end
$upscope $end


$scope task _$$txp_fail_action_unnamed$$_30 $end
$upscope $end


$scope task _$$txp_fail_action_unnamed$$_32 $end
$upscope $end


$scope task _$$txp_fail_action_unnamed$$_33 $end
$upscope $end


$scope task _$$txp_fail_action_unnamed$$_34 $end
$upscope $end


$scope task _$$txp_fail_action_unnamed$$_35 $end
$upscope $end


$scope task _$$txp_fail_action_unnamed$$_36 $end
$upscope $end


$scope task _$$txp_fail_action_unnamed$$_38 $end
$upscope $end


$scope task _$$txp_fail_action_unnamed$$_39 $end
$upscope $end


$scope task _$$txp_fail_action_unnamed$$_40 $end
$upscope $end


$scope task _$$txp_fail_action_unnamed$$_41 $end
$upscope $end


$scope task _$$txp_fail_action_unnamed$$_43 $end
$upscope $end


$scope task _$$txp_fail_action_unnamed$$_44 $end
$upscope $end


$scope task _$$txp_fail_action_unnamed$$_45 $end
$upscope $end


$scope task _$$txp_fail_action_unnamed$$_46 $end
$upscope $end


$scope task _$$txp_fail_action_unnamed$$_16 $end
$upscope $end


$scope task _$$txp_fail_action_unnamed$$_19 $end
$upscope $end


$scope task _$$txp_fail_action_unnamed$$_21 $end
$upscope $end


$scope task _$$txp_fail_action_unnamed$$_24 $end
$upscope $end


$scope task _$$txp_fail_action_unnamed$$_26 $end
$upscope $end


$scope task _$$txp_fail_action_unnamed$$_29 $end
$upscope $end


$scope task _$$txp_fail_action_unnamed$$_31 $end
$upscope $end


$scope task _$$txp_fail_action_unnamed$$_37 $end
$upscope $end


$scope task _$$txp_fail_action_unnamed$$_42 $end
$upscope $end


$scope module ai $end
$var reg 1 > clk $end
$var reg 1 ? rst $end
$var reg 1 @ write $end
$var reg 8 A addr [7:0] $end
$var reg 8 B wdata [7:0] $end
$var reg 1 C read $end
$var reg 8 D rdata [7:0] $end
$var reg 1 E t0 $end
$var reg 1 F oca_data $end
$var reg 1 G ocb_data $end
$var reg 1 H interrupt_request $end
$var reg 1 I status_reg_interrupt_enable $end
$var reg 1 J interrupt_executed $end
$upscope $end


$scope module t $end
$var reg 3 K wgm [2:0] $end
$var reg 8 L tcnt [7:0] $end
$var reg 8 M tcnt_d [7:0] $end
$var reg 8 N ocra [7:0] $end
$var reg 8 O ocra_d [7:0] $end
$var reg 8 P ocrb [7:0] $end
$var reg 8 Q ocrb_d [7:0] $end
$var reg 8 R ocra_wk [7:0] $end
$var reg 8 S ocra_wk_d [7:0] $end
$var reg 8 T ocrb_wk [7:0] $end
$var reg 8 U ocrb_wk_d [7:0] $end
$var reg 11 V clkdiv [10:0] $end
$var reg 11 W clkdiv_d [10:0] $end
$var reg 1 X t0a $end
$var reg 1 Y t0b $end
$var reg 1 Z tov $end
$var reg 1 [ tov_d $end
$var reg 1 \ top $end
$var reg 1 ] bottom $end
$var reg 1 ^ timer_event $end
$var reg 1 _ oca_raw $end
$var reg 1 ` ocb_raw $end
$var reg 1 a oca_d $end
$var reg 1 b oca $end
$var reg 1 c ocb_d $end
$var reg 1 d ocb $end
$var reg 1 e cntdir $end
$var reg 1 f cntdir_d $end
$var reg 1 g irq $end
$var reg 1 h irq_d $end
$var reg 1 i intr_exec $end
$var reg 8 j tccra [7:0] $end
$var reg 8 k tccra_d [7:0] $end
$var reg 8 l tccrb [7:0] $end
$var reg 8 m tccrb_d [7:0] $end
$var reg 8 n timsk [7:0] $end
$var reg 8 o timsk_d [7:0] $end
$var reg 8 p tifr [7:0] $end
$var reg 8 q tifr_d [7:0] $end
$upscope $end

$upscope $end

$enddefinitions $end

#0
$dumpvars
0]
xe
xf
1!
xi
xg
xh
xb
xa
x_
xd
xc
x`
xX
xY
0\
0"
0#
0$
0%
0&
0'
0(
0)
0*
x^
0Z
0[
b00100111 0
b01000111 1
b00101000 2
b01001000 3
b00100100 ,
b01000100 -
b00100101 .
b01000101 /
b00100110 4
b01000110 5
b00010101 7
b00110101 8
b01101110 6
bxxxxxxxx k
bxxxxxxxx j
b00xxxxxx m
bxxxxxxxx l
bxxxxxxxx q
bxxxxxxxx p
bxxxxxxxx o
bxxxxxxxx n
bxxxxxxxxxxx V
bxxxxxxxxxxx W
bxxxxxxxx N
bxxxxxxxx O
bxxxxxxxx R
bxxxxxxxx S
bxxxxxxxx P
bxxxxxxxx Q
bxxxxxxxx T
bxxxxxxxx U
bxxxxxxxx <
bxxxxxxxx =
bxxxxxxxx L
bxxxxxxxx M
bxxx K
bxxxxxxxx :
bxxxxxxxx ;
b00000000000000000000000000000000 +
b00000000000000000000000000001000 9
1J
1I
xH
xG
xF
0E
0C
0@
0?
0>
bxxxxxxxx D
b00110100 B
b00010010 A
$end
#500
1>
#600
0J
1?
0i
b00xxxxxx l
0X
#700
b00000000 j
b00000000 l
b00000000 n
b00000000 p
b00000000 L
b00000000 N
b00000000 P
0Y
b00000000000 V
0e
0b
0F
0d
0G
0g
0H
b00000000 R
b00000000 T
b00000000 q
0c
0a
0f
b00000000 o
b00000000 U
b00000000 S
b00000000 Q
b00000000 O
b00000000 M
b00000000 k
b00000000 m
0^
b000 K
1`
1_
0h
b00000000001 W
#1000
1E
0>
#1500
1>
#2000
0E
0>
#2500
1>
#3000
1E
0>
#3500
1>
#4000
0E
0>
#4500
1>
#5000
1E
0>
#5500
1>
#5600
0?
b00100111 :
b00000101 ;
b00100111 A
b00000101 B
1@
b00000101 O
#6000
0E
0>
#6500
1>
#6600
0@
b00000000 A
b00000000 B
b00101000 :
b01110111 ;
b00101000 A
b01110111 B
1@
b00000000 O
b01110111 Q
b00000101 N
b00000000001 V
b00000101 O
b00000000010 W
#7000
1E
0>
#7500
1>
#7600
0@
b00000000 A
b00000000 B
b00100100 :
b00000010 ;
b00100100 A
b00000010 B
1@
b00000000 Q
b00000010 k
b01110111 P
1X
b00000000010 V
b01110111 Q
b00000000011 W
#8000
0E
0>
#8500
1>
#8600
0@
b00000000 A
b00000000 B
b00100101 :
b00100101 A
b00000010 B
1@
b00000000 k
b00000010 m
b00000010 j
0X
1Y
b00000000011 V
b00000010 k
b010 K
b00000000100 W
#9000
1E
0>
#9500
1>
#9600
0@
b00000000 A
b00000000 B
b00010101 :
b00000111 ;
b00010101 A
b00000111 B
1@
b00000000 m
b00000010 l
1X
0Y
b00000000100 V
b00000010 m
b00000000101 W
#10000
0E
0>
#10500
1>
#10600
0@
b00000000 A
b00000000 B
b01101110 :
b01101110 A
b00000111 B
1@
b00000111 o
0X
1Y
b00000000101 V
b00000000110 W
#11000
1E
0>
#11500
1>
#11600
0@
b00000000 A
b00000000 B
b00100111 <
b00000101 =
b00100111 A
1C
b00000000 o
b00000101 D
b00000111 n
1X
0Y
b00000000110 V
b00000111 o
b00000000111 W
#12000
0E
0>
#12500
1>
#12600
b00100100 <
b00000010 =
b00100100 A
b00000010 D
0X
1Y
b00000000111 V
b00000001000 W
#13000
1E
0>
#13500
1>
#13600
b00100101 <
b00100101 A
1X
0Y
b00000001000 V
b00000110 q
b01110111 U
b00000101 S
b00000001 M
1^
b00000001001 W
#14000
0E
0>
#14500
1>
#14600
b01000111 <
b00000101 =
b01000111 A
b00000101 D
b00000110 p
b00000001 L
0X
1Y
b00000001001 V
b00000101 R
b01110111 T
0^
1h
b00000001010 W
0`
0_
#15000
1E
0>
#15500
1>
#15600
b01000100 <
b00000010 =
b01000100 A
b00000010 D
1X
0Y
b00000001010 V
1g
1H
b00000001011 W
#16000
0E
0>
#16500
1>
#16600
b01000101 <
b01000101 A
0X
1Y
b00000001011 V
b00000001100 W
#17000
1E
0>
#17500
1>
#17600
b00010101 <
b00000110 =
b00010101 A
b00000110 D
1X
0Y
b00000001100 V
b00000001101 W
#18000
0E
0>
#18500
1>
#18600
b01101110 <
b00000111 =
b01101110 A
b00000111 D
0X
1Y
b00000001101 V
b00000001110 W
#19000
1E
0>
#19500
1>
#19600
b00110101 <
b00000110 =
b00110101 A
b00000110 D
1X
0Y
b00000001110 V
b00000001111 W
#20000
0E
0>
#20500
1>
#20600
1J
b00101000 <
b01110111 =
b00101000 A
0h
1i
b01110111 D
b00000000 p
b00000000 q
b00000110 p
0X
1Y
b00000001111 V
b00000110 q
b00000000 p
b00000010000 W
b00000000 q
#21000
1E
0>
#21500
1>
#21600
b01001000 <
b01001000 A
1X
0Y
b00000010000 V
0g
0H
b00000010 M
1^
0i
b00000010001 W
#22000
0E
0>
#22500
1>
#22600
b01000110 A
b00000001 D
b00000010 L
0X
1Y
b00000010001 V
b00000010 D
0^
b00000010010 W
#23000
1E
0>
#23500
1>
#23600
0J
1X
0Y
b00000010010 V
b00000010011 W
#24000
0E
0>
#24500
1>
#24600
0X
1Y
b00000010011 V
b00000010100 W
#25000
1E
0>
#25500
1>
#25600
1X
0Y
b00000010100 V
b00000010101 W
#26000
0E
0>
#26500
1>
#26600
0X
1Y
b00000010101 V
b00000010110 W
#27000
1E
0>
#27500
1>
#27600
1X
0Y
b00000010110 V
b00000010111 W
#28000
0E
0>
#28500
1>
#28600
0X
1Y
b00000010111 V
b00000011000 W
#29000
1E
0>
#29500
1>
#29600
1X
0Y
b00000011000 V
b00000011 M
1^
b00000011001 W
#30000
0E
0>
#30500
1>
#30600
b00000011 L
0X
1Y
b00000011001 V
b00000011 D
0^
b00000011010 W
#31000
1E
0>
#31500
1>
#31600
1X
0Y
b00000011010 V
b00000011011 W
#32000
0E
0>
#32500
1>
#32600
1"
0X
1Y
b00000011011 V
b00000011100 W
#33000
1E
0>
#33500
1>
#33600
1X
0Y
b00000011100 V
b00000011101 W
#34000
0E
0>
#34500
1>
#34600
0X
1Y
b00000011101 V
b00000011110 W
#35000
1E
0>
#35500
1>
#35600
1X
0Y
b00000011110 V
b00000011111 W
#36000
0E
0>
#36500
1>
#36600
0X
1Y
b00000011111 V
b00000100000 W
#37000
1E
0>
#37500
1>
#37600
1X
0Y
b00000100000 V
b00000100 M
1^
b00000100001 W
#38000
0E
0>
#38500
1>
#38600
b00000100 L
0X
1Y
b00000100001 V
b00000100 D
0^
b00000100010 W
#39000
1E
0>
#39500
1>
#39600
1X
0Y
b00000100010 V
b00000100011 W
#40000
0E
0>
#40500
1>
#40600
0X
1Y
b00000100011 V
b00000100100 W
#41000
1E
0>
#41500
1>
#41600
1X
0Y
b00000100100 V
b00000100101 W
#42000
0E
0>
#42500
1>
#42600
0X
1Y
b00000100101 V
b00000100110 W
#43000
1E
0>
#43500
1>
#43600
1X
0Y
b00000100110 V
b00000100111 W
#44000
0E
0>
#44500
1>
#44600
0X
1Y
b00000100111 V
b00000101000 W
#45000
1E
0>
#45500
1>
#45600
1X
0Y
b00000101000 V
b00000101 M
1^
b00000101001 W
#46000
0E
0>
#46500
1>
#46600
b00000101 L
0X
1Y
b00000101001 V
b00000101 D
0^
1_
b00000101010 W
#47000
1E
0>
#47500
1>
#47600
1X
0Y
b00000101010 V
b00000101011 W
#48000
0E
0>
#48500
1>
#48600
0X
1Y
b00000101011 V
b00000101100 W
#49000
1E
0>
#49500
1>
#49600
1X
0Y
b00000101100 V
b00000101101 W
#50000
0E
0>
#50500
1>
#50600
0X
1Y
b00000101101 V
b00000101110 W
#51000
1E
0>
#51500
1>
#51600
1X
0Y
b00000101110 V
b00000101111 W
#52000
0E
0>
#52500
1>
#52600
0X
1Y
b00000101111 V
b00000110000 W
#53000
1E
0>
#53500
1>
#53600
1X
0Y
b00000110000 V
b00000010 q
b00000000 M
1\
1^
b00000110001 W
#54000
0E
0>
#54500
1>
#54600
b00000010 p
b00000000 L
0X
1Y
b00000110001 V
b00000000 D
0\
0^
1h
b00000110010 W
0_
#55000
1E
0>
#55500
1>
#55600
1X
0Y
b00000110010 V
1g
1H
b00000110011 W
#56000
0E
0>
#56500
1>
#56600
0X
1Y
b00000110011 V
b00000110100 W
#57000
1E
0>
#57500
1>
#57600
1J
0h
1i
b00000000 p
b00000000 q
b00000010 p
1X
0Y
b00000110100 V
b00000010 q
b00000000 p
b00000110101 W
b00000000 q
#58000
0E
0>
#58500
1>
#58600
0X
1Y
b00000110101 V
0g
0H
0i
b00000110110 W
#59000
1E
0>
#59500
1>
#59600
1X
0Y
b00000110110 V
b00000110111 W
#60000
0E
0>
#60500
1>
#60600
0X
1Y
b00000110111 V
b00000111000 W
#61000
1E
0>
#61500
1>
#61600
1X
0Y
b00000111000 V
b00000001 M
1^
b00000111001 W
#62000
0E
0>
#62500
1>
#62600
0J
b00000001 L
0X
1Y
b00000111001 V
b00000001 D
0^
b00000111010 W
#63000
1E
0>
#63500
1>
#63600
1X
0Y
b00000111010 V
b00000111011 W
#64000
0E
0>
#64500
1>
#64600
0X
1Y
b00000111011 V
b00000111100 W
#65000
1E
0>
#65500
1>
#65600
1X
0Y
b00000111100 V
b00000111101 W
#66000
0E
0>
#66500
1>
#66600
0X
1Y
b00000111101 V
b00000111110 W
#67000
1E
0>
#67500
1>
#67600
1X
0Y
b00000111110 V
b00000111111 W
#68000
0E
0>
#68500
1>
#68600
0X
1Y
b00000111111 V
b00001000000 W
#69000
1E
0>
#69500
1>
#69600
1X
0Y
b00001000000 V
b00000010 M
1^
b00001000001 W
#70000
0E
0>
#70500
1>
#70600
b00000010 L
0X
1Y
b00001000001 V
b00000010 D
0^
b00001000010 W
#71000
1E
0>
#71500
1>
#71600
1X
0Y
b00001000010 V
b00001000011 W
#72000
0E
0>
#72500
1>
#72600
0X
1Y
b00001000011 V
b00001000100 W
#73000
1E
0>
#73500
1>
#73600
1X
0Y
b00001000100 V
b00001000101 W
#74000
0E
0>
#74500
1>
#74600
0X
1Y
b00001000101 V
b00001000110 W
#75000
1E
0>
#75500
1>
#75600
1X
0Y
b00001000110 V
b00001000111 W
#76000
0E
0>
#76500
1>
#76600
0X
1Y
b00001000111 V
b00001001000 W
#77000
1E
0>
#77500
1>
#77600
1X
0Y
b00001001000 V
b00000011 M
1^
b00001001001 W
#78000
0E
0>
#78500
1>
#78600
b00000011 L
0X
1Y
b00001001001 V
b00000011 D
0^
b00001001010 W
#79000
1E
0>
#79500
1>
#79600
1X
0Y
b00001001010 V
b00001001011 W
#80000
0E
0>
#80500
1>
#80600
0X
1Y
b00001001011 V
b00001001100 W
#81000
1E
0>
#81500
1>
#81600
1X
0Y
b00001001100 V
b00001001101 W
#82000
0E
0>
#82500
1>
#82600
0X
1Y
b00001001101 V
b00001001110 W
#83000
1E
0>
#83500
1>
#83600
1X
0Y
b00001001110 V
b00001001111 W
#84000
0E
0>
#84500
1>
#84600
0X
1Y
b00001001111 V
b00001010000 W
#85000
1E
0>
#85500
1>
#85600
1X
0Y
b00001010000 V
b00000100 M
1^
b00001010001 W
#86000
0E
0>
#86500
1>
#86600
b00000100 L
0X
1Y
b00001010001 V
b00000100 D
0^
b00001010010 W
#87000
1E
0>
#87500
1>
#87600
1X
0Y
b00001010010 V
b00001010011 W
#88000
0E
0>
#88500
1>
#88600
0X
1Y
b00001010011 V
b00001010100 W
#89000
1E
0>
#89500
1>
#89600
1X
0Y
b00001010100 V
b00001010101 W
#90000
0E
0>
#90500
1>
#90600
0X
1Y
b00001010101 V
b00001010110 W
#91000
1E
0>
#91500
1>
#91600
1X
0Y
b00001010110 V
b00001010111 W
#92000
0E
0>
#92500
1>
#92600
0X
1Y
b00001010111 V
b00001011000 W
#93000
1E
0>
#93500
1>
#93600
1X
0Y
b00001011000 V
b00000101 M
1^
b00001011001 W
#94000
0E
0>
#94500
1>
#94600
b00000101 L
0X
1Y
b00001011001 V
b00000101 D
0^
1_
b00001011010 W
#95000
1E
0>
#95500
1>
#95600
1X
0Y
b00001011010 V
b00001011011 W
#96000
0E
0>
#96500
1>
#96600
0X
1Y
b00001011011 V
b00001011100 W
#97000
1E
0>
#97500
1>
#97600
1X
0Y
b00001011100 V
b00001011101 W
#98000
0E
0>
#98500
1>
#98600
0X
1Y
b00001011101 V
b00001011110 W
#99000
1E
0>
#99500
1>
#99600
1X
0Y
b00001011110 V
b00001011111 W
#100000
0E
0>
#100500
1>
#100600
0X
1Y
b00001011111 V
b00001100000 W
#101000
1E
0>
#101500
1>
#101600
1X
0Y
b00001100000 V
b00000010 q
b00000000 M
1\
1^
b00001100001 W
#102000
0E
0>
#102500
1>
#102600
b00000010 p
b00000000 L
0X
1Y
b00001100001 V
b00000000 D
0\
0^
1h
b00001100010 W
0_
#103000
1E
0>
#103500
1>
#103600
1X
0Y
b00001100010 V
1g
1H
b00001100011 W
#104000
0E
0>
#104500
1>
#104600
0X
1Y
b00001100011 V
b00001100100 W
#105000
1E
0>
#105500
1>
#105600
1X
0Y
b00001100100 V
b00001100101 W
#106000
0E
0>
#106500
1>
#106600
0X
1Y
b00001100101 V
b00001100110 W
#107000
1E
0>
#107500
1>
#107600
1X
0Y
b00001100110 V
b00001100111 W
#108000
0E
0>
#108500
1>
#108600
0X
1Y
b00001100111 V
b00001101000 W
#109000
1E
0>
#109500
1>
#109600
1J
0h
1i
b00000000 p
b00000000 q
b00000010 p
1X
0Y
b00001101000 V
b00000010 q
b00000000 p
b00000001 M
1^
b00001101001 W
b00000000 q
#110000
0E
0>
#110500
1>
#110600
b00000001 L
0X
1Y
b00001101001 V
0g
0H
b00000001 D
0^
0i
b00001101010 W
#111000
1E
0>
#111500
1>
#111600
1X
0Y
b00001101010 V
b00001101011 W
#112000
0E
0>
#112500
1>
#112600
0X
1Y
b00001101011 V
b00001101100 W
#113000
1E
0>
#113500
1>
#113600
1X
0Y
b00001101100 V
b00001101101 W
#114000
0E
0>
#114500
1>
#114600
0X
1Y
b00001101101 V
b00001101110 W
#115000
1E
0>
#115500
1>
#115600
1X
0Y
b00001101110 V
b00001101111 W
#116000
0E
0>
#116500
1>
#116600
0J
0X
1Y
b00001101111 V
b00001110000 W
#117000
1E
0>
#117500
1>
#117600
1X
0Y
b00001110000 V
b00000010 M
1^
b00001110001 W
#118000
0E
0>
#118500
1>
#118600
b00000010 L
0X
1Y
b00001110001 V
b00000010 D
0^
b00001110010 W
#119000
1E
0>
#119500
1>
#119600
1X
0Y
b00001110010 V
b00001110011 W
#120000
0E
0>
#120500
1>
#120600
0X
1Y
b00001110011 V
b00001110100 W
#121000
1E
0>
#121500
1>
#121600
1X
0Y
b00001110100 V
b00001110101 W
#122000
0E
0>
#122500
1>
#122600
0X
1Y
b00001110101 V
b00001110110 W
#123000
1E
0>
#123500
1>
#123600
1X
0Y
b00001110110 V
b00001110111 W
#124000
0E
0>
#124500
1>
#124600
0X
1Y
b00001110111 V
b00001111000 W
#125000
1E
0>
#125500
1>
#125600
1X
0Y
b00001111000 V
b00000011 M
1^
b00001111001 W
#126000
0E
0>
#126500
1>
#126600
b00000011 L
0X
1Y
b00001111001 V
b00000011 D
0^
b00001111010 W
#127000
1E
0>
#127500
1>
#127600
1X
0Y
b00001111010 V
b00001111011 W
#128000
0E
0>
#128500
1>
#128600
0X
1Y
b00001111011 V
b00001111100 W
#129000
1E
0>
#129500
1>
#129600
1X
0Y
b00001111100 V
b00001111101 W
#130000
0E
0>
#130500
1>
#130600
0X
1Y
b00001111101 V
b00001111110 W
#131000
1E
0>
#131500
1>
#131600
1X
0Y
b00001111110 V
b00001111111 W
#132000
0E
0>
#132500
1>
#132600
0X
1Y
b00001111111 V
b00010000000 W
#133000
1E
0>
#133500
1>
#133600
1X
0Y
b00010000000 V
b00000100 M
1^
b00010000001 W
#134000
0E
0>
#134500
1>
#134600
b00000100 L
0X
1Y
b00010000001 V
b00000100 D
0^
b00010000010 W
#135000
1E
0>
#135500
1>
#135600
1X
0Y
b00010000010 V
b00010000011 W
#136000
0E
0>
#136500
1>
#136600
0X
1Y
b00010000011 V
b00010000100 W
#137000
1E
0>
#137500
1>
#137600
1X
0Y
b00010000100 V
b00010000101 W
#138000
0E
0>
#138500
1>
#138600
0X
1Y
b00010000101 V
b00010000110 W
#139000
1E
0>
#139500
1>
#139600
1X
0Y
b00010000110 V
b00010000111 W
#140000
0E
0>
#140500
1>
#140600
0X
1Y
b00010000111 V
b00010001000 W
#141000
1E
0>
#141500
1>
#141600
1X
0Y
b00010001000 V
b00000101 M
1^
b00010001001 W
#142000
0E
0>
#142500
1>
#142600
b00000101 L
0X
1Y
b00010001001 V
b00000101 D
0^
1_
b00010001010 W
#143000
1E
0>
#143500
1>
#143600
1X
0Y
b00010001010 V
b00010001011 W
#144000
0E
0>
#144500
1>
#144600
0X
1Y
b00010001011 V
b00010001100 W
#145000
1E
0>
#145500
1>
#145600
1X
0Y
b00010001100 V
b00010001101 W
#146000
0E
0>
#146500
1>
#146600
0X
1Y
b00010001101 V
b00010001110 W
#147000
1E
0>
#147500
1>
#147600
1X
0Y
b00010001110 V
b00010001111 W
#148000
0E
0>
#148500
1>
#148600
0X
1Y
b00010001111 V
b00010010000 W
#149000
1E
0>
#149500
1>
#149600
1X
0Y
b00010010000 V
b00000010 q
b00000000 M
1\
1^
b00010010001 W
#150000
0E
0>
#150500
1>
#150600
b00000010 p
b00000000 L
0X
1Y
b00010010001 V
b00000000 D
0\
0^
1h
b00010010010 W
0_
#151000
1E
0>
#151500
1>
#151600
1X
0Y
b00010010010 V
1g
1H
b00010010011 W
#152000
0E
0>
#152500
1>
#152600
0X
1Y
b00010010011 V
b00010010100 W
#153000
1E
0>
#153500
1>
#153600
1X
0Y
b00010010100 V
b00010010101 W
#154000
0E
0>
#154500
1>
#154600
0X
1Y
b00010010101 V
b00010010110 W
#155000
1E
0>
#155500
1>
#155600
1X
0Y
b00010010110 V
b00010010111 W
#156000
0E
0>
#156500
1>
#156600
0X
1Y
b00010010111 V
b00010011000 W
#157000
1E
0>
#157500
1>
#157600
1J
0h
1i
b00000000 p
b00000000 q
b00000010 p
1X
0Y
b00010011000 V
b00000010 q
b00000000 p
b00000001 M
1^
b00010011001 W
b00000000 q
#158000
0E
0>
#158500
1>
#158600
b00000001 L
0X
1Y
b00010011001 V
0g
0H
b00000001 D
0^
0i
b00010011010 W
#159000
1E
0>
#159500
1>
#159600
1X
0Y
b00010011010 V
b00010011011 W
#160000
0E
0>
#160500
1>
#160600
0X
1Y
b00010011011 V
b00010011100 W
#161000
1E
0>
#161500
1>
#161600
0J
1X
0Y
b00010011100 V
b00010011101 W
#162000
0E
0>
#162500
1>
#162600
0X
1Y
b00010011101 V
b00010011110 W
#163000
1E
0>
#163500
1>
#163600
1X
0Y
b00010011110 V
b00010011111 W
#164000
0E
0>
#164500
1>
#164600
0X
1Y
b00010011111 V
b00010100000 W
#165000
1E
0>
#165500
1>
#165600
1X
0Y
b00010100000 V
b00000010 M
1^
b00010100001 W
#166000
0E
0>
#166500
1>
#166600
b00000010 L
0X
1Y
b00010100001 V
b00000010 D
0^
b00010100010 W
#167000
1E
0>
#167500
1>
#167600
1X
0Y
b00010100010 V
b00010100011 W
#168000
0E
0>
#168500
1>
#168600
0X
1Y
b00010100011 V
b00010100100 W
#169000
1E
0>
#169500
1>
#169600
1X
0Y
b00010100100 V
b00010100101 W
#170000
0E
0>
#170500
1>
#170600
0X
1Y
b00010100101 V
b00010100110 W
#171000
1E
0>
#171500
1>
#171600
1X
0Y
b00010100110 V
b00010100111 W
#172000
0E
0>
#172500
1>
#172600
0X
1Y
b00010100111 V
b00010101000 W
#173000
1E
0>
#173500
1>
#173600
1X
0Y
b00010101000 V
b00000011 M
1^
b00010101001 W
#174000
0E
0>
#174500
1>
#174600
b00000011 L
0X
1Y
b00010101001 V
b00000011 D
0^
b00010101010 W
#175000
1E
0>
#175500
1>
#175600
1X
0Y
b00010101010 V
b00010101011 W
#176000
0E
0>
#176500
1>
#176600
0X
1Y
b00010101011 V
b00010101100 W
#177000
1E
0>
#177500
1>
#177600
1X
0Y
b00010101100 V
b00010101101 W
#178000
0E
0>
#178500
1>
#178600
0X
1Y
b00010101101 V
b00010101110 W
#179000
1E
0>
#179500
1>
#179600
1X
0Y
b00010101110 V
b00010101111 W
#180000
0E
0>
#180500
1>
#180600
0X
1Y
b00010101111 V
b00010110000 W
#181000
1E
0>
#181500
1>
#181600
1X
0Y
b00010110000 V
b00000100 M
1^
b00010110001 W
#182000
0E
0>
#182500
1>
#182600
b00000100 L
0X
1Y
b00010110001 V
b00000100 D
0^
b00010110010 W
#183000
1E
0>
#183500
1>
#183600
1X
0Y
b00010110010 V
b00010110011 W
#184000
0E
0>
#184500
1>
#184600
0X
1Y
b00010110011 V
b00010110100 W
#185000
1E
0>
#185500
1>
#185600
1X
0Y
b00010110100 V
b00010110101 W
#186000
0E
0>
#186500
1>
#186600
0X
1Y
b00010110101 V
b00010110110 W
#187000
1E
0>
#187500
1>
#187600
1X
0Y
b00010110110 V
b00010110111 W
#188000
0E
0>
#188500
1>
#188600
0X
1Y
b00010110111 V
b00010111000 W
#189000
1E
0>
#189500
1>
#189600
1X
0Y
b00010111000 V
b00000101 M
1^
b00010111001 W
#190000
0E
0>
#190500
1>
#190600
b00000101 L
0X
1Y
b00010111001 V
b00000101 D
0^
1_
b00010111010 W
#191000
1E
0>
#191500
1>
#191600
1X
0Y
b00010111010 V
b00010111011 W
#192000
0E
0>
#192500
1>
#192600
0X
1Y
b00010111011 V
b00010111100 W
#193000
1E
0>
#193500
1>
#193600
1X
0Y
b00010111100 V
b00010111101 W
#194000
0E
0>
#194500
1>
#194600
0X
1Y
b00010111101 V
b00010111110 W
#195000
1E
0>
#195500
1>
#195600
1X
0Y
b00010111110 V
b00010111111 W
#196000
0E
0>
#196500
1>
#196600
0X
1Y
b00010111111 V
b00011000000 W
#197000
1E
0>
#197500
1>
#197600
1X
0Y
b00011000000 V
b00000010 q
b00000000 M
1\
1^
b00011000001 W
#198000
0E
0>
#198500
1>
#198600
b00000010 p
b00000000 L
0X
1Y
b00011000001 V
b00000000 D
0\
0^
1h
b00011000010 W
0_
#199000
1E
0>
#199500
1>
#199600
1X
0Y
b00011000010 V
1g
1H
b00011000011 W
#200000
0E
0>
#200500
1>
#200600
0X
1Y
b00011000011 V
b00011000100 W
#201000
1E
0>
#201500
1>
#201600
1J
0h
1i
b00000000 p
b00000000 q
b00000010 p
1X
0Y
b00011000100 V
b00000010 q
b00000000 p
b00011000101 W
b00000000 q
#202000
0E
0>
#202500
1>
#202600
0X
1Y
b00011000101 V
0g
0H
0i
b00011000110 W
#203000
1E
0>
#203500
1>
#203600
1X
0Y
b00011000110 V
b00011000111 W
#204000
0E
0>
#204500
1>
#204600
0X
1Y
b00011000111 V
b00011001000 W
#205000
1E
0>
#205500
1>
#205600
1X
0Y
b00011001000 V
b00000001 M
1^
b00011001001 W
#206000
0E
0>
#206500
1>
