272-timer0/tc.vcd
$date
	Mon Feb  9 20:24:50 2015
$end

$version
	Synopsys VCS version I-2014.03-2
$end

$timescale
	10ps
$end

$comment Csum: 1 2737aeaeec48d866 $end


$scope module top $end
$var reg 1 ! debug $end
$var reg 1 " test1_running $end
$var reg 1 # test2_running $end
$var reg 1 $ test3_running $end
$var reg 1 % test4_running $end
$var reg 1 & test5_running $end
$var reg 32 ' death [31:0] $end
$var reg 8 ( A_tccra [7:0] $end
$var reg 8 ) A_tccra1 [7:0] $end
$var reg 8 * A_tccrb [7:0] $end
$var reg 8 + A_tccrb1 [7:0] $end
$var reg 8 , A_ocra [7:0] $end
$var reg 8 - A_ocra1 [7:0] $end
$var reg 8 . A_ocrb [7:0] $end
$var reg 8 / A_ocrb1 [7:0] $end
$var reg 8 0 A_tcnt [7:0] $end
$var reg 8 1 A_tcnt1 [7:0] $end
$var reg 8 2 A_timsk [7:0] $end
$var reg 8 3 A_tifr [7:0] $end
$var reg 8 4 A_tifr1 [7:0] $end
$var reg 32 5 div [31:0] $end

$scope task die $end
$upscope $end


$scope task wreg $end
$var reg 8 6 addr [7:0] $end
$var reg 8 7 datax [7:0] $end
$upscope $end


$scope task rreg $end
$var reg 8 8 addr [7:0] $end
$var reg 8 9 datax [7:0] $end
$upscope $end


$scope task easyplay $end
$upscope $end


$scope task test1 $end
$upscope $end


$scope task test2 $end
$upscope $end


$scope task test3 $end
$upscope $end


$scope task test4 $end
$upscope $end


$scope task test5 $end
$upscope $end


$scope task _$$txp_fail_action_unnamed$$_8 $end
$upscope $end


$scope task _$$txp_fail_action_unnamed$$_9 $end
$upscope $end


$scope task _$$txp_fail_action_unnamed$$_10 $end
$upscope $end


$scope task _$$txp_fail_action_unnamed$$_11 $end
$upscope $end


$scope task _$$txp_fail_action_unnamed$$_12 $end
$upscope $end


$scope task _$$txp_fail_action_unnamed$$_13 $end
$upscope $end


$scope task _$$txp_fail_action_unnamed$$_14 $end
$upscope $end


$scope task _$$txp_fail_action_unnamed$$_15 $end
$upscope $end


$scope task _$$txp_fail_action_unnamed$$_16 $end
$upscope $end


$scope task _$$txp_fail_action_unnamed$$_17 $end
$upscope $end


$scope task _$$txp_fail_action_unnamed$$_18 $end
$upscope $end


$scope task _$$txp_fail_action_unnamed$$_19 $end
$upscope $end


$scope task _$$txp_fail_action_unnamed$$_20 $end
$upscope $end


$scope task _$$txp_fail_action_unnamed$$_21 $end
$upscope $end


$scope task _$$txp_fail_action_unnamed$$_22 $end
$upscope $end


$scope task _$$txp_fail_action_unnamed$$_23 $end
$upscope $end


$scope task _$$txp_fail_action_unnamed$$_24 $end
$upscope $end


$scope task _$$txp_fail_action_unnamed$$_25 $end
$upscope $end


$scope task _$$txp_fail_action_unnamed$$_26 $end
$upscope $end


$scope task _$$txp_fail_action_unnamed$$_27 $end
$upscope $end


$scope task _$$txp_fail_action_unnamed$$_28 $end
$upscope $end


$scope task _$$txp_fail_action_unnamed$$_29 $end
$upscope $end


$scope task _$$txp_fail_action_unnamed$$_30 $end
$upscope $end


$scope task _$$txp_fail_action_unnamed$$_31 $end
$upscope $end


$scope task _$$txp_fail_action_unnamed$$_32 $end
$upscope $end


$scope task _$$txp_fail_action_unnamed$$_33 $end
$upscope $end


$scope module ai $end
$var reg 1 : clk $end
$var reg 1 ; rst $end
$var reg 1 < write $end
$var reg 8 = addr [7:0] $end
$var reg 8 > wdata [7:0] $end
$var reg 1 ? read $end
$var reg 8 @ rdata [7:0] $end
$var reg 1 A t0 $end
$var reg 1 B oca_data $end
$var reg 1 C ocb_data $end
$var reg 1 D interrupt_request $end
$var reg 1 E status_reg_interrupt_enable $end
$var reg 1 F interrupt_executed $end
$upscope $end


$scope module t $end
$var reg 8 G A_tccra [7:0] $end
$var reg 8 H A_tccra1 [7:0] $end
$var reg 8 I A_tccrb [7:0] $end
$var reg 8 J A_tccrb1 [7:0] $end
$var reg 8 K A_ocra [7:0] $end
$var reg 8 L A_ocra1 [7:0] $end
$var reg 8 M A_ocrb [7:0] $end
$var reg 8 N A_ocrb1 [7:0] $end
$var reg 8 O A_tcnt [7:0] $end
$var reg 8 P A_tcnt1 [7:0] $end
$var reg 8 Q A_timsk [7:0] $end
$var reg 8 R A_tifr [7:0] $end
$var reg 8 S A_tifr1 [7:0] $end
$var reg 32 T i [31:0] $end
$var reg 1 U out_clk $end
$upscope $end

$upscope $end

$enddefinitions $end

#0
$dumpvars
1!
0"
0#
0$
0%
0&
1U
b00100111 ,
b01000111 -
b00101000 .
b01001000 /
b00100100 (
b01000100 )
b00100101 *
b01000101 +
b00100110 0
b01000110 1
b00010101 3
b00110101 4
b01101110 2
b00000000000000000000000000000000 T
bxxxxxxxx 8
bxxxxxxxx 9
bxxxxxxxx K
bxxxxxxxx L
bxxxxxxxx M
bxxxxxxxx N
bxxxxxxxx G
bxxxxxxxx H
bxxxxxxxx I
bxxxxxxxx J
bxxxxxxxx O
bxxxxxxxx P
bxxxxxxxx R
bxxxxxxxx S
bxxxxxxxx Q
bxxxxxxxx 6
bxxxxxxxx 7
b00000000000000000000000000000000 '
b00000000000000000000000000001000 5
1F
1E
xD
xC
xB
xA
0?
0<
0;
0:
bxxxxxxxx @
b00110100 >
b00010010 =
$end
#500
1:
0D
b00000000000000000000000000000001 T
0U
#600
0F
1;
b00000000 =
b00000000 >
b00000000 @
0A
0B
0C
0E
b00000000 G
b00000000 H
b00000000 I
b00000000 J
b00000000 K
b00000000 L
b00000000 M
b00000000 N
b00000000 O
b00000000 P
b00000000 Q
b00000000 R
b00000000 S
#1000
0:
#1500
1:
1D
b00000010 R
b00000010 S
b00000110 R
b00000110 S
b00000111 R
b00000111 S
b00000000000000000000000000000010 T
#2000
0:
#2500
1:
b00000000 R
b00000000 S
b00000000000000000000000000000011 T
#3000
0:
#3500
1:
b00000010 R
b00000010 S
b00000110 R
b00000110 S
b00000111 R
b00000111 S
b00000000000000000000000000000100 T
#4000
0:
#4500
1:
b00000000 R
b00000000 S
b00000000000000000000000000000101 T
#5000
0:
#5500
1:
b00000010 R
b00000010 S
b00000110 R
b00000110 S
b00000111 R
b00000111 S
b00000000000000000000000000000110 T
#5600
0;
b00100111 6
b00000101 7
b00100111 =
b00000101 >
1<
#6000
0:
#6500
1:
b00000101 L
b00000101 K
b00000101 R
b00000101 S
b00000001 R
b00000001 S
b00000000 R
b00000000 S
b00000000000000000000000000000111 T
#6600
1F
0<
b00000000 =
b00000000 >
b00101000 6
b01110111 7
b00101000 =
b01110111 >
1<
#7000
0:
#7500
1:
b01110111 N
b01110111 M
b00000100 R
b00000100 S
b00000101 R
b00000101 S
b00000000000000000000000000000000 T
1U
#7600
0<
b00000000 =
b00000000 >
b00100100 6
b00000010 7
b00100100 =
b00000010 >
1<
#8000
0:
#8500
1:
b00000010 H
b00000010 G
0D
b00000001 R
b00000001 S
b00000000 R
b00000000 S
b00000000000000000000000000000001 T
0U
#8600
0<
b00000000 =
b00000000 >
b00100101 6
b00100101 =
b00000010 >
1<
#9000
0:
#9500
1:
b00000010 J
b00000010 I
b00000000000000000000000000000010 T
#9600
0F
0<
b00000000 =
b00000000 >
b00010101 6
b00000111 7
b00010101 =
b00000111 >
1<
#10000
0:
#10500
1:
b00000111 S
b00000111 R
b00000000000000000000000000000011 T
#10600
0<
b00000000 =
b00000000 >
b01101110 6
b01101110 =
b00000111 >
1<
#11000
0:
#11500
1:
b00000111 Q
b00000011 R
b00000011 S
b00000001 R
b00000001 S
b00000000 R
b00000000 S
b00000000000000000000000000000100 T
#11600
0<
b00000000 =
b00000000 >
b00100111 8
b00000101 9
b00100111 =
1?
#12000
0:
#12500
1:
b00000101 @
b00000000000000000000000000000101 T
#12600
b00100100 8
b00000010 9
b00100100 =
#13000
0:
#13500
1:
b00000010 @
b00000000000000000000000000000110 T
#13600
b00100101 8
b00100101 =
#14000
0:
#14500
1:
b00000000000000000000000000000111 T
#14600
b01000111 8
b00000101 9
b01000111 =
#15000
0:
#15500
1:
b00000101 @
b00000000000000000000000000000000 T
1U
b00000001 O
b00000001 P
#15600
b01000100 8
b00000010 9
b01000100 =
#16000
0:
#16500
1:
b00000010 @
b00000000000000000000000000000001 T
0U
#16600
b01000101 8
b01000101 =
#17000
0:
#17500
1:
b00000000000000000000000000000010 T
#17600
b00010101 8
b00000000 9
b00010101 =
#18000
0:
#18500
1:
b00000000 @
b00000000000000000000000000000011 T
#18600
b01101110 8
b00000111 9
b01101110 =
#19000
0:
#19500
1:
b00000111 @
b00000000000000000000000000000100 T
#19600
b00110101 8
b00000000 9
b00110101 =
#20000
0:
#20500
1:
b00000000 @
b00000000000000000000000000000101 T
#20600
b00101000 8
b01110111 9
b00101000 =
#21000
0:
#21500
1:
b01110111 @
b00000000000000000000000000000110 T
#21600
b01001000 8
b01001000 =
#22000
0:
#22500
1:
b00000000000000000000000000000111 T
#22600
1E
b00100110 =
#23000
0:
#23500
1:
b00000001 @
1D
b00000000000000000000000000000000 T
1U
b00000010 O
b00000010 P
#24000
0:
#24500
1:
b00000010 @
b00000000000000000000000000000001 T
0U
#25000
0:
#25500
1:
b00000000000000000000000000000010 T
#25600
1F
#26000
0:
#26500
1:
b00000000000000000000000000000011 T
#27000
0:
#27500
1:
b00000000000000000000000000000100 T
#28000
0:
#28500
1:
b00000000000000000000000000000101 T
#29000
0:
#29500
1:
b00000000000000000000000000000110 T
#30000
0:
#30500
1:
b00000000000000000000000000000111 T
#31000
0:
#31500
1:
b00000000000000000000000000000000 T
1U
b00000011 O
b00000011 P
#32000
0:
#32500
1:
b00000011 @
b00000000000000000000000000000001 T
0U
#32600
1"
#33000
0:
#33500
1:
b00000000000000000000000000000010 T
#34000
0:
#34500
1:
b00000000000000000000000000000011 T
#35000
0:
#35500
1:
b00000000000000000000000000000100 T
#36000
0:
#36500
1:
b00000000000000000000000000000101 T
#37000
0:
#37500
1:
b00000000000000000000000000000110 T
#38000
0:
#38500
1:
b00000000000000000000000000000111 T
#39000
0:
#39500
1:
b00000000000000000000000000000000 T
1U
b00000100 O
b00000100 P
#40000
0:
#40500
1:
b00000100 @
b00000000000000000000000000000001 T
0U
#41000
0:
#41500
1:
b00000000000000000000000000000010 T
#42000
0:
#42500
1:
b00000000000000000000000000000011 T
#43000
0:
#43500
1:
b00000000000000000000000000000100 T
#44000
0:
#44500
1:
b00000000000000000000000000000101 T
#45000
0:
#45500
1:
b00000000000000000000000000000110 T
#46000
0:
#46500
1:
b00000000000000000000000000000111 T
#47000
0:
#47500
1:
b00000000000000000000000000000000 T
1U
b00000101 O
b00000101 P
#48000
0:
#48500
1:
b00000101 @
b00000010 R
b00000010 S
b00000000000000000000000000000001 T
0U
#49000
0:
#49500
1:
b00000000 R
b00000000 S
b00000000000000000000000000000010 T
#50000
0:
#50500
1:
b00000010 R
b00000010 S
b00000000000000000000000000000011 T
#51000
0:
#51500
1:
b00000000 R
b00000000 S
b00000000000000000000000000000100 T
#52000
0:
#52500
1:
b00000010 R
b00000010 S
b00000000000000000000000000000101 T
#53000
0:
#53500
1:
b00000000 R
b00000000 S
b00000000000000000000000000000110 T
#54000
0:
#54500
1:
b00000010 R
b00000010 S
b00000000000000000000000000000111 T
#55000
0:
#55500
1:
b00000000 R
b00000000 S
b00000000000000000000000000000000 T
1U
b00000000 O
b00000010 R
b00000000 P
b00000010 S
#56000
0:
#56500
1:
b00000000 @
b00000000 R
b00000000 S
b00000000000000000000000000000001 T
0U
#57000
0:
#57500
1:
b00000000000000000000000000000010 T
#58000
0:
#58500
1:
b00000000000000000000000000000011 T
#59000
0:
#59500
1:
b00000000000000000000000000000100 T
#60000
0:
#60500
1:
b00000000000000000000000000000101 T
#61000
0:
#61500
1:
b00000000000000000000000000000110 T
#62000
0:
#62500
1:
b00000000000000000000000000000111 T
#63000
0:
#63500
1:
b00000000000000000000000000000000 T
1U
b00000001 O
b00000001 P
#64000
0:
#64500
1:
b00000001 @
b00000000000000000000000000000001 T
0U
#65000
0:
#65500
1:
b00000000000000000000000000000010 T
#66000
0:
#66500
1:
b00000000000000000000000000000011 T
#67000
0:
#67500
1:
b00000000000000000000000000000100 T
#68000
0:
#68500
1:
b00000000000000000000000000000101 T
#69000
0:
#69500
1:
b00000000000000000000000000000110 T
#70000
0:
#70500
1:
b00000000000000000000000000000111 T
#71000
0:
#71500
1:
b00000000000000000000000000000000 T
1U
b00000010 O
b00000010 P
#72000
0:
#72500
1:
b00000010 @
b00000000000000000000000000000001 T
0U
#73000
0:
#73500
1:
b00000000000000000000000000000010 T
#74000
0:
#74500
1:
b00000000000000000000000000000011 T
#75000
0:
#75500
1:
b00000000000000000000000000000100 T
#76000
0:
#76500
1:
b00000000000000000000000000000101 T
#77000
0:
#77500
1:
b00000000000000000000000000000110 T
#78000
0:
#78500
1:
b00000000000000000000000000000111 T
#79000
0:
#79500
1:
b00000000000000000000000000000000 T
1U
b00000011 O
b00000011 P
#80000
0:
#80500
1:
b00000011 @
b00000000000000000000000000000001 T
0U
#81000
0:
#81500
1:
b00000000000000000000000000000010 T
#82000
0:
#82500
1:
b00000000000000000000000000000011 T
#83000
0:
#83500
1:
b00000000000000000000000000000100 T
#84000
0:
#84500
1:
b00000000000000000000000000000101 T
#85000
0:
#85500
1:
b00000000000000000000000000000110 T
#86000
0:
#86500
1:
b00000000000000000000000000000111 T
#87000
0:
#87500
1:
b00000000000000000000000000000000 T
1U
b00000100 O
b00000100 P
#88000
0:
#88500
1:
b00000100 @
b00000000000000000000000000000001 T
0U
#89000
0:
#89500
1:
b00000000000000000000000000000010 T
#90000
0:
#90500
1:
b00000000000000000000000000000011 T
#91000
0:
#91500
1:
b00000000000000000000000000000100 T
#92000
0:
#92500
1:
b00000000000000000000000000000101 T
#93000
0:
#93500
1:
b00000000000000000000000000000110 T
#94000
0:
#94500
1:
b00000000000000000000000000000111 T
#95000
0:
#95500
1:
b00000000000000000000000000000000 T
1U
b00000101 O
b00000101 P
#96000
0:
#96500
1:
b00000101 @
b00000010 R
b00000010 S
b00000000000000000000000000000001 T
0U
#97000
0:
#97500
1:
b00000000 R
b00000000 S
b00000000000000000000000000000010 T
#98000
0:
#98500
1:
b00000010 R
b00000010 S
b00000000000000000000000000000011 T
#99000
0:
#99500
1:
b00000000 R
b00000000 S
b00000000000000000000000000000100 T
#100000
0:
#100500
1:
b00000010 R
b00000010 S
b00000000000000000000000000000101 T
#101000
0:
#101500
1:
b00000000 R
b00000000 S
b00000000000000000000000000000110 T
#102000
0:
#102500
1:
b00000010 R
b00000010 S
b00000000000000000000000000000111 T
#103000
0:
#103500
1:
b00000000 R
b00000000 S
b00000000000000000000000000000000 T
1U
b00000000 O
b00000010 R
b00000000 P
b00000010 S
#104000
0:
#104500
1:
b00000000 @
b00000000 R
b00000000 S
b00000000000000000000000000000001 T
0U
#105000
0:
#105500
1:
b00000000000000000000000000000010 T
#106000
0:
#106500
1:
b00000000000000000000000000000011 T
#107000
0:
#107500
1:
b00000000000000000000000000000100 T
#108000
0:
#108500
1:
b00000000000000000000000000000101 T
#109000
0:
#109500
1:
b00000000000000000000000000000110 T
#110000
0:
#110500
1:
b00000000000000000000000000000111 T
#111000
0:
#111500
1:
b00000000000000000000000000000000 T
1U
b00000001 O
b00000001 P
#112000
0:
#112500
1:
b00000001 @
b00000000000000000000000000000001 T
0U
#113000
0:
#113500
1:
b00000000000000000000000000000010 T
#114000
0:
#114500
1:
b00000000000000000000000000000011 T
#115000
0:
#115500
1:
b00000000000000000000000000000100 T
#116000
0:
#116500
1:
b00000000000000000000000000000101 T
#117000
0:
#117500
1:
b00000000000000000000000000000110 T
#118000
0:
#118500
1:
b00000000000000000000000000000111 T
#119000
0:
#119500
1:
b00000000000000000000000000000000 T
1U
b00000010 O
b00000010 P
#120000
0:
#120500
1:
b00000010 @
b00000000000000000000000000000001 T
0U
#121000
0:
#121500
1:
b00000000000000000000000000000010 T
#122000
0:
#122500
1:
b00000000000000000000000000000011 T
#123000
0:
#123500
1:
b00000000000000000000000000000100 T
#124000
0:
#124500
1:
b00000000000000000000000000000101 T
#125000
0:
#125500
1:
b00000000000000000000000000000110 T
#126000
0:
#126500
1:
b00000000000000000000000000000111 T
#127000
0:
#127500
1:
b00000000000000000000000000000000 T
1U
b00000011 O
b00000011 P
#128000
0:
#128500
1:
b00000011 @
b00000000000000000000000000000001 T
0U
#129000
0:
#129500
1:
b00000000000000000000000000000010 T
#130000
0:
#130500
1:
b00000000000000000000000000000011 T
#131000
0:
#131500
1:
b00000000000000000000000000000100 T
#132000
0:
#132500
1:
b00000000000000000000000000000101 T
#133000
0:
#133500
1:
b00000000000000000000000000000110 T
#134000
0:
#134500
1:
b00000000000000000000000000000111 T
#135000
0:
#135500
1:
b00000000000000000000000000000000 T
1U
b00000100 O
b00000100 P
#136000
0:
#136500
1:
b00000100 @
b00000000000000000000000000000001 T
0U
#137000
0:
#137500
1:
b00000000000000000000000000000010 T
#138000
0:
#138500
1:
b00000000000000000000000000000011 T
#139000
0:
#139500
1:
b00000000000000000000000000000100 T
#140000
0:
#140500
1:
b00000000000000000000000000000101 T
#141000
0:
#141500
1:
b00000000000000000000000000000110 T
#142000
0:
#142500
1:
b00000000000000000000000000000111 T
#143000
0:
#143500
1:
b00000000000000000000000000000000 T
1U
b00000101 O
b00000101 P
#144000
0:
#144500
1:
b00000101 @
b00000010 R
b00000010 S
b00000000000000000000000000000001 T
0U
#145000
0:
#145500
1:
b00000000 R
b00000000 S
b00000000000000000000000000000010 T
#146000
0:
#146500
1:
b00000010 R
b00000010 S
b00000000000000000000000000000011 T
#147000
0:
#147500
1:
b00000000 R
b00000000 S
b00000000000000000000000000000100 T
#148000
0:
#148500
1:
b00000010 R
b00000010 S
b00000000000000000000000000000101 T
#149000
0:
#149500
1:
b00000000 R
b00000000 S
b00000000000000000000000000000110 T
#150000
0:
#150500
1:
b00000010 R
b00000010 S
b00000000000000000000000000000111 T
#151000
0:
#151500
1:
b00000000 R
b00000000 S
b00000000000000000000000000000000 T
1U
b00000000 O
b00000010 R
b00000000 P
b00000010 S
#152000
0:
#152500
1:
b00000000 @
b00000000 R
b00000000 S
b00000000000000000000000000000001 T
0U
#153000
0:
#153500
1:
b00000000000000000000000000000010 T
#154000
0:
#154500
1:
b00000000000000000000000000000011 T
#155000
0:
#155500
1:
b00000000000000000000000000000100 T
#156000
0:
#156500
1:
b00000000000000000000000000000101 T
#157000
0:
#157500
1:
b00000000000000000000000000000110 T
#158000
0:
#158500
1:
b00000000000000000000000000000111 T
#159000
0:
#159500
1:
b00000000000000000000000000000000 T
1U
b00000001 O
b00000001 P
#160000
0:
#160500
1:
b00000001 @
b00000000000000000000000000000001 T
0U
#161000
0:
#161500
1:
b00000000000000000000000000000010 T
#162000
0:
#162500
1:
b00000000000000000000000000000011 T
#163000
0:
#163500
1:
b00000000000000000000000000000100 T
#164000
0:
#164500
1:
b00000000000000000000000000000101 T
#165000
0:
#165500
1:
b00000000000000000000000000000110 T
#166000
0:
#166500
1:
b00000000000000000000000000000111 T
#167000
0:
#167500
1:
b00000000000000000000000000000000 T
1U
b00000010 O
b00000010 P
#168000
0:
#168500
1:
b00000010 @
b00000000000000000000000000000001 T
0U
#169000
0:
#169500
1:
b00000000000000000000000000000010 T
#170000
0:
#170500
1:
b00000000000000000000000000000011 T
#171000
0:
#171500
1:
b00000000000000000000000000000100 T
#172000
0:
#172500
1:
b00000000000000000000000000000101 T
#173000
0:
#173500
1:
b00000000000000000000000000000110 T
#174000
0:
#174500
1:
b00000000000000000000000000000111 T
#175000
0:
#175500
1:
b00000000000000000000000000000000 T
1U
b00000011 O
b00000011 P
#176000
0:
#176500
1:
b00000011 @
b00000000000000000000000000000001 T
0U
#177000
0:
#177500
1:
b00000000000000000000000000000010 T
#178000
0:
#178500
1:
b00000000000000000000000000000011 T
#179000
0:
#179500
1:
b00000000000000000000000000000100 T
#180000
0:
#180500
1:
b00000000000000000000000000000101 T
#181000
0:
#181500
1:
b00000000000000000000000000000110 T
#182000
0:
#182500
1:
b00000000000000000000000000000111 T
#183000
0:
#183500
1:
b00000000000000000000000000000000 T
1U
b00000100 O
b00000100 P
#184000
0:
#184500
1:
b00000100 @
b00000000000000000000000000000001 T
0U
#185000
0:
#185500
1:
b00000000000000000000000000000010 T
#186000
0:
#186500
1:
b00000000000000000000000000000011 T
#187000
0:
#187500
1:
b00000000000000000000000000000100 T
#188000
0:
#188500
1:
b00000000000000000000000000000101 T
#189000
0:
#189500
1:
b00000000000000000000000000000110 T
#190000
0:
#190500
1:
b00000000000000000000000000000111 T
#191000
0:
#191500
1:
b00000000000000000000000000000000 T
1U
b00000101 O
b00000101 P
#192000
0:
#192500
1:
b00000101 @
b00000010 R
b00000010 S
b00000000000000000000000000000001 T
0U
#193000
0:
#193500
1:
b00000000 R
b00000000 S
b00000000000000000000000000000010 T
#194000
0:
#194500
1:
b00000010 R
b00000010 S
b00000000000000000000000000000011 T
#195000
0:
#195500
1:
b00000000 R
b00000000 S
b00000000000000000000000000000100 T
#196000
0:
#196500
1:
b00000010 R
b00000010 S
b00000000000000000000000000000101 T
#197000
0:
#197500
1:
b00000000 R
b00000000 S
b00000000000000000000000000000110 T
#198000
0:
#198500
1:
b00000010 R
b00000010 S
b00000000000000000000000000000111 T
#199000
0:
#199500
1:
b00000000 R
b00000000 S
b00000000000000000000000000000000 T
1U
b00000000 O
b00000010 R
b00000000 P
b00000010 S
#200000
0:
#200500
1:
b00000000 @
b00000000 R
b00000000 S
b00000000000000000000000000000001 T
0U
#201000
0:
#201500
1:
b00000000000000000000000000000010 T
#202000
0:
#202500
1:
b00000000000000000000000000000011 T
#203000
0:
#203500
1:
b00000000000000000000000000000100 T
#204000
0:
#204500
1:
b00000000000000000000000000000101 T
#205000
0:
#205500
1:
b00000000000000000000000000000110 T
#206000
0:
#206500
1:
b00000000000000000000000000000111 T
#207000
0:
#207500
1:
b00000000000000000000000000000000 T
1U
b00000001 O
b00000001 P
#208000
0:
#208500
1:
b00000001 @
b00000000000000000000000000000001 T
0U
#209000
0:
#209500
1:
b00000000000000000000000000000010 T
#210000
0:
#210500
1:
b00000000000000000000000000000011 T
#211000
0:
#211500
1:
b00000000000000000000000000000100 T
#212000
0:
#212500
1:
b00000000000000000000000000000101 T
#213000
0:
#213500
1:
b00000000000000000000000000000110 T
#214000
0:
#214500
1:
b00000000000000000000000000000111 T
#215000
0:
#215500
1:
b00000000000000000000000000000000 T
1U
b00000010 O
b00000010 P
#216000
0:
#216500
1:
b00000010 @
b00000000000000000000000000000001 T
0U
#217000
0:
#217500
1:
b00000000000000000000000000000010 T
#218000
0:
#218500
1:
b00000000000000000000000000000011 T
#219000
0:
#219500
1:
b00000000000000000000000000000100 T
#220000
0:
#220500
1:
b00000000000000000000000000000101 T
#221000
0:
#221500
1:
b00000000000000000000000000000110 T
#222000
0:
#222500
1:
b00000000000000000000000000000111 T
#223000
0:
#223500
1:
b00000000000000000000000000000000 T
1U
b00000011 O
b00000011 P
#224000
0:
#224500
1:
b00000011 @
b00000000000000000000000000000001 T
0U
#225000
0:
#225500
1:
b00000000000000000000000000000010 T
#226000
0:
#226500
1:
b00000000000000000000000000000011 T
#227000
0:
#227500
1:
b00000000000000000000000000000100 T
#228000
0:
#228500
1:
b00000000000000000000000000000101 T
#229000
0:
#229500
1:
b00000000000000000000000000000110 T
#230000
0:
#230500
1:
b00000000000000000000000000000111 T
#231000
0:
#231500
1:
b00000000000000000000000000000000 T
1U
b00000100 O
b00000100 P
#232000
0:
#232500
1:
b00000100 @
b00000000000000000000000000000001 T
0U
#233000
0:
#233500
1:
b00000000000000000000000000000010 T
#234000
0:
#234500
1:
b00000000000000000000000000000011 T
#235000
0:
#235500
1:
b00000000000000000000000000000100 T
#236000
0:
#236500
1:
b00000000000000000000000000000101 T
#237000
0:
#237500
1:
b00000000000000000000000000000110 T
#238000
0:
#238500
1:
b00000000000000000000000000000111 T
#239000
0:
#239500
1:
b00000000000000000000000000000000 T
1U
b00000101 O
b00000101 P
#240000
0:
#240500
1:
b00000101 @
b00000010 R
b00000010 S
b00000000000000000000000000000001 T
0U
#241000
0:
#241500
1:
b00000000 R
b00000000 S
b00000000000000000000000000000010 T
#242000
0:
#242500
1:
b00000010 R
b00000010 S
b00000000000000000000000000000011 T
#243000
0:
#243500
1:
b00000000 R
b00000000 S
b00000000000000000000000000000100 T
#244000
0:
#244500
1:
b00000010 R
b00000010 S
b00000000000000000000000000000101 T
#245000
0:
#245500
1:
b00000000 R
b00000000 S
b00000000000000000000000000000110 T
#246000
0:
#246500
1:
b00000010 R
b00000010 S
b00000000000000000000000000000111 T
#247000
0:
#247500
1:
b00000000 R
b00000000 S
b00000000000000000000000000000000 T
1U
b00000000 O
b00000010 R
b00000000 P
b00000010 S
#248000
0:
#248500
1:
b00000000 @
b00000000 R
b00000000 S
b00000000000000000000000000000001 T
0U
#249000
0:
#249500
1:
b00000000000000000000000000000010 T
#250000
0:
#250500
1:
b00000000000000000000000000000011 T
#251000
0:
#251500
1:
b00000000000000000000000000000100 T
#252000
0:
#252500
1:
b00000000000000000000000000000101 T
#253000
0:
#253500
1:
b00000000000000000000000000000110 T
#254000
0:
#254500
1:
b00000000000000000000000000000111 T
#255000
0:
#255500
1:
b00000000000000000000000000000000 T
1U
b00000001 O
b00000001 P
#256000
0:
#256500
1:
b00000001 @
b00000000000000000000000000000001 T
0U
#257000
0:
#257500
1:
b00000000000000000000000000000010 T
#258000
0:
#258500
1:
b00000000000000000000000000000011 T
#259000
0:
#259500
1:
b00000000000000000000000000000100 T
#260000
0:
#260500
1:
b00000000000000000000000000000101 T
#261000
0:
#261500
1:
b00000000000000000000000000000110 T
#262000
0:
#262500
1:
b00000000000000000000000000000111 T
#263000
0:
#263500
1:
b00000000000000000000000000000000 T
1U
b00000010 O
b00000010 P
#264000
0:
#264500
1:
b00000010 @
b00000000000000000000000000000001 T
0U
#265000
0:
#265500
1:
b00000000000000000000000000000010 T
#266000
0:
#266500
1:
b00000000000000000000000000000011 T
#267000
0:
#267500
1:
b00000000000000000000000000000100 T
#268000
0:
#268500
1:
b00000000000000000000000000000101 T
#269000
0:
#269500
1:
b00000000000000000000000000000110 T
#270000
0:
#270500
1:
b00000000000000000000000000000111 T
#271000
0:
#271500
1:
b00000000000000000000000000000000 T
1U
b00000011 O
b00000011 P
#272000
0:
#272500
1:
b00000011 @
b00000000000000000000000000000001 T
0U
#273000
0:
#273500
1:
b00000000000000000000000000000010 T
#274000
0:
#274500
1:
b00000000000000000000000000000011 T
#275000
0:
#275500
1:
b00000000000000000000000000000100 T
#276000
0:
#276500
1:
b00000000000000000000000000000101 T
#277000
0:
#277500
1:
b00000000000000000000000000000110 T
#278000
0:
#278500
1:
b00000000000000000000000000000111 T
#279000
0:
#279500
1:
b00000000000000000000000000000000 T
1U
b00000100 O
b00000100 P
#280000
0:
#280500
1:
b00000100 @
b00000000000000000000000000000001 T
0U
#281000
0:
#281500
1:
b00000000000000000000000000000010 T
#282000
0:
#282500
1:
b00000000000000000000000000000011 T
#283000
0:
#283500
1:
b00000000000000000000000000000100 T
#284000
0:
#284500
1:
b00000000000000000000000000000101 T
#285000
0:
#285500
1:
b00000000000000000000000000000110 T
#286000
0:
#286500
1:
b00000000000000000000000000000111 T
#287000
0:
#287500
1:
b00000000000000000000000000000000 T
1U
b00000101 O
b00000101 P
#288000
0:
#288500
1:
b00000101 @
b00000010 R
b00000010 S
b00000000000000000000000000000001 T
0U
#289000
0:
#289500
1:
b00000000 R
b00000000 S
b00000000000000000000000000000010 T
#290000
0:
#290500
1:
b00000010 R
b00000010 S
b00000000000000000000000000000011 T
#291000
0:
#291500
1:
b00000000 R
b00000000 S
b00000000000000000000000000000100 T
#292000
0:
#292500
1:
b00000010 R
b00000010 S
b00000000000000000000000000000101 T
#293000
0:
#293500
1:
b00000000 R
b00000000 S
b00000000000000000000000000000110 T
#294000
0:
#294500
1:
b00000010 R
b00000010 S
b00000000000000000000000000000111 T
#295000
0:
#295500
1:
b00000000 R
b00000000 S
b00000000000000000000000000000000 T
1U
b00000000 O
b00000010 R
b00000000 P
b00000010 S
#296000
0:
#296500
1:
b00000000 @
b00000000 R
b00000000 S
b00000000000000000000000000000001 T
0U
#297000
0:
#297500
1:
b00000000000000000000000000000010 T
#298000
0:
#298500
1:
b00000000000000000000000000000011 T
#299000
0:
#299500
1:
b00000000000000000000000000000100 T
#300000
0:
#300500
1:
b00000000000000000000000000000101 T
#301000
0:
#301500
1:
b00000000000000000000000000000110 T
#302000
0:
#302500
1:
b00000000000000000000000000000111 T
#303000
0:
#303500
1:
b00000000000000000000000000000000 T
1U
b00000001 O
b00000001 P
#304000
0:
#304500
1:
b00000001 @
b00000000000000000000000000000001 T
0U
#305000
0:
#305500
1:
b00000000000000000000000000000010 T
#306000
0:
#306500
1:
b00000000000000000000000000000011 T
#307000
0:
#307500
1:
b00000000000000000000000000000100 T
#308000
0:
#308500
1:
b00000000000000000000000000000101 T
#309000
0:
#309500
1:
b00000000000000000000000000000110 T
#310000
0:
#310500
1:
b00000000000000000000000000000111 T
#311000
0:
#311500
1:
b00000000000000000000000000000000 T
1U
b00000010 O
b00000010 P
#312000
0:
#312500
1:
b00000010 @
b00000000000000000000000000000001 T
0U
#313000
0:
#313500
1:
b00000000000000000000000000000010 T
#314000
0:
#314500
1:
b00000000000000000000000000000011 T
#315000
0:
#315500
1:
b00000000000000000000000000000100 T
#316000
0:
#316500
1:
b00000000000000000000000000000101 T
#317000
0:
#317500
1:
b00000000000000000000000000000110 T
#318000
0:
#318500
1:
b00000000000000000000000000000111 T
#319000
0:
#319500
1:
b00000000000000000000000000000000 T
1U
b00000011 O
b00000011 P
#320000
0:
