272-timerTB/tc.vcd
$date
	Sun Feb 22 10:20:14 2015
$end

$version
	Synopsys VCS version I-2014.03-2
$end

$timescale
	10ps
$end

$comment Csum: 1 2737aeaeec48d866 $end


$scope module top $end
$var reg 1 ! debug $end
$var reg 1 " test1_running $end
$var reg 1 # test2_running $end
$var reg 1 $ test3_running $end
$var reg 1 % test4_running $end
$var reg 1 & test5_running $end
$var reg 32 ' death [31:0] $end
$var reg 8 ( A_tccra [7:0] $end
$var reg 8 ) A_tccra1 [7:0] $end
$var reg 8 * A_tccrb [7:0] $end
$var reg 8 + A_tccrb1 [7:0] $end
$var reg 8 , A_ocra [7:0] $end
$var reg 8 - A_ocra1 [7:0] $end
$var reg 8 . A_ocrb [7:0] $end
$var reg 8 / A_ocrb1 [7:0] $end
$var reg 8 0 A_tcnt [7:0] $end
$var reg 8 1 A_tcnt1 [7:0] $end
$var reg 8 2 A_timsk [7:0] $end
$var reg 8 3 A_tifr [7:0] $end
$var reg 8 4 A_tifr1 [7:0] $end
$var reg 32 5 div [31:0] $end

$scope task die $end
$upscope $end


$scope task wreg $end
$var reg 8 6 addr [7:0] $end
$var reg 8 7 datax [7:0] $end
$upscope $end


$scope task rreg $end
$var reg 8 8 addr [7:0] $end
$var reg 8 9 datax [7:0] $end
$upscope $end


$scope task easyplay $end
$upscope $end


$scope task test1 $end
$upscope $end


$scope task test2 $end
$upscope $end


$scope task test3 $end
$upscope $end


$scope task test4 $end
$upscope $end


$scope task test5 $end
$upscope $end


$scope task _$$txp_fail_action_unnamed$$_8 $end
$upscope $end


$scope task _$$txp_fail_action_unnamed$$_9 $end
$upscope $end


$scope task _$$txp_fail_action_unnamed$$_10 $end
$upscope $end


$scope task _$$txp_fail_action_unnamed$$_11 $end
$upscope $end


$scope task _$$txp_fail_action_unnamed$$_12 $end
$upscope $end


$scope task _$$txp_fail_action_unnamed$$_13 $end
$upscope $end


$scope task _$$txp_fail_action_unnamed$$_14 $end
$upscope $end


$scope task _$$txp_fail_action_unnamed$$_15 $end
$upscope $end


$scope task _$$txp_fail_action_unnamed$$_16 $end
$upscope $end


$scope task _$$txp_fail_action_unnamed$$_17 $end
$upscope $end


$scope task _$$txp_fail_action_unnamed$$_18 $end
$upscope $end


$scope task _$$txp_fail_action_unnamed$$_19 $end
$upscope $end


$scope task _$$txp_fail_action_unnamed$$_20 $end
$upscope $end


$scope task _$$txp_fail_action_unnamed$$_21 $end
$upscope $end


$scope task _$$txp_fail_action_unnamed$$_22 $end
$upscope $end


$scope task _$$txp_fail_action_unnamed$$_23 $end
$upscope $end


$scope task _$$txp_fail_action_unnamed$$_24 $end
$upscope $end


$scope task _$$txp_fail_action_unnamed$$_25 $end
$upscope $end


$scope task _$$txp_fail_action_unnamed$$_26 $end
$upscope $end


$scope task _$$txp_fail_action_unnamed$$_27 $end
$upscope $end


$scope task _$$txp_fail_action_unnamed$$_28 $end
$upscope $end


$scope task _$$txp_fail_action_unnamed$$_29 $end
$upscope $end


$scope task _$$txp_fail_action_unnamed$$_30 $end
$upscope $end


$scope task _$$txp_fail_action_unnamed$$_31 $end
$upscope $end


$scope task _$$txp_fail_action_unnamed$$_32 $end
$upscope $end


$scope task _$$txp_fail_action_unnamed$$_33 $end
$upscope $end


$scope module ai $end
$var reg 1 : clk $end
$var reg 1 ; rst $end
$var reg 1 < write $end
$var reg 8 = addr [7:0] $end
$var reg 8 > wdata [7:0] $end
$var reg 1 ? read $end
$var reg 8 @ rdata [7:0] $end
$var reg 1 A t0 $end
$var reg 1 B oca_data $end
$var reg 1 C ocb_data $end
$var reg 1 D interrupt_request $end
$var reg 1 E status_reg_interrupt_enable $end
$var reg 1 F interrupt_executed $end
$upscope $end


$scope module t $end
$var reg 3 G wgm [2:0] $end
$var reg 8 H tcnt [7:0] $end
$var reg 8 I tcnt_d [7:0] $end
$var reg 8 J ocra [7:0] $end
$var reg 8 K ocra_d [7:0] $end
$var reg 8 L ocrb [7:0] $end
$var reg 8 M ocrb_d [7:0] $end
$var reg 8 N ocra_wk [7:0] $end
$var reg 8 O ocra_wk_d [7:0] $end
$var reg 8 P ocrb_wk [7:0] $end
$var reg 8 Q ocrb_wk_d [7:0] $end
$var reg 11 R clkdiv [10:0] $end
$var reg 11 S clkdiv_d [10:0] $end
$var reg 1 T t0a $end
$var reg 1 U t0b $end
$var reg 1 V tov $end
$var reg 1 W tov_d $end
$var reg 1 X top $end
$var reg 1 Y bottom $end
$var reg 1 Z timer_event $end
$var reg 1 [ oca_raw $end
$var reg 1 \ ocb_raw $end
$var reg 1 ] oca_d $end
$var reg 1 ^ oca $end
$var reg 1 _ ocb_d $end
$var reg 1 ` ocb $end
$var reg 1 a cntdir $end
$var reg 1 b cntdir_d $end
$var reg 1 c irq $end
$var reg 1 d irq_d $end
$var reg 1 e intr_exec $end
$var reg 8 f tccra [7:0] $end
$var reg 8 g tccra_d [7:0] $end
$var reg 8 h tccrb [7:0] $end
$var reg 8 i tccrb_d [7:0] $end
$var reg 8 j timsk [7:0] $end
$var reg 8 k timsk_d [7:0] $end
$var reg 8 l tifr [7:0] $end
$var reg 8 m tifr_d [7:0] $end
$upscope $end

$upscope $end

$enddefinitions $end

#0
$dumpvars
0Y
xa
xb
1!
xe
xc
xd
x^
x]
x[
x`
x_
x\
xT
xU
0X
0"
0#
0$
0%
0&
xZ
0V
0W
b00100111 ,
b01000111 -
b00101000 .
b01001000 /
b00100100 (
b01000100 )
b00100101 *
b01000101 +
b00100110 0
b01000110 1
b00010101 3
b00110101 4
b01101110 2
bxxxxxxxx g
bxxxxxxxx f
b00xxxxxx i
bxxxxxxxx h
bxxxxxxxx m
bxxxxxxxx l
bxxxxxxxx k
bxxxxxxxx j
bxxxxxxxxxxx R
bxxxxxxxxxxx S
bxxxxxxxx J
bxxxxxxxx K
bxxxxxxxx N
bxxxxxxxx O
bxxxxxxxx L
bxxxxxxxx M
bxxxxxxxx P
bxxxxxxxx Q
bxxxxxxxx 8
bxxxxxxxx 9
bxxxxxxxx H
bxxxxxxxx I
bxxx G
bxxxxxxxx 6
bxxxxxxxx 7
b00000000000000000000000000000000 '
b00000000000000000000000000001000 5
1F
1E
xD
xC
xB
xA
0?
0<
0;
0:
bxxxxxxxx @
b00110100 >
b00010010 =
$end
#500
1:
#600
0F
1;
0e
b00xxxxxx h
#700
b00000000 f
b00000000 h
b00000000 j
b00000000 l
b00000000 H
b00000000 J
b00000000 L
0T
0U
b00000000000 R
0a
0^
0B
0`
0C
0c
0D
b00000000 N
b00000000 P
b00000000 m
0_
0]
0b
b00000000 k
b00000000 Q
b00000000 O
b00000000 M
b00000000 K
b00000000 I
b00000000 g
b00000000 i
0Z
b000 G
1\
1[
0d
b00000000001 S
#1000
0:
#1500
1:
#2000
0:
#2500
1:
#3000
0:
#3500
1:
#4000
0:
#4500
1:
#5000
0:
#5500
1:
#5600
0;
b00100111 6
b00000101 7
b00100111 =
b00000101 >
1<
b00000101 K
#6000
0:
#6500
1:
#6600
0<
b00000000 =
b00000000 >
b00101000 6
b01110111 7
b00101000 =
b01110111 >
1<
b00000000 K
b01110111 M
b00000101 J
xT
b00000000001 R
b00000101 K
b00000000010 S
#7000
0:
#7500
1:
#7600
0<
b00000000 =
b00000000 >
b00100100 6
b00000010 7
b00100100 =
b00000010 >
1<
b00000000 M
b00000010 g
b01110111 L
xU
b00000000010 R
b01110111 M
b00000000011 S
#8000
0:
#8500
1:
#8600
0<
b00000000 =
b00000000 >
b00100101 6
b00100101 =
b00000010 >
1<
b00000000 g
b00000010 i
b00000010 f
b00000000011 R
b00000010 g
b010 G
b00000000100 S
#9000
0:
#9500
1:
#9600
0<
b00000000 =
b00000000 >
b00010101 6
b00000111 7
b00010101 =
b00000111 >
1<
b00000000 i
b00000010 h
b00000000100 R
b00000010 i
b00000000101 S
#10000
0:
#10500
1:
#10600
0<
b00000000 =
b00000000 >
b01101110 6
b01101110 =
b00000111 >
1<
b00000111 k
b00000000101 R
b00000000110 S
#11000
0:
#11500
1:
#11600
0<
b00000000 =
b00000000 >
b00100111 8
b00000101 9
b00100111 =
1?
b00000000 k
b00000101 @
b00000111 j
b00000000110 R
b00000111 k
b00000000111 S
#12000
0:
#12500
1:
#12600
b00100100 8
b00000010 9
b00100100 =
b00000010 @
b00000000111 R
b00000001000 S
#13000
0:
#13500
1:
#13600
b00100101 8
b00100101 =
b00000001000 R
b00000110 m
b01110111 Q
b00000101 O
b00000001 I
1Z
b00000001001 S
#14000
0:
#14500
1:
#14600
b01000111 8
b00000101 9
b01000111 =
b00000101 @
b00000110 l
b00000001 H
b00000001001 R
b00000101 N
b01110111 P
0Z
1d
b00000001010 S
0\
0[
#15000
0:
#15500
1:
#15600
b01000100 8
b00000010 9
b01000100 =
b00000010 @
b00000001010 R
1c
1D
b00000001011 S
#16000
0:
#16500
1:
#16600
b01000101 8
b01000101 =
b00000001011 R
b00000001100 S
#17000
0:
#17500
1:
#17600
b00010101 8
b00000000 9
b00010101 =
b00000110 @
b00000001100 R
b00000001101 S
#18000
0:
#18500
1:
#18600
b00000001101 R
b00000001110 S
