272-timerTB/tc.vcd
$date
	Thu Feb 26 16:16:49 2015
$end

$version
	Synopsys VCS version I-2014.03-2
$end

$timescale
	10ps
$end

$comment Csum: 1 846d111acfef1bf2 $end


$scope module top $end
$var reg 1 ! debug $end
$var reg 1 " test1_running $end
$var reg 1 # test2_running $end
$var reg 1 $ test3_running $end
$var reg 1 % test4_running $end
$var reg 1 & test5_running $end
$var reg 1 ' test6_running $end
$var reg 1 ( test7_running $end
$var reg 1 ) test8_running $end
$var reg 1 * test9_running $end
$var reg 1 + test10_running $end
$var reg 1 , test11_running $end
$var reg 1 - test12_running $end
$var reg 1 . test13_running $end
$var reg 32 / death [31:0] $end
$var reg 8 0 A_tccra [7:0] $end
$var reg 8 1 A_tccra1 [7:0] $end
$var reg 8 2 A_tccrb [7:0] $end
$var reg 8 3 A_tccrb1 [7:0] $end
$var reg 8 4 A_ocra [7:0] $end
$var reg 8 5 A_ocra1 [7:0] $end
$var reg 8 6 A_ocrb [7:0] $end
$var reg 8 7 A_ocrb1 [7:0] $end
$var reg 8 8 A_tcnt [7:0] $end
$var reg 8 9 A_tcnt1 [7:0] $end
$var reg 8 : A_timsk [7:0] $end
$var reg 8 ; A_tifr [7:0] $end
$var reg 8 < A_tifr1 [7:0] $end
$var reg 32 = div [31:0] $end

$scope task die $end
$upscope $end


$scope task wreg $end
$var reg 8 > addr [7:0] $end
$var reg 8 ? datax [7:0] $end
$upscope $end


$scope task rreg $end
$var reg 8 @ addr [7:0] $end
$var reg 8 A datax [7:0] $end
$upscope $end


$scope task easyplay $end
$upscope $end


$scope task test1 $end
$upscope $end


$scope task test2 $end
$upscope $end


$scope task test3 $end
$upscope $end


$scope task test4 $end
$upscope $end


$scope task test5 $end
$upscope $end


$scope task test6 $end
$upscope $end


$scope task test7 $end
$upscope $end


$scope task test8 $end
$upscope $end


$scope task test9 $end
$upscope $end


$scope task test10 $end
$upscope $end


$scope task test11 $end
$upscope $end


$scope task test12 $end
$upscope $end


$scope task test13 $end
$upscope $end


$scope task _$$txp_fail_action_unnamed$$_8 $end
$upscope $end


$scope task _$$txp_fail_action_unnamed$$_9 $end
$upscope $end


$scope task _$$txp_fail_action_unnamed$$_10 $end
$upscope $end


$scope task _$$txp_fail_action_unnamed$$_11 $end
$upscope $end


$scope task _$$txp_fail_action_unnamed$$_12 $end
$upscope $end


$scope task _$$txp_fail_action_unnamed$$_13 $end
$upscope $end


$scope task _$$txp_fail_action_unnamed$$_14 $end
$upscope $end


$scope task _$$txp_fail_action_unnamed$$_15 $end
$upscope $end


$scope task _$$txp_fail_action_unnamed$$_16 $end
$upscope $end


$scope task _$$txp_fail_action_unnamed$$_17 $end
$upscope $end


$scope task _$$txp_fail_action_unnamed$$_18 $end
$upscope $end


$scope task _$$txp_fail_action_unnamed$$_19 $end
$upscope $end


$scope task _$$txp_fail_action_unnamed$$_20 $end
$upscope $end


$scope task _$$txp_fail_action_unnamed$$_21 $end
$upscope $end


$scope task _$$txp_fail_action_unnamed$$_22 $end
$upscope $end


$scope task _$$txp_fail_action_unnamed$$_23 $end
$upscope $end


$scope task _$$txp_fail_action_unnamed$$_24 $end
$upscope $end


$scope task _$$txp_fail_action_unnamed$$_25 $end
$upscope $end


$scope task _$$txp_fail_action_unnamed$$_26 $end
$upscope $end


$scope task _$$txp_fail_action_unnamed$$_27 $end
$upscope $end


$scope task _$$txp_fail_action_unnamed$$_28 $end
$upscope $end


$scope task _$$txp_fail_action_unnamed$$_29 $end
$upscope $end


$scope task _$$txp_fail_action_unnamed$$_30 $end
$upscope $end


$scope task _$$txp_fail_action_unnamed$$_31 $end
$upscope $end


$scope task _$$txp_fail_action_unnamed$$_32 $end
$upscope $end


$scope task _$$txp_fail_action_unnamed$$_33 $end
$upscope $end


$scope task _$$txp_fail_action_unnamed$$_34 $end
$upscope $end


$scope task _$$txp_fail_action_unnamed$$_35 $end
$upscope $end


$scope task _$$txp_fail_action_unnamed$$_36 $end
$upscope $end


$scope task _$$txp_fail_action_unnamed$$_37 $end
$upscope $end


$scope task _$$txp_fail_action_unnamed$$_38 $end
$upscope $end


$scope task _$$txp_fail_action_unnamed$$_39 $end
$upscope $end


$scope task _$$txp_fail_action_unnamed$$_40 $end
$upscope $end


$scope task _$$txp_fail_action_unnamed$$_41 $end
$upscope $end


$scope task _$$txp_fail_action_unnamed$$_42 $end
$upscope $end


$scope task _$$txp_fail_action_unnamed$$_43 $end
$upscope $end


$scope task _$$txp_fail_action_unnamed$$_44 $end
$upscope $end


$scope task _$$txp_fail_action_unnamed$$_45 $end
$upscope $end


$scope task _$$txp_fail_action_unnamed$$_46 $end
$upscope $end


$scope task _$$txp_fail_action_unnamed$$_47 $end
$upscope $end


$scope task _$$txp_fail_action_unnamed$$_48 $end
$upscope $end


$scope task _$$txp_fail_action_unnamed$$_49 $end
$upscope $end


$scope task _$$txp_fail_action_unnamed$$_50 $end
$upscope $end


$scope task _$$txp_fail_action_unnamed$$_51 $end
$upscope $end


$scope task _$$txp_fail_action_unnamed$$_52 $end
$upscope $end


$scope task _$$txp_fail_action_unnamed$$_53 $end
$upscope $end


$scope module ai $end
$var reg 1 B clk $end
$var reg 1 C rst $end
$var reg 1 D write $end
$var reg 8 E addr [7:0] $end
$var reg 8 F wdata [7:0] $end
$var reg 1 G read $end
$var reg 8 H rdata [7:0] $end
$var reg 1 I t0 $end
$var reg 1 J oca_data $end
$var reg 1 K ocb_data $end
$var reg 1 L interrupt_request $end
$var reg 1 M status_reg_interrupt_enable $end
$var reg 1 N interrupt_executed $end
$upscope $end


$scope module t $end
$var reg 3 O wgm [2:0] $end
$var reg 8 P tcnt [7:0] $end
$var reg 8 Q tcnt_d [7:0] $end
$var reg 8 R ocra [7:0] $end
$var reg 8 S ocra_d [7:0] $end
$var reg 8 T ocrb [7:0] $end
$var reg 8 U ocrb_d [7:0] $end
$var reg 8 V ocra_wk [7:0] $end
$var reg 8 W ocra_wk_d [7:0] $end
$var reg 8 X ocrb_wk [7:0] $end
$var reg 8 Y ocrb_wk_d [7:0] $end
$var reg 11 Z clkdiv [10:0] $end
$var reg 11 [ clkdiv_d [10:0] $end
$var reg 1 \ t0a $end
$var reg 1 ] t0b $end
$var reg 1 ^ tov $end
$var reg 1 _ tov_d $end
$var reg 1 ` top $end
$var reg 1 a bottom $end
$var reg 1 b timer_event $end
$var reg 1 c oca_raw $end
$var reg 1 d ocb_raw $end
$var reg 1 e oca_d $end
$var reg 1 f oca $end
$var reg 1 g ocb_d $end
$var reg 1 h ocb $end
$var reg 1 i cntdir $end
$var reg 1 j cntdir_d $end
$var reg 1 k irq $end
$var reg 1 l irq_d $end
$var reg 1 m intr_exec $end
$var reg 8 n tccra [7:0] $end
$var reg 8 o tccra_d [7:0] $end
$var reg 8 p tccrb [7:0] $end
$var reg 8 q tccrb_d [7:0] $end
$var reg 8 r timsk [7:0] $end
$var reg 8 s timsk_d [7:0] $end
$var reg 8 t tifr [7:0] $end
$var reg 8 u tifr_d [7:0] $end
$upscope $end

$upscope $end

$enddefinitions $end

#0
$dumpvars
0a
xi
xj
1!
xm
xk
xl
xf
xe
xc
xh
xg
xd
x\
x]
0`
0+
0,
0-
0.
0"
0#
0$
0%
0&
0'
0(
0)
0*
xb
0^
0_
b00100111 4
b01000111 5
b00101000 6
b01001000 7
b00100100 0
b01000100 1
b00100101 2
b01000101 3
b00100110 8
b01000110 9
b00010101 ;
b00110101 <
b01101110 :
bxxxxxxxx o
bxxxxxxxx n
b00xxxxxx q
bxxxxxxxx p
bxxxxxxxx u
bxxxxxxxx t
bxxxxxxxx s
bxxxxxxxx r
bxxxxxxxxxxx Z
bxxxxxxxxxxx [
bxxxxxxxx R
bxxxxxxxx S
bxxxxxxxx V
bxxxxxxxx W
bxxxxxxxx T
bxxxxxxxx U
bxxxxxxxx X
bxxxxxxxx Y
bxxxxxxxx @
bxxxxxxxx A
bxxxxxxxx P
bxxxxxxxx Q
bxxx O
bxxxxxxxx >
bxxxxxxxx ?
b00000000000000000000000000000000 /
b00000000000000000000000000001000 =
1N
1M
xL
xK
xJ
xI
0G
0D
0C
0B
bxxxxxxxx H
b00110100 F
b00010010 E
$end
#500
1B
#600
0N
1C
0m
b00xxxxxx p
#700
b00000000 n
b00000000 p
b00000000 r
b00000000 t
b00000000 P
b00000000 R
b00000000 T
0\
0]
b00000000000 Z
0i
0f
0J
0h
0K
0k
0L
b00000000 V
b00000000 X
b00000000 u
0g
0e
0j
b00000000 s
b00000000 Y
b00000000 W
b00000000 U
b00000000 S
b00000000 Q
b00000000 o
b00000000 q
0b
b000 O
1d
1c
0l
b00000000001 [
#1000
0B
#1500
1B
#2000
0B
#2500
1B
#3000
0B
#3500
1B
#4000
0B
#4500
1B
#5000
0B
#5500
1B
#5600
0C
b00100111 >
b00000101 ?
b00100111 E
b00000101 F
1D
b00000101 S
#6000
0B
#6500
1B
#6600
0D
b00000000 E
b00000000 F
b00101000 >
b01110111 ?
b00101000 E
b01110111 F
1D
b00000000 S
b01110111 U
b00000101 R
x\
b00000000001 Z
b00000101 S
b00000000010 [
#7000
0B
#7500
1B
#7600
0D
b00000000 E
b00000000 F
b00100100 >
b00000010 ?
b00100100 E
b00000010 F
1D
b00000000 U
b00000010 o
b01110111 T
x]
b00000000010 Z
b01110111 U
b00000000011 [
#8000
0B
#8500
1B
#8600
0D
b00000000 E
b00000000 F
b00100101 >
b00100101 E
b00000010 F
1D
b00000000 o
b00000010 q
b00000010 n
b00000000011 Z
b00000010 o
b010 O
b00000000100 [
#9000
0B
#9500
1B
#9600
0D
b00000000 E
b00000000 F
b00010101 >
b00000111 ?
b00010101 E
b00000111 F
1D
b00000000 q
b00000010 p
b00000000100 Z
b00000010 q
b00000000101 [
#10000
0B
#10500
1B
#10600
0D
b00000000 E
b00000000 F
b01101110 >
b01101110 E
b00000111 F
1D
b00000111 s
b00000000101 Z
b00000000110 [
#11000
0B
#11500
1B
#11600
0D
b00000000 E
b00000000 F
b00100111 @
b00000101 A
b00100111 E
1G
b00000000 s
b00000101 H
b00000111 r
b00000000110 Z
b00000111 s
b00000000111 [
#12000
0B
#12500
1B
#12600
b00100100 @
b00000010 A
b00100100 E
b00000010 H
b00000000111 Z
b00000001000 [
#13000
0B
#13500
1B
#13600
b00100101 @
b00100101 E
b00000001000 Z
b00000110 u
b00000101 Y
b00000101 W
b00000001 Q
1b
b00000001001 [
#14000
0B
#14500
1B
#14600
b01000111 @
b00000101 A
b01000111 E
b00000101 H
b00000110 t
b00000001 P
b00000001001 Z
b00000101 V
b00000101 X
0b
1l
b00000001010 [
0d
0c
#15000
0B
#15500
1B
#15600
b01000100 @
b00000010 A
b01000100 E
b00000010 H
b00000001010 Z
1k
1L
b00000001011 [
#16000
0B
#16500
1B
#16600
b01000101 @
b01000101 E
b00000001011 Z
b00000001100 [
#17000
0B
#17500
1B
#17600
b00010101 @
b00000110 A
b00010101 E
b00000110 H
b00000001100 Z
b00000001101 [
#18000
0B
#18500
1B
#18600
b01101110 @
b00000111 A
b01101110 E
b00000111 H
b00000001101 Z
b00000001110 [
#19000
0B
#19500
1B
#19600
b00110101 @
b00000110 A
b00110101 E
b00000110 H
b00000001110 Z
b00000001111 [
#20000
0B
#20500
1B
#20600
1N
b00101000 @
b01110111 A
b00101000 E
0l
1m
b01110111 H
b00000000 t
b00000000 u
b00000110 t
b00000001111 Z
b00000110 u
b00000000 t
b00000010000 [
b00000000 u
#21000
0B
#21500
1B
#21600
b01001000 @
b01001000 E
b00000010000 Z
0k
0L
b00000010 Q
1b
0m
b00000010001 [
#22000
0B
#22500
1B
#22600
b00100110 E
b00000001 H
b00000010 P
b00000010001 Z
b00000010 H
0b
b00000010010 [
#23000
0B
#23500
1B
#23600
0N
b00000010010 Z
b00000010011 [
#24000
0B
#24500
1B
#24600
b00000010011 Z
b00000010100 [
#25000
0B
#25500
1B
#25600
b00000010100 Z
b00000010101 [
#26000
0B
#26500
1B
#26600
b00000010101 Z
b00000010110 [
#27000
0B
#27500
1B
#27600
b00000010110 Z
b00000010111 [
#28000
0B
#28500
1B
#28600
b00000010111 Z
b00000011000 [
#29000
0B
#29500
1B
#29600
b00000011000 Z
b00000011 Q
1b
b00000011001 [
#30000
0B
#30500
1B
#30600
b00000011 P
b00000011001 Z
b00000011 H
0b
b00000011010 [
#31000
0B
#31500
1B
#31600
b00000011010 Z
b00000011011 [
#32000
0B
#32500
1B
#32600
1"
b00000011011 Z
b00000011100 [
#33000
0B
#33500
1B
#33600
b00000011100 Z
b00000011101 [
#34000
0B
#34500
1B
#34600
b00000011101 Z
b00000011110 [
#35000
0B
#35500
1B
#35600
b00000011110 Z
b00000011111 [
#36000
0B
#36500
1B
#36600
b00000011111 Z
b00000100000 [
#37000
0B
#37500
1B
#37600
b00000100000 Z
b00000100 Q
1b
b00000100001 [
#38000
0B
#38500
1B
#38600
b00000100 P
b00000100001 Z
b00000100 H
0b
b00000100010 [
#39000
0B
#39500
1B
#39600
b00000100010 Z
b00000100011 [
#40000
0B
#40500
1B
#40600
b00000100011 Z
b00000100100 [
#41000
0B
#41500
1B
#41600
b00000100100 Z
b00000100101 [
#42000
0B
#42500
1B
#42600
b00000100101 Z
b00000100110 [
#43000
0B
#43500
1B
#43600
b00000100110 Z
b00000100111 [
#44000
0B
#44500
1B
#44600
b00000100111 Z
b00000101000 [
#45000
0B
#45500
1B
#45600
b00000101000 Z
b00000101 Q
1b
b00000101001 [
#46000
0B
#46500
1B
#46600
b00000101 P
b00000101001 Z
b00000101 H
0b
1d
1c
b00000101010 [
#47000
0B
#47500
1B
#47600
b00000101010 Z
b00000101011 [
#48000
0B
#48500
1B
#48600
b00000101011 Z
b00000101100 [
#49000
0B
#49500
1B
#49600
b00000101100 Z
b00000101101 [
#50000
0B
#50500
1B
#50600
b00000101101 Z
b00000101110 [
#51000
0B
#51500
1B
#51600
b00000101110 Z
b00000101111 [
#52000
0B
#52500
1B
#52600
b00000101111 Z
b00000110000 [
#53000
0B
#53500
1B
#53600
b00000110000 Z
b00000110 u
b00000000 Q
1`
1b
b00000110001 [
#54000
0B
#54500
1B
#54600
b00000110 t
b00000000 P
b00000110001 Z
b00000000 H
0`
0b
1l
b00000110010 [
0d
0c
#55000
0B
#55500
1B
#55600
b00000110010 Z
1k
1L
b00000110011 [
#56000
0B
#56500
1B
#56600
b00000110011 Z
b00000110100 [
#57000
0B
#57500
1B
#57600
1N
0l
1m
b00000000 t
b00000000 u
b00000110 t
b00000110100 Z
b00000110 u
b00000000 t
b00000110101 [
b00000000 u
#58000
0B
#58500
1B
#58600
b00000110101 Z
0k
0L
0m
b00000110110 [
#59000
0B
#59500
1B
#59600
b00000110110 Z
b00000110111 [
#60000
0B
#60500
1B
#60600
b00000110111 Z
b00000111000 [
#61000
0B
#61500
1B
#61600
b00000111000 Z
b00000001 Q
1b
b00000111001 [
#62000
0B
#62500
1B
#62600
0N
b00000001 P
b00000111001 Z
b00000001 H
0b
b00000111010 [
#63000
0B
#63500
1B
#63600
b00000111010 Z
b00000111011 [
#64000
0B
#64500
1B
#64600
b00000111011 Z
b00000111100 [
#65000
0B
#65500
1B
#65600
b00000111100 Z
b00000111101 [
#66000
0B
#66500
1B
#66600
b00000111101 Z
b00000111110 [
#67000
0B
#67500
1B
#67600
b00000111110 Z
b00000111111 [
#68000
0B
#68500
1B
#68600
b00000111111 Z
b00001000000 [
#69000
0B
#69500
1B
#69600
b00001000000 Z
b00000010 Q
1b
b00001000001 [
#70000
0B
#70500
1B
#70600
b00000010 P
b00001000001 Z
b00000010 H
0b
b00001000010 [
#71000
0B
#71500
1B
#71600
b00001000010 Z
b00001000011 [
#72000
0B
#72500
1B
#72600
b00001000011 Z
b00001000100 [
#73000
0B
#73500
1B
#73600
b00001000100 Z
b00001000101 [
#74000
0B
#74500
1B
#74600
b00001000101 Z
b00001000110 [
#75000
0B
#75500
1B
#75600
b00001000110 Z
b00001000111 [
#76000
0B
#76500
1B
#76600
b00001000111 Z
b00001001000 [
#77000
0B
#77500
1B
#77600
b00001001000 Z
b00000011 Q
1b
b00001001001 [
#78000
0B
#78500
1B
#78600
b00000011 P
b00001001001 Z
b00000011 H
0b
b00001001010 [
#79000
0B
#79500
1B
#79600
b00001001010 Z
b00001001011 [
#80000
0B
#80500
1B
#80600
b00001001011 Z
b00001001100 [
#81000
0B
#81500
1B
#81600
b00001001100 Z
b00001001101 [
#82000
0B
#82500
1B
#82600
b00001001101 Z
b00001001110 [
#83000
0B
#83500
1B
#83600
b00001001110 Z
b00001001111 [
#84000
0B
#84500
1B
#84600
b00001001111 Z
b00001010000 [
#85000
0B
#85500
1B
#85600
b00001010000 Z
b00000100 Q
1b
b00001010001 [
#86000
0B
#86500
1B
#86600
b00000100 P
b00001010001 Z
b00000100 H
0b
b00001010010 [
#87000
0B
#87500
1B
#87600
b00001010010 Z
b00001010011 [
#88000
0B
#88500
1B
#88600
b00001010011 Z
b00001010100 [
#89000
0B
#89500
1B
#89600
b00001010100 Z
b00001010101 [
#90000
0B
#90500
1B
#90600
b00001010101 Z
b00001010110 [
#91000
0B
#91500
1B
#91600
b00001010110 Z
b00001010111 [
#92000
0B
#92500
1B
#92600
b00001010111 Z
b00001011000 [
#93000
0B
#93500
1B
#93600
b00001011000 Z
b00000101 Q
1b
b00001011001 [
#94000
0B
#94500
1B
#94600
b00000101 P
b00001011001 Z
b00000101 H
0b
1d
1c
b00001011010 [
#95000
0B
#95500
1B
#95600
b00001011010 Z
b00001011011 [
#96000
0B
#96500
1B
#96600
b00001011011 Z
b00001011100 [
#97000
0B
#97500
1B
#97600
b00001011100 Z
b00001011101 [
#98000
0B
#98500
1B
#98600
b00001011101 Z
b00001011110 [
#99000
0B
#99500
1B
#99600
b00001011110 Z
b00001011111 [
#100000
0B
#100500
1B
#100600
b00001011111 Z
b00001100000 [
#101000
0B
#101500
1B
#101600
b00001100000 Z
b00000110 u
b00000000 Q
1`
1b
b00001100001 [
#102000
0B
#102500
1B
#102600
b00000110 t
b00000000 P
b00001100001 Z
b00000000 H
0`
0b
1l
b00001100010 [
0d
0c
#103000
0B
#103500
1B
#103600
b00001100010 Z
1k
1L
b00001100011 [
#104000
0B
#104500
1B
#104600
b00001100011 Z
b00001100100 [
#105000
0B
#105500
1B
#105600
b00001100100 Z
b00001100101 [
#106000
0B
#106500
1B
#106600
b00001100101 Z
b00001100110 [
#107000
0B
#107500
1B
#107600
b00001100110 Z
b00001100111 [
#108000
0B
#108500
1B
#108600
b00001100111 Z
b00001101000 [
#109000
0B
#109500
1B
#109600
1N
0l
1m
b00000000 t
b00000000 u
b00000110 t
b00001101000 Z
b00000110 u
b00000000 t
b00000001 Q
1b
b00001101001 [
b00000000 u
#110000
0B
#110500
1B
#110600
b00000001 P
b00001101001 Z
0k
0L
b00000001 H
0b
0m
b00001101010 [
#111000
0B
#111500
1B
#111600
b00001101010 Z
b00001101011 [
#112000
0B
#112500
1B
#112600
b00001101011 Z
b00001101100 [
#113000
0B
#113500
1B
#113600
b00001101100 Z
b00001101101 [
#114000
0B
#114500
1B
#114600
b00001101101 Z
b00001101110 [
#115000
0B
#115500
1B
#115600
b00001101110 Z
b00001101111 [
#116000
0B
#116500
1B
#116600
0N
b00001101111 Z
b00001110000 [
#117000
0B
#117500
1B
#117600
b00001110000 Z
b00000010 Q
1b
b00001110001 [
#118000
0B
#118500
1B
#118600
b00000010 P
b00001110001 Z
b00000010 H
0b
b00001110010 [
#119000
0B
#119500
1B
#119600
b00001110010 Z
b00001110011 [
#120000
0B
#120500
1B
#120600
b00001110011 Z
b00001110100 [
#121000
0B
#121500
1B
#121600
b00001110100 Z
b00001110101 [
#122000
0B
#122500
1B
#122600
b00001110101 Z
b00001110110 [
#123000
0B
#123500
1B
#123600
b00001110110 Z
b00001110111 [
#124000
0B
#124500
1B
#124600
b00001110111 Z
b00001111000 [
#125000
0B
#125500
1B
#125600
b00001111000 Z
b00000011 Q
1b
b00001111001 [
#126000
0B
#126500
1B
#126600
b00000011 P
b00001111001 Z
b00000011 H
0b
b00001111010 [
#127000
0B
#127500
1B
#127600
b00001111010 Z
b00001111011 [
#128000
0B
#128500
1B
#128600
b00001111011 Z
b00001111100 [
#129000
0B
#129500
1B
#129600
b00001111100 Z
b00001111101 [
#130000
0B
#130500
1B
#130600
b00001111101 Z
b00001111110 [
#131000
0B
#131500
1B
#131600
b00001111110 Z
b00001111111 [
#132000
0B
#132500
1B
#132600
b00001111111 Z
b00010000000 [
#133000
0B
#133500
1B
#133600
b00010000000 Z
b00000100 Q
1b
b00010000001 [
#134000
0B
#134500
1B
#134600
b00000100 P
b00010000001 Z
b00000100 H
0b
b00010000010 [
#135000
0B
#135500
1B
#135600
b00010000010 Z
b00010000011 [
#136000
0B
#136500
1B
#136600
b00010000011 Z
b00010000100 [
#137000
0B
#137500
1B
#137600
b00010000100 Z
b00010000101 [
#138000
0B
#138500
1B
#138600
b00010000101 Z
b00010000110 [
#139000
0B
#139500
1B
#139600
b00010000110 Z
b00010000111 [
#140000
0B
#140500
1B
#140600
b00010000111 Z
b00010001000 [
#141000
0B
#141500
1B
#141600
b00010001000 Z
b00000101 Q
1b
b00010001001 [
#142000
0B
#142500
1B
#142600
b00000101 P
b00010001001 Z
b00000101 H
0b
1d
1c
b00010001010 [
#143000
0B
#143500
1B
#143600
b00010001010 Z
b00010001011 [
#144000
0B
#144500
1B
#144600
b00010001011 Z
b00010001100 [
#145000
0B
#145500
1B
#145600
b00010001100 Z
b00010001101 [
#146000
0B
#146500
1B
#146600
b00010001101 Z
b00010001110 [
#147000
0B
#147500
1B
#147600
b00010001110 Z
b00010001111 [
#148000
0B
#148500
1B
#148600
b00010001111 Z
b00010010000 [
#149000
0B
#149500
1B
#149600
b00010010000 Z
b00000110 u
b00000000 Q
1`
1b
b00010010001 [
#150000
0B
#150500
1B
#150600
b00000110 t
b00000000 P
b00010010001 Z
b00000000 H
0`
0b
1l
b00010010010 [
0d
0c
#151000
0B
#151500
1B
#151600
b00010010010 Z
1k
1L
b00010010011 [
#152000
0B
#152500
1B
#152600
b00010010011 Z
b00010010100 [
#153000
0B
#153500
1B
#153600
b00010010100 Z
b00010010101 [
#154000
0B
#154500
1B
#154600
b00010010101 Z
b00010010110 [
#155000
0B
#155500
1B
#155600
b00010010110 Z
b00010010111 [
#156000
0B
#156500
1B
#156600
b00010010111 Z
b00010011000 [
#157000
0B
#157500
1B
#157600
1N
0l
1m
b00000000 t
b00000000 u
b00000110 t
b00010011000 Z
b00000110 u
b00000000 t
b00000001 Q
1b
b00010011001 [
b00000000 u
#158000
0B
#158500
1B
#158600
b00000001 P
b00010011001 Z
0k
0L
b00000001 H
0b
0m
b00010011010 [
#159000
0B
#159500
1B
#159600
b00010011010 Z
b00010011011 [
#160000
0B
#160500
1B
#160600
b00010011011 Z
b00010011100 [
#161000
0B
#161500
1B
#161600
0N
b00010011100 Z
b00010011101 [
#162000
0B
#162500
1B
#162600
b00010011101 Z
b00010011110 [
#163000
0B
#163500
1B
#163600
b00010011110 Z
b00010011111 [
#164000
0B
#164500
1B
#164600
b00010011111 Z
b00010100000 [
#165000
0B
#165500
1B
#165600
b00010100000 Z
b00000010 Q
1b
b00010100001 [
#166000
0B
#166500
1B
#166600
b00000010 P
b00010100001 Z
b00000010 H
0b
b00010100010 [
#167000
0B
#167500
1B
#167600
b00010100010 Z
b00010100011 [
#168000
0B
#168500
1B
#168600
b00010100011 Z
b00010100100 [
#169000
0B
#169500
1B
#169600
b00010100100 Z
b00010100101 [
#170000
0B
#170500
1B
#170600
b00010100101 Z
b00010100110 [
#171000
0B
#171500
1B
#171600
b00010100110 Z
b00010100111 [
#172000
0B
#172500
1B
#172600
b00010100111 Z
b00010101000 [
#173000
0B
#173500
1B
#173600
b00010101000 Z
b00000011 Q
1b
b00010101001 [
#174000
0B
#174500
1B
#174600
b00000011 P
b00010101001 Z
b00000011 H
0b
b00010101010 [
#175000
0B
#175500
1B
#175600
b00010101010 Z
b00010101011 [
#176000
0B
#176500
1B
#176600
b00010101011 Z
b00010101100 [
#177000
0B
#177500
1B
#177600
b00010101100 Z
b00010101101 [
#178000
0B
#178500
1B
#178600
b00010101101 Z
b00010101110 [
#179000
0B
#179500
1B
#179600
b00010101110 Z
b00010101111 [
#180000
0B
#180500
1B
#180600
b00010101111 Z
b00010110000 [
#181000
0B
#181500
1B
#181600
b00010110000 Z
b00000100 Q
1b
b00010110001 [
#182000
0B
#182500
1B
#182600
b00000100 P
b00010110001 Z
b00000100 H
0b
b00010110010 [
#183000
0B
#183500
1B
#183600
b00010110010 Z
b00010110011 [
#184000
0B
#184500
1B
#184600
b00010110011 Z
b00010110100 [
#185000
0B
#185500
1B
#185600
b00010110100 Z
b00010110101 [
#186000
0B
#186500
1B
#186600
b00010110101 Z
b00010110110 [
#187000
0B
#187500
1B
#187600
b00010110110 Z
b00010110111 [
#188000
0B
#188500
1B
#188600
b00010110111 Z
b00010111000 [
#189000
0B
#189500
1B
#189600
b00010111000 Z
b00000101 Q
1b
b00010111001 [
#190000
0B
#190500
1B
#190600
b00000101 P
b00010111001 Z
b00000101 H
0b
1d
1c
b00010111010 [
#191000
0B
#191500
1B
#191600
b00010111010 Z
b00010111011 [
#192000
0B
#192500
1B
#192600
b00010111011 Z
b00010111100 [
#193000
0B
#193500
1B
#193600
b00010111100 Z
b00010111101 [
#194000
0B
#194500
1B
#194600
b00010111101 Z
b00010111110 [
#195000
0B
#195500
1B
#195600
b00010111110 Z
b00010111111 [
#196000
0B
#196500
1B
#196600
b00010111111 Z
b00011000000 [
#197000
0B
#197500
1B
#197600
b00011000000 Z
b00000110 u
b00000000 Q
1`
1b
b00011000001 [
#198000
0B
#198500
1B
#198600
b00000110 t
b00000000 P
b00011000001 Z
b00000000 H
0`
0b
1l
b00011000010 [
0d
0c
#199000
0B
#199500
1B
#199600
b00011000010 Z
1k
1L
b00011000011 [
#200000
0B
#200500
1B
#200600
b00011000011 Z
b00011000100 [
#201000
0B
#201500
1B
#201600
1N
0l
1m
b00000000 t
b00000000 u
b00000110 t
b00011000100 Z
b00000110 u
b00000000 t
b00011000101 [
b00000000 u
#202000
0B
#202500
1B
#202600
b00011000101 Z
0k
0L
0m
b00011000110 [
#203000
0B
#203500
1B
#203600
b00011000110 Z
b00011000111 [
#204000
0B
#204500
1B
#204600
b00011000111 Z
b00011001000 [
#205000
0B
#205500
1B
#205600
b00011001000 Z
b00000001 Q
1b
b00011001001 [
#206000
0B
#206500
1B
#206600
b00000001 P
b00011001001 Z
b00000001 H
0b
b00011001010 [
#207000
0B
#207500
1B
#207600
b00011001010 Z
b00011001011 [
#208000
0B
#208500
1B
#208600
0N
b00011001011 Z
b00011001100 [
#209000
0B
#209500
1B
#209600
b00011001100 Z
b00011001101 [
#210000
0B
#210500
1B
#210600
b00011001101 Z
b00011001110 [
#211000
0B
#211500
1B
#211600
b00011001110 Z
b00011001111 [
#212000
0B
#212500
1B
#212600
b00011001111 Z
b00011010000 [
#213000
0B
#213500
1B
#213600
b00011010000 Z
b00000010 Q
1b
b00011010001 [
#214000
0B
#214500
1B
#214600
b00000010 P
b00011010001 Z
b00000010 H
0b
b00011010010 [
#215000
0B
#215500
1B
#215600
b00011010010 Z
b00011010011 [
#216000
0B
#216500
1B
#216600
b00011010011 Z
b00011010100 [
#217000
0B
#217500
1B
#217600
b00011010100 Z
b00011010101 [
#218000
0B
#218500
1B
#218600
b00011010101 Z
b00011010110 [
#219000
0B
#219500
1B
#219600
b00011010110 Z
b00011010111 [
#220000
0B
#220500
1B
#220600
b00011010111 Z
b00011011000 [
#221000
0B
#221500
1B
#221600
b00011011000 Z
b00000011 Q
1b
b00011011001 [
#222000
0B
#222500
1B
#222600
b00000011 P
b00011011001 Z
b00000011 H
0b
b00011011010 [
#223000
0B
#223500
1B
#223600
b00011011010 Z
b00011011011 [
#224000
0B
#224500
1B
#224600
b00011011011 Z
b00011011100 [
#225000
0B
#225500
1B
#225600
b00011011100 Z
b00011011101 [
#226000
0B
#226500
1B
#226600
b00011011101 Z
b00011011110 [
#227000
0B
#227500
1B
#227600
b00011011110 Z
b00011011111 [
#228000
0B
#228500
1B
#228600
b00011011111 Z
b00011100000 [
#229000
0B
#229500
1B
#229600
b00011100000 Z
b00000100 Q
1b
b00011100001 [
#230000
0B
#230500
1B
#230600
b00000100 P
b00011100001 Z
b00000100 H
0b
b00011100010 [
#231000
0B
#231500
1B
#231600
b00011100010 Z
b00011100011 [
#232000
0B
#232500
1B
#232600
b00011100011 Z
b00011100100 [
#233000
0B
#233500
1B
#233600
b00011100100 Z
b00011100101 [
#234000
0B
#234500
1B
#234600
b00011100101 Z
b00011100110 [
#235000
0B
#235500
1B
#235600
b00011100110 Z
b00011100111 [
#236000
0B
#236500
1B
#236600
b00011100111 Z
b00011101000 [
#237000
0B
#237500
1B
#237600
b00011101000 Z
b00000101 Q
1b
b00011101001 [
#238000
0B
#238500
1B
#238600
b00000101 P
b00011101001 Z
b00000101 H
0b
1d
1c
b00011101010 [
#239000
0B
#239500
1B
#239600
b00011101010 Z
b00011101011 [
#240000
0B
#240500
1B
#240600
b00011101011 Z
b00011101100 [
#241000
0B
#241500
1B
#241600
b00011101100 Z
b00011101101 [
#242000
0B
#242500
1B
#242600
b00011101101 Z
b00011101110 [
#243000
0B
#243500
1B
#243600
b00011101110 Z
b00011101111 [
#244000
0B
#244500
1B
#244600
b00011101111 Z
b00011110000 [
#245000
0B
#245500
1B
#245600
b00011110000 Z
b00000110 u
b00000000 Q
1`
1b
b00011110001 [
#246000
0B
#246500
1B
#246600
b00000110 t
b00000000 P
b00011110001 Z
b00000000 H
0`
0b
1l
b00011110010 [
0d
0c
#247000
0B
#247500
1B
