playground/hw1/hw1/tc.vcd
$date
	Sun Feb  8 18:01:28 2015
$end

$version
	Synopsys VCS version I-2014.03-2
$end

$timescale
	10ps
$end

$comment Csum: 1 2737aeaeec48d866 $end


$scope module top $end
$var reg 1 ! debug $end
$var reg 1 " test1_running $end
$var reg 1 # test2_running $end
$var reg 1 $ test3_running $end
$var reg 1 % test4_running $end
$var reg 1 & test5_running $end
$var reg 32 ' death [31:0] $end
$var reg 8 ( A_tccra [7:0] $end
$var reg 8 ) A_tccra1 [7:0] $end
$var reg 8 * A_tccrb [7:0] $end
$var reg 8 + A_tccrb1 [7:0] $end
$var reg 8 , A_ocra [7:0] $end
$var reg 8 - A_ocra1 [7:0] $end
$var reg 8 . A_ocrb [7:0] $end
$var reg 8 / A_ocrb1 [7:0] $end
$var reg 8 0 A_tcnt [7:0] $end
$var reg 8 1 A_tcnt1 [7:0] $end
$var reg 8 2 A_timsk [7:0] $end
$var reg 8 3 A_tifr [7:0] $end
$var reg 8 4 A_tifr1 [7:0] $end
$var reg 32 5 div [31:0] $end

$scope task die $end
$upscope $end


$scope task wreg $end
$var reg 8 6 addr [7:0] $end
$var reg 8 7 datax [7:0] $end
$upscope $end


$scope task rreg $end
$var reg 8 8 addr [7:0] $end
$var reg 8 9 datax [7:0] $end
$upscope $end


$scope task easyplay $end
$upscope $end


$scope task test1 $end
$upscope $end


$scope task test2 $end
$upscope $end


$scope task test3 $end
$upscope $end


$scope task test4 $end
$upscope $end


$scope task test5 $end
$upscope $end


$scope task _$$txp_fail_action_unnamed$$_8 $end
$upscope $end


$scope task _$$txp_fail_action_unnamed$$_9 $end
$upscope $end


$scope task _$$txp_fail_action_unnamed$$_10 $end
$upscope $end


$scope task _$$txp_fail_action_unnamed$$_11 $end
$upscope $end


$scope task _$$txp_fail_action_unnamed$$_12 $end
$upscope $end


$scope task _$$txp_fail_action_unnamed$$_13 $end
$upscope $end


$scope task _$$txp_fail_action_unnamed$$_14 $end
$upscope $end


$scope task _$$txp_fail_action_unnamed$$_15 $end
$upscope $end


$scope task _$$txp_fail_action_unnamed$$_16 $end
$upscope $end


$scope task _$$txp_fail_action_unnamed$$_17 $end
$upscope $end


$scope task _$$txp_fail_action_unnamed$$_18 $end
$upscope $end


$scope task _$$txp_fail_action_unnamed$$_19 $end
$upscope $end


$scope task _$$txp_fail_action_unnamed$$_20 $end
$upscope $end


$scope task _$$txp_fail_action_unnamed$$_21 $end
$upscope $end


$scope task _$$txp_fail_action_unnamed$$_22 $end
$upscope $end


$scope task _$$txp_fail_action_unnamed$$_23 $end
$upscope $end


$scope task _$$txp_fail_action_unnamed$$_24 $end
$upscope $end


$scope task _$$txp_fail_action_unnamed$$_25 $end
$upscope $end


$scope task _$$txp_fail_action_unnamed$$_26 $end
$upscope $end


$scope task _$$txp_fail_action_unnamed$$_27 $end
$upscope $end


$scope task _$$txp_fail_action_unnamed$$_28 $end
$upscope $end


$scope task _$$txp_fail_action_unnamed$$_29 $end
$upscope $end


$scope task _$$txp_fail_action_unnamed$$_30 $end
$upscope $end


$scope task _$$txp_fail_action_unnamed$$_31 $end
$upscope $end


$scope task _$$txp_fail_action_unnamed$$_32 $end
$upscope $end


$scope task _$$txp_fail_action_unnamed$$_33 $end
$upscope $end


$scope module ai $end
$var reg 1 : clk $end
$var reg 1 ; rst $end
$var reg 1 < write $end
$var reg 8 = addr [7:0] $end
$var reg 8 > wdata [7:0] $end
$var reg 1 ? read $end
$var reg 8 @ rdata [7:0] $end
$var reg 1 A interrupt_request $end
$var reg 1 B status_reg_interrupt_enable $end
$var reg 1 C interrupt_executed $end
$var reg 1 D t0 $end
$var reg 1 E oca_data $end
$var reg 1 F ocb_data $end
$upscope $end


$scope module t $end
$var reg 8 G tccra [7:0] $end
$var reg 8 H tccra1 [7:0] $end
$var reg 8 I tccrb [7:0] $end
$var reg 8 J tccrb1 [7:0] $end
$var reg 8 K ocra [7:0] $end
$var reg 8 L ocra1 [7:0] $end
$var reg 8 M ocrb [7:0] $end
$var reg 8 N ocrb1 [7:0] $end
$var reg 8 O tcnt [7:0] $end
$var reg 8 P tcnt1 [7:0] $end
$var reg 8 Q timsk [7:0] $end
$var reg 8 R tifr [7:0] $end
$var reg 8 S tifr1 [7:0] $end
$var reg 1 T clk8 $end
$var reg 2 U count [1:0] $end
$upscope $end

$upscope $end

$enddefinitions $end

#0
$dumpvars
xT
1!
0"
0#
0$
0%
0&
b00100111 ,
b01000111 -
b00101000 .
b01001000 /
b00100100 (
b01000100 )
b00100101 *
b01000101 +
b00100110 0
b01000110 1
b00010101 3
b00110101 4
b01101110 2
bxx U
bxxxxxxxx K
bxxxxxxxx L
bxxxxxxxx M
bxxxxxxxx N
bxxxxxxxx 8
bxxxxxxxx 9
bxxxxxxxx G
bxxxxxxxx H
bxxxxxxxx I
bxxxxxxxx J
bxxxxxxxx O
bxxxxxxxx P
bxxxxxxxx R
bxxxxxxxx S
bxxxxxxxx Q
bxxxxxxxx 6
bxxxxxxxx 7
b00000000000000000000000000000000 '
b00000000000000000000000000001000 5
1C
1B
xA
xF
xE
xD
0?
0<
0;
0:
bxxxxxxxx @
b00110100 >
b00010010 =
$end
#500
1:
0A
#600
0C
1;
b00000000 G
b00000000 H
b00000000 I
b00000000 J
b00000000 K
b00000000 L
b00000000 M
b00000000 N
b00000000 O
b00000000 P
b00000000 Q
b00000000 R
b00000000 S
0T
b00 U
bxxxxxxxx R
bxxxxxxxx S
#1000
0:
#1500
1:
b00000000 R
b00000000 S
bxxxxxxxx R
bxxxxxxxx S
#2000
0:
#2500
1:
b00000000 R
b00000000 S
bxxxxxxxx R
bxxxxxxxx S
#3000
0:
#3500
1:
b00000000 R
b00000000 S
bxxxxxxxx R
bxxxxxxxx S
#4000
0:
#4500
1:
b00000000 R
b00000000 S
bxxxxxxxx R
bxxxxxxxx S
#5000
0:
#5500
1:
b00000000 R
b00000000 S
bxxxxxxxx R
bxxxxxxxx S
#5600
0;
b00100111 6
b00000101 7
b00100111 =
b00000101 >
1<
#6000
0:
#6500
1:
b00000101 K
b00000101 L
b01 U
b00000000 R
b00000000 S
bxxxxxxxx R
bxxxxxxxx S
#6600
0<
b00000000 =
b00000000 >
b00101000 6
b01110111 7
b00101000 =
b01110111 >
1<
#7000
0:
#7500
1:
b01110111 M
b01110111 N
b10 U
b00000000 R
b00000000 S
bxxxxxxxx R
bxxxxxxxx S
#7600
0<
b00000000 =
b00000000 >
b00100100 6
b00000010 7
b00100100 =
b00000010 >
1<
#8000
0:
#8500
1:
b00000010 G
b00000010 H
b11 U
b00000000 R
b00000000 S
bxxxxxxxx R
bxxxxxxxx S
#8600
0<
b00000000 =
b00000000 >
b00100101 6
b00100101 =
b00000010 >
1<
#9000
0:
#9500
1:
b00000010 I
b00000010 J
b00 U
1T
b00000001 O
b00000001 P
b00000000 R
b00000000 S
#9600
0<
b00000000 =
b00000000 >
b00010101 6
b00000111 7
b00010101 =
b00000111 >
1<
#10000
0:
#10500
1:
b00000111 R
b00000111 S
b01 U
b00000000 R
b00000000 S
#10600
0<
b00000000 =
b00000000 >
b01101110 6
b01101110 =
b00000111 >
1<
#11000
0:
#11500
1:
b00000111 Q
b10 U
#11600
0<
b00000000 =
b00000000 >
b00100111 8
b00000101 9
b00100111 =
1?
#12000
0:
#12500
1:
b00000101 @
b11 U
#12600
b00100100 8
b00000010 9
b00100100 =
#13000
0:
#13500
1:
b00000010 @
b00 U
0T
#13600
b00100101 8
b00100101 =
#14000
0:
#14500
1:
b01 U
#14600
b01000111 8
b00000101 9
b01000111 =
#15000
0:
#15500
1:
b00000101 @
b10 U
#15600
b01000100 8
b00000010 9
b01000100 =
#16000
0:
#16500
1:
b00000010 @
b11 U
#16600
b01000101 8
b01000101 =
#17000
0:
#17500
1:
b00 U
1T
b00000010 O
b00000010 P
#17600
b00010101 8
b00000000 9
b00010101 =
#18000
0:
#18500
1:
b00000000 @
b01 U
#18600
b01101110 8
b00000111 9
b01101110 =
#19000
0:
#19500
1:
b00000111 @
b10 U
#19600
b00110101 8
b00000000 9
b00110101 =
#20000
0:
#20500
1:
b00000000 @
b11 U
#20600
b00101000 8
b01110111 9
b00101000 =
#21000
0:
#21500
1:
b01110111 @
b00 U
0T
#21600
b01001000 8
b01001000 =
#22000
0:
#22500
1:
b01 U
#22600
b00100110 =
#23000
0:
#23500
1:
b00000010 @
b10 U
#24000
0:
#24500
1:
b11 U
#25000
0:
#25500
1:
b00 U
1T
b00000011 O
b00000011 P
#26000
0:
#26500
1:
b00000011 @
b01 U
#27000
0:
#27500
1:
b10 U
#28000
0:
#28500
1:
b11 U
#29000
0:
#29500
1:
b00 U
0T
#30000
0:
#30500
1:
b01 U
#31000
0:
#31500
1:
b10 U
#32000
0:
#32500
1:
b11 U
#32600
1"
#33000
0:
#33500
1:
b00 U
1T
b00000100 O
b00000100 P
#34000
0:
#34500
1:
b00000100 @
b01 U
#35000
0:
#35500
1:
b10 U
#36000
0:
#36500
1:
b11 U
#37000
0:
#37500
1:
b00 U
0T
#38000
0:
#38500
1:
b01 U
#39000
0:
#39500
1:
b10 U
#40000
0:
#40500
1:
b11 U
#41000
0:
#41500
1:
b00 U
1T
b00000101 O
b00000101 P
#42000
0:
#42500
1:
b00000101 @
b01 U
#43000
0:
#43500
1:
b10 U
#44000
0:
#44500
1:
b11 U
#45000
0:
#45500
1:
b00 U
0T
#46000
0:
#46500
1:
b01 U
#47000
0:
#47500
1:
b10 U
#48000
0:
#48500
1:
b11 U
#49000
0:
#49500
1:
b00 U
1T
b00000110 O
b00000110 P
b00000000 O
b00000000 P
1A
#50000
0:
#50500
1:
b00000000 @
b01 U
#51000
0:
#51500
1:
b10 U
#52000
0:
#52500
1:
b11 U
#53000
0:
#53500
1:
b00 U
0T
#54000
0:
#54500
1:
b01 U
#54600
1C
#55000
0:
#55500
1:
b10 U
0A
#56000
0:
#56500
1:
b11 U
#57000
0:
#57500
1:
b00 U
1T
b00000001 O
b00000001 P
#57600
0C
#58000
0:
#58500
1:
b00000001 @
b01 U
#59000
0:
#59500
1:
b10 U
#60000
0:
#60500
1:
b11 U
#61000
0:
#61500
1:
b00 U
0T
#62000
0:
#62500
1:
b01 U
#63000
0:
#63500
1:
b10 U
#64000
0:
#64500
1:
b11 U
#65000
0:
#65500
1:
b00 U
1T
b00000010 O
b00000010 P
#66000
0:
#66500
1:
b00000010 @
b01 U
#67000
0:
#67500
1:
b10 U
#68000
0:
#68500
1:
b11 U
#69000
0:
#69500
1:
b00 U
0T
#70000
0:
#70500
1:
b01 U
#71000
0:
#71500
1:
b10 U
#72000
0:
#72500
1:
b11 U
#73000
0:
#73500
1:
b00 U
1T
b00000011 O
b00000011 P
#74000
0:
#74500
1:
b00000011 @
b01 U
#75000
0:
#75500
1:
b10 U
#76000
0:
#76500
1:
b11 U
#77000
0:
#77500
1:
b00 U
0T
#78000
0:
#78500
1:
b01 U
#79000
0:
#79500
1:
b10 U
#80000
0:
#80500
1:
b11 U
#81000
0:
#81500
1:
b00 U
1T
b00000100 O
b00000100 P
#82000
0:
#82500
1:
b00000100 @
b01 U
#83000
0:
#83500
1:
b10 U
#84000
0:
#84500
1:
b11 U
#85000
0:
#85500
1:
b00 U
0T
#86000
0:
#86500
1:
b01 U
#87000
0:
#87500
1:
b10 U
#88000
0:
#88500
1:
b11 U
#89000
0:
#89500
1:
b00 U
1T
b00000101 O
b00000101 P
#90000
0:
#90500
1:
b00000101 @
b01 U
#91000
0:
#91500
1:
b10 U
#92000
0:
#92500
1:
b11 U
#93000
0:
#93500
1:
b00 U
0T
#94000
0:
#94500
1:
b01 U
#95000
0:
#95500
1:
b10 U
#96000
0:
#96500
1:
b11 U
#97000
0:
#97500
1:
b00 U
1T
b00000110 O
b00000110 P
b00000000 O
b00000000 P
1A
#98000
0:
#98500
1:
b00000000 @
b01 U
#99000
0:
#99500
1:
b10 U
#99600
1C
#100000
0:
#100500
1:
b11 U
0A
#101000
0:
#101500
1:
b00 U
0T
#102000
0:
#102500
1:
b01 U
#103000
0:
#103500
1:
b10 U
#104000
0:
#104500
1:
b11 U
#104600
0C
#105000
0:
#105500
1:
b00 U
1T
b00000001 O
b00000001 P
#106000
0:
#106500
1:
b00000001 @
b01 U
#107000
0:
#107500
1:
b10 U
#108000
0:
#108500
1:
b11 U
#109000
0:
#109500
1:
b00 U
0T
#110000
0:
#110500
1:
b01 U
#111000
0:
#111500
1:
b10 U
#112000
0:
#112500
1:
b11 U
#113000
0:
#113500
1:
b00 U
1T
b00000010 O
b00000010 P
#114000
0:
#114500
1:
b00000010 @
b01 U
#115000
0:
#115500
1:
b10 U
#116000
0:
#116500
1:
b11 U
#117000
0:
#117500
1:
b00 U
0T
#118000
0:
#118500
1:
b01 U
#119000
0:
#119500
1:
b10 U
#120000
0:
#120500
1:
b11 U
#121000
0:
#121500
1:
b00 U
1T
b00000011 O
b00000011 P
#122000
0:
#122500
1:
b00000011 @
b01 U
#123000
0:
#123500
1:
b10 U
#124000
0:
#124500
1:
b11 U
#125000
0:
#125500
1:
b00 U
0T
#126000
0:
#126500
1:
b01 U
#127000
0:
#127500
1:
b10 U
#128000
0:
#128500
1:
b11 U
#129000
0:
#129500
1:
b00 U
1T
b00000100 O
b00000100 P
#130000
0:
#130500
1:
b00000100 @
b01 U
#131000
0:
#131500
1:
b10 U
#132000
0:
#132500
1:
b11 U
#133000
0:
#133500
1:
b00 U
0T
#134000
0:
#134500
1:
b01 U
#135000
0:
#135500
1:
b10 U
#136000
0:
#136500
1:
b11 U
#137000
0:
#137500
1:
b00 U
1T
b00000101 O
b00000101 P
#138000
0:
#138500
1:
b00000101 @
b01 U
#139000
0:
#139500
1:
b10 U
#140000
0:
#140500
1:
b11 U
#141000
0:
#141500
1:
b00 U
0T
#142000
0:
#142500
1:
b01 U
#143000
0:
#143500
1:
b10 U
#144000
0:
#144500
1:
b11 U
#145000
0:
#145500
1:
b00 U
1T
b00000110 O
b00000110 P
b00000000 O
b00000000 P
1A
#146000
0:
#146500
1:
b00000000 @
b01 U
#147000
0:
#147500
1:
b10 U
#148000
0:
#148500
1:
b11 U
#149000
0:
#149500
1:
b00 U
0T
#150000
0:
#150500
1:
b01 U
#151000
0:
#151500
1:
b10 U
#151600
1C
#152000
0:
#152500
1:
b11 U
0A
#153000
0:
#153500
1:
b00 U
1T
b00000001 O
b00000001 P
#154000
0:
#154500
1:
b00000001 @
b01 U
#155000
0:
#155500
1:
b10 U
#156000
0:
#156500
1:
b11 U
#157000
0:
#157500
1:
b00 U
0T
#158000
0:
#158500
1:
b01 U
#158600
0C
#159000
0:
#159500
1:
b10 U
#160000
0:
#160500
1:
b11 U
#161000
0:
#161500
1:
b00 U
1T
b00000010 O
b00000010 P
#162000
0:
#162500
1:
b00000010 @
b01 U
#163000
0:
#163500
1:
b10 U
#164000
0:
#164500
1:
b11 U
#165000
0:
#165500
1:
b00 U
0T
#166000
0:
#166500
1:
b01 U
#167000
0:
#167500
1:
b10 U
#168000
0:
#168500
1:
b11 U
#169000
0:
#169500
1:
b00 U
1T
b00000011 O
b00000011 P
#170000
0:
#170500
1:
b00000011 @
b01 U
#171000
0:
#171500
1:
b10 U
#172000
0:
#172500
1:
b11 U
#173000
0:
#173500
1:
b00 U
0T
#174000
0:
#174500
1:
b01 U
#175000
0:
#175500
1:
b10 U
#176000
0:
#176500
1:
b11 U
#177000
0:
#177500
1:
b00 U
1T
b00000100 O
b00000100 P
#178000
0:
#178500
1:
b00000100 @
b01 U
#179000
0:
#179500
1:
b10 U
#180000
0:
#180500
1:
b11 U
#181000
0:
#181500
1:
b00 U
0T
#182000
0:
#182500
1:
b01 U
#183000
0:
#183500
1:
b10 U
#184000
0:
#184500
1:
b11 U
#185000
0:
#185500
1:
b00 U
1T
b00000101 O
b00000101 P
#186000
0:
#186500
1:
b00000101 @
b01 U
#187000
0:
#187500
1:
b10 U
#188000
0:
#188500
1:
b11 U
#189000
0:
#189500
1:
b00 U
0T
#190000
0:
#190500
1:
b01 U
#191000
0:
#191500
1:
b10 U
#192000
0:
#192500
1:
b11 U
#193000
0:
#193500
1:
b00 U
1T
b00000110 O
b00000110 P
b00000000 O
b00000000 P
1A
#194000
0:
#194500
1:
b00000000 @
b01 U
#195000
0:
#195500
1:
b10 U
#196000
0:
#196500
1:
b11 U
#197000
0:
#197500
1:
b00 U
0T
#198000
0:
#198500
1:
b01 U
#199000
0:
#199500
1:
b10 U
#199600
1C
#200000
0:
#200500
1:
b11 U
0A
#201000
0:
#201500
1:
b00 U
1T
b00000001 O
b00000001 P
#202000
0:
#202500
1:
b00000001 @
b01 U
#203000
0:
#203500
1:
b10 U
#203600
0C
#204000
0:
#204500
1:
b11 U
#205000
0:
#205500
1:
b00 U
0T
#206000
0:
#206500
1:
b01 U
#207000
0:
#207500
1:
b10 U
#208000
0:
#208500
1:
b11 U
#209000
0:
#209500
1:
b00 U
1T
b00000010 O
b00000010 P
#210000
0:
#210500
1:
b00000010 @
b01 U
#211000
0:
#211500
1:
b10 U
#212000
0:
#212500
1:
b11 U
#213000
0:
#213500
1:
b00 U
0T
#214000
0:
#214500
1:
b01 U
#215000
0:
#215500
1:
b10 U
#216000
0:
#216500
1:
b11 U
#217000
0:
#217500
1:
b00 U
1T
b00000011 O
b00000011 P
#218000
0:
#218500
1:
b00000011 @
b01 U
#219000
0:
#219500
1:
b10 U
#220000
0:
#220500
1:
b11 U
#221000
0:
#221500
1:
b00 U
0T
#222000
0:
#222500
1:
b01 U
#223000
0:
#223500
1:
b10 U
#224000
0:
#224500
1:
b11 U
#225000
0:
#225500
1:
b00 U
1T
b00000100 O
b00000100 P
#226000
0:
#226500
1:
b00000100 @
b01 U
#227000
0:
#227500
1:
b10 U
#228000
0:
#228500
1:
b11 U
#229000
0:
#229500
1:
b00 U
0T
#230000
0:
#230500
1:
b01 U
#231000
0:
#231500
1:
b10 U
#232000
0:
#232500
1:
b11 U
#233000
0:
#233500
1:
b00 U
1T
b00000101 O
b00000101 P
#234000
0:
#234500
1:
b00000101 @
b01 U
#235000
0:
#235500
1:
b10 U
#236000
0:
#236500
1:
b11 U
#237000
0:
#237500
1:
b00 U
0T
#238000
0:
#238500
1:
b01 U
#239000
0:
#239500
1:
b10 U
#240000
0:
#240500
1:
b11 U
#241000
0:
#241500
1:
b00 U
1T
b00000110 O
b00000110 P
b00000000 O
b00000000 P
1A
#242000
0:
#242500
1:
b00000000 @
b01 U
#243000
0:
#243500
1:
b10 U
#243600
1C
#244000
0:
#244500
1:
b11 U
0A
#245000
0:
#245500
1:
b00 U
0T
#246000
0:
#246500
1:
b01 U
#247000
0:
#247500
1:
b10 U
#248000
0:
#248500
1:
b11 U
#249000
0:
#249500
1:
b00 U
1T
b00000001 O
b00000001 P
#250000
0:
#250500
1:
b00000001 @
b01 U
#250600
0C
#251000
0:
#251500
1:
b10 U
#252000
0:
#252500
1:
b11 U
#253000
0:
#253500
1:
b00 U
0T
#254000
0:
#254500
1:
b01 U
#255000
0:
#255500
1:
b10 U
#256000
0:
#256500
1:
b11 U
#257000
0:
#257500
1:
b00 U
1T
b00000010 O
b00000010 P
#258000
0:
#258500
1:
b00000010 @
b01 U
#259000
0:
#259500
1:
b10 U
#260000
0:
#260500
1:
b11 U
#261000
0:
#261500
1:
b00 U
0T
#262000
0:
#262500
1:
b01 U
#263000
0:
#263500
1:
b10 U
#264000
0:
#264500
1:
b11 U
#265000
0:
#265500
1:
b00 U
1T
b00000011 O
b00000011 P
#266000
0:
#266500
1:
b00000011 @
b01 U
#267000
0:
#267500
1:
b10 U
#268000
0:
#268500
1:
b11 U
#269000
0:
#269500
1:
b00 U
0T
#270000
0:
#270500
1:
b01 U
#271000
0:
#271500
1:
b10 U
#272000
0:
#272500
1:
b11 U
#273000
0:
#273500
1:
b00 U
1T
b00000100 O
b00000100 P
#274000
0:
#274500
1:
b00000100 @
b01 U
#275000
0:
#275500
1:
b10 U
#276000
0:
#276500
1:
b11 U
#277000
0:
#277500
1:
b00 U
0T
#278000
0:
#278500
1:
b01 U
#279000
0:
#279500
1:
b10 U
#280000
0:
#280500
1:
b11 U
#281000
0:
#281500
1:
b00 U
1T
b00000101 O
b00000101 P
#282000
0:
#282500
1:
b00000101 @
b01 U
#283000
0:
#283500
1:
b10 U
#284000
0:
#284500
1:
b11 U
#285000
0:
#285500
1:
b00 U
0T
#286000
0:
#286500
1:
b01 U
#287000
0:
#287500
1:
b10 U
#288000
0:
#288500
1:
b11 U
#289000
0:
#289500
1:
b00 U
1T
b00000110 O
b00000110 P
b00000000 O
b00000000 P
1A
#290000
0:
#290500
1:
b00000000 @
b01 U
#291000
0:
#291500
1:
b10 U
#292000
0:
#292500
1:
b11 U
#293000
0:
#293500
1:
b00 U
0T
#294000
0:
#294500
1:
b01 U
#295000
0:
#295500
1:
b10 U
#296000
0:
#296500
1:
b11 U
#296600
1C
#297000
0:
#297500
1:
b00 U
1T
0A
b00000001 O
b00000001 P
#298000
0:
#298500
1:
b00000001 @
b01 U
#299000
0:
#299500
1:
b10 U
#300000
0:
#300500
1:
b11 U
#301000
0:
#301500
1:
b00 U
0T
#302000
0:
#302500
1:
b01 U
#303000
0:
#303500
1:
b10 U
#303600
0C
#304000
0:
#304500
1:
b11 U
#305000
0:
#305500
1:
b00 U
1T
b00000010 O
b00000010 P
#306000
0:
#306500
1:
b00000010 @
b01 U
#307000
0:
#307500
1:
b10 U
#308000
0:
#308500
1:
b11 U
#309000
0:
#309500
1:
b00 U
0T
#310000
0:
#310500
1:
b01 U
#311000
0:
#311500
1:
b10 U
#312000
0:
#312500
1:
b11 U
#313000
0:
#313500
1:
b00 U
1T
b00000011 O
b00000011 P
#314000
0:
#314500
1:
b00000011 @
b01 U
#315000
0:
#315500
1:
b10 U
#316000
0:
#316500
1:
b11 U
#317000
0:
#317500
1:
b00 U
0T
#318000
0:
#318500
1:
b01 U
#319000
0:
#319500
1:
b10 U
#320000
0:
#320500
1:
b11 U
#321000
0:
#321500
1:
b00 U
1T
b00000100 O
b00000100 P
#322000
0:
#322500
1:
b00000100 @
b01 U
#323000
0:
#323500
1:
b10 U
#324000
0:
#324500
1:
b11 U
#325000
0:
#325500
1:
b00 U
0T
#326000
0:
#326500
1:
b01 U
#327000
0:
#327500
1:
b10 U
#328000
0:
#328500
1:
b11 U
#329000
0:
#329500
1:
b00 U
1T
b00000101 O
b00000101 P
#330000
0:
#330500
1:
b00000101 @
b01 U
#331000
0:
#331500
1:
b10 U
#332000
0:
#332500
1:
b11 U
#333000
0:
#333500
1:
b00 U
0T
#334000
0:
#334500
1:
b01 U
#335000
0:
#335500
1:
b10 U
#336000
0:
#336500
1:
b11 U
#337000
0:
#337500
1:
b00 U
1T
b00000110 O
b00000110 P
b00000000 O
b00000000 P
1A
#338000
0:
#338500
1:
b00000000 @
b01 U
#339000
0:
#339500
1:
b10 U
#340000
0:
#340500
1:
b11 U
#341000
0:
#341500
1:
b00 U
0T
#342000
0:
#342500
1:
b01 U
#343000
0:
#343500
1:
b10 U
#343600
1C
#344000
0:
#344500
1:
b11 U
0A
#345000
0:
#345500
1:
b00 U
1T
b00000001 O
b00000001 P
#346000
0:
#346500
1:
b00000001 @
b01 U
#347000
0:
#347500
1:
b10 U
#348000
0:
#348500
1:
b11 U
#349000
0:
#349500
1:
b00 U
0T
#349600
0C
#350000
0:
#350500
1:
b01 U
#351000
0:
#351500
1:
b10 U
#352000
0:
#352500
1:
b11 U
#353000
0:
#353500
1:
b00 U
1T
b00000010 O
b00000010 P
#354000
0:
#354500
1:
b00000010 @
b01 U
#355000
0:
#355500
1:
b10 U
#356000
0:
#356500
1:
b11 U
#357000
0:
#357500
1:
b00 U
0T
#358000
0:
#358500
1:
b01 U
#359000
0:
#359500
1:
b10 U
#360000
0:
#360500
1:
b11 U
#361000
0:
#361500
1:
b00 U
1T
b00000011 O
b00000011 P
#362000
0:
#362500
1:
b00000011 @
b01 U
#363000
0:
#363500
1:
b10 U
#364000
0:
#364500
1:
b11 U
#365000
0:
#365500
1:
b00 U
0T
#366000
0:
#366500
1:
b01 U
#367000
0:
#367500
1:
b10 U
#368000
0:
#368500
1:
b11 U
#369000
0:
#369500
1:
b00 U
1T
b00000100 O
b00000100 P
#370000
0:
#370500
1:
b00000100 @
b01 U
#371000
0:
#371500
1:
b10 U
#372000
0:
#372500
1:
b11 U
#373000
0:
#373500
1:
b00 U
0T
#374000
0:
#374500
1:
b01 U
#375000
0:
#375500
1:
b10 U
#376000
0:
#376500
1:
b11 U
#377000
0:
#377500
1:
b00 U
1T
b00000101 O
b00000101 P
#378000
0:
#378500
1:
b00000101 @
b01 U
#379000
0:
#379500
1:
b10 U
#380000
0:
#380500
1:
b11 U
#381000
0:
#381500
1:
b00 U
0T
#382000
0:
#382500
1:
b01 U
#383000
0:
#383500
1:
b10 U
#384000
0:
#384500
1:
b11 U
#385000
0:
#385500
1:
b00 U
1T
b00000110 O
b00000110 P
b00000000 O
b00000000 P
1A
#386000
0:
#386500
1:
b00000000 @
b01 U
#387000
0:
#387500
1:
b10 U
#387600
1C
#388000
0:
#388500
1:
b11 U
0A
#389000
0:
#389500
1:
b00 U
0T
#390000
0:
#390500
1:
b01 U
#391000
0:
#391500
1:
b10 U
#392000
0:
#392500
1:
b11 U
#393000
0:
#393500
1:
b00 U
1T
b00000001 O
b00000001 P
#394000
0:
#394500
1:
b00000001 @
b01 U
#395000
0:
#395500
1:
b10 U
#395600
0C
#396000
0:
#396500
1:
b11 U
#397000
0:
#397500
1:
b00 U
0T
#398000
0:
#398500
1:
b01 U
#399000
0:
#399500
1:
b10 U
#400000
0:
#400500
1:
b11 U
#401000
0:
#401500
1:
b00 U
1T
b00000010 O
b00000010 P
#402000
0:
#402500
1:
b00000010 @
b01 U
#403000
0:
#403500
1:
b10 U
#404000
0:
#404500
1:
b11 U
#405000
0:
#405500
1:
b00 U
0T
#406000
0:
#406500
1:
b01 U
#407000
0:
#407500
1:
b10 U
#408000
0:
#408500
1:
b11 U
#409000
0:
#409500
1:
b00 U
1T
b00000011 O
b00000011 P
#410000
0:
#410500
1:
b00000011 @
b01 U
#411000
0:
#411500
1:
b10 U
#412000
0:
#412500
1:
b11 U
#413000
0:
#413500
1:
b00 U
0T
#414000
0:
#414500
1:
b01 U
#415000
0:
#415500
1:
b10 U
#416000
0:
#416500
1:
b11 U
#417000
0:
#417500
1:
b00 U
1T
b00000100 O
b00000100 P
#418000
0:
#418500
1:
b00000100 @
b01 U
#419000
0:
#419500
1:
b10 U
#420000
0:
#420500
1:
b11 U
#421000
0:
#421500
1:
b00 U
0T
#422000
0:
#422500
1:
b01 U
#423000
0:
#423500
1:
b10 U
#424000
0:
#424500
1:
b11 U
#425000
0:
#425500
1:
b00 U
1T
b00000101 O
b00000101 P
#426000
0:
#426500
1:
b00000101 @
b01 U
#427000
0:
#427500
1:
b10 U
#428000
0:
#428500
1:
b11 U
#429000
0:
#429500
1:
b00 U
0T
#430000
0:
#430500
1:
b01 U
#431000
0:
#431500
1:
b10 U
#432000
0:
#432500
1:
b11 U
#433000
0:
#433500
1:
b00 U
1T
b00000110 O
b00000110 P
b00000000 O
b00000000 P
1A
#434000
0:
#434500
1:
b00000000 @
b01 U
#435000
0:
#435500
1:
b10 U
#436000
0:
#436500
1:
b11 U
#437000
0:
#437500
1:
b00 U
0T
#438000
0:
#438500
1:
b01 U
#439000
0:
#439500
1:
b10 U
#439600
1C
#440000
0:
#440500
1:
b11 U
0A
#441000
0:
#441500
1:
b00 U
1T
b00000001 O
b00000001 P
#442000
0:
#442500
1:
b00000001 @
b01 U
#443000
0:
#443500
1:
b10 U
#443600
0C
#444000
0:
#444500
1:
b11 U
#445000
0:
#445500
1:
b00 U
0T
#446000
0:
#446500
1:
b01 U
#447000
0:
#447500
1:
b10 U
#448000
0:
#448500
1:
b11 U
#449000
0:
#449500
1:
b00 U
1T
b00000010 O
b00000010 P
#450000
0:
#450500
1:
b00000010 @
b01 U
#451000
0:
#451500
1:
b10 U
#452000
0:
#452500
1:
b11 U
#453000
0:
#453500
1:
b00 U
0T
#454000
0:
#454500
1:
b01 U
#455000
0:
#455500
1:
b10 U
#456000
0:
#456500
1:
b11 U
#457000
0:
#457500
1:
b00 U
1T
b00000011 O
b00000011 P
#458000
0:
#458500
1:
b00000011 @
b01 U
#459000
0:
#459500
1:
b10 U
#460000
0:
#460500
1:
b11 U
#461000
0:
#461500
1:
b00 U
0T
#462000
0:
#462500
1:
b01 U
#463000
0:
#463500
1:
b10 U
#464000
0:
#464500
1:
b11 U
#465000
0:
#465500
1:
b00 U
1T
b00000100 O
b00000100 P
#466000
0:
#466500
1:
b00000100 @
b01 U
#467000
0:
#467500
1:
b10 U
#468000
0:
#468500
1:
b11 U
#469000
0:
#469500
1:
b00 U
0T
#470000
0:
#470500
1:
b01 U
#471000
0:
#471500
1:
b10 U
#472000
0:
#472500
1:
b11 U
#473000
0:
#473500
1:
b00 U
1T
b00000101 O
b00000101 P
#474000
0:
#474500
1:
b00000101 @
b01 U
#475000
0:
#475500
1:
b10 U
#476000
0:
#476500
1:
b11 U
#477000
0:
#477500
1:
b00 U
0T
#478000
0:
#478500
1:
b01 U
#479000
0:
#479500
1:
b10 U
#480000
0:
#480500
1:
b11 U
#481000
0:
#481500
1:
b00 U
1T
b00000110 O
b00000110 P
b00000000 O
b00000000 P
1A
#482000
0:
#482500
1:
b00000000 @
b01 U
#483000
0:
#483500
1:
b10 U
#484000
0:
#484500
1:
b11 U
#485000
0:
#485500
1:
b00 U
0T
#486000
0:
#486500
1:
b01 U
#487000
0:
#487500
1:
b10 U
#487600
1C
#488000
0:
#488500
1:
b11 U
0A
#489000
0:
