272-timerCorr/tc.vcd
$date
	Thu Feb 26 23:07:17 2015
$end

$version
	Synopsys VCS version I-2014.03-2
$end

$timescale
	10ps
$end

$comment Csum: 1 846d111acfef1bf2 $end


$scope module top $end
$var reg 1 ! debug $end
$var reg 1 " test1_running $end
$var reg 1 # test2_running $end
$var reg 1 $ test3_running $end
$var reg 1 % test4_running $end
$var reg 1 & test5_running $end
$var reg 1 ' test6_running $end
$var reg 1 ( test7_running $end
$var reg 1 ) test8_running $end
$var reg 1 * test9_running $end
$var reg 1 + test10_running $end
$var reg 1 , test11_running $end
$var reg 1 - test12_running $end
$var reg 1 . test13_running $end
$var reg 32 / death [31:0] $end
$var reg 8 0 A_tccra [7:0] $end
$var reg 8 1 A_tccra1 [7:0] $end
$var reg 8 2 A_tccrb [7:0] $end
$var reg 8 3 A_tccrb1 [7:0] $end
$var reg 8 4 A_ocra [7:0] $end
$var reg 8 5 A_ocra1 [7:0] $end
$var reg 8 6 A_ocrb [7:0] $end
$var reg 8 7 A_ocrb1 [7:0] $end
$var reg 8 8 A_tcnt [7:0] $end
$var reg 8 9 A_tcnt1 [7:0] $end
$var reg 8 : A_timsk [7:0] $end
$var reg 8 ; A_tifr [7:0] $end
$var reg 8 < A_tifr1 [7:0] $end
$var reg 32 = div [31:0] $end

$scope task die $end
$upscope $end


$scope task wreg $end
$var reg 8 > addr [7:0] $end
$var reg 8 ? datax [7:0] $end
$upscope $end


$scope task rreg $end
$var reg 8 @ addr [7:0] $end
$var reg 8 A datax [7:0] $end
$upscope $end


$scope task easyplay $end
$upscope $end


$scope task test1 $end
$upscope $end


$scope task test2 $end
$upscope $end


$scope task test3 $end
$upscope $end


$scope task test4 $end
$upscope $end


$scope task test5 $end
$upscope $end


$scope task test6 $end
$upscope $end


$scope task test7 $end
$upscope $end


$scope task test8 $end
$upscope $end


$scope task test9 $end
$upscope $end


$scope task test10 $end
$upscope $end


$scope task test11 $end
$upscope $end


$scope task test12 $end
$upscope $end


$scope task test13 $end
$upscope $end


$scope task _$$txp_fail_action_unnamed$$_8 $end
$upscope $end


$scope task _$$txp_fail_action_unnamed$$_9 $end
$upscope $end


$scope task _$$txp_fail_action_unnamed$$_10 $end
$upscope $end


$scope task _$$txp_fail_action_unnamed$$_11 $end
$upscope $end


$scope task _$$txp_fail_action_unnamed$$_12 $end
$upscope $end


$scope task _$$txp_fail_action_unnamed$$_13 $end
$upscope $end


$scope task _$$txp_fail_action_unnamed$$_14 $end
$upscope $end


$scope task _$$txp_fail_action_unnamed$$_15 $end
$upscope $end


$scope task _$$txp_fail_action_unnamed$$_16 $end
$upscope $end


$scope task _$$txp_fail_action_unnamed$$_17 $end
$upscope $end


$scope task _$$txp_fail_action_unnamed$$_18 $end
$upscope $end


$scope task _$$txp_fail_action_unnamed$$_19 $end
$upscope $end


$scope task _$$txp_fail_action_unnamed$$_20 $end
$upscope $end


$scope task _$$txp_fail_action_unnamed$$_21 $end
$upscope $end


$scope task _$$txp_fail_action_unnamed$$_22 $end
$upscope $end


$scope task _$$txp_fail_action_unnamed$$_23 $end
$upscope $end


$scope task _$$txp_fail_action_unnamed$$_24 $end
$upscope $end


$scope task _$$txp_fail_action_unnamed$$_25 $end
$upscope $end


$scope task _$$txp_fail_action_unnamed$$_26 $end
$upscope $end


$scope task _$$txp_fail_action_unnamed$$_27 $end
$upscope $end


$scope task _$$txp_fail_action_unnamed$$_28 $end
$upscope $end


$scope task _$$txp_fail_action_unnamed$$_29 $end
$upscope $end


$scope task _$$txp_fail_action_unnamed$$_30 $end
$upscope $end


$scope task _$$txp_fail_action_unnamed$$_31 $end
$upscope $end


$scope task _$$txp_fail_action_unnamed$$_32 $end
$upscope $end


$scope task _$$txp_fail_action_unnamed$$_33 $end
$upscope $end


$scope task _$$txp_fail_action_unnamed$$_34 $end
$upscope $end


$scope task _$$txp_fail_action_unnamed$$_35 $end
$upscope $end


$scope task _$$txp_fail_action_unnamed$$_36 $end
$upscope $end


$scope task _$$txp_fail_action_unnamed$$_37 $end
$upscope $end


$scope task _$$txp_fail_action_unnamed$$_38 $end
$upscope $end


$scope task _$$txp_fail_action_unnamed$$_39 $end
$upscope $end


$scope task _$$txp_fail_action_unnamed$$_40 $end
$upscope $end


$scope task _$$txp_fail_action_unnamed$$_41 $end
$upscope $end


$scope task _$$txp_fail_action_unnamed$$_42 $end
$upscope $end


$scope task _$$txp_fail_action_unnamed$$_43 $end
$upscope $end


$scope task _$$txp_fail_action_unnamed$$_44 $end
$upscope $end


$scope task _$$txp_fail_action_unnamed$$_45 $end
$upscope $end


$scope task _$$txp_fail_action_unnamed$$_46 $end
$upscope $end


$scope task _$$txp_fail_action_unnamed$$_47 $end
$upscope $end


$scope task _$$txp_fail_action_unnamed$$_48 $end
$upscope $end


$scope task _$$txp_fail_action_unnamed$$_49 $end
$upscope $end


$scope task _$$txp_fail_action_unnamed$$_50 $end
$upscope $end


$scope task _$$txp_fail_action_unnamed$$_51 $end
$upscope $end


$scope task _$$txp_fail_action_unnamed$$_52 $end
$upscope $end


$scope task _$$txp_fail_action_unnamed$$_53 $end
$upscope $end


$scope module ai $end
$var reg 1 B clk $end
$var reg 1 C rst $end
$var reg 1 D write $end
$var reg 8 E addr [7:0] $end
$var reg 8 F wdata [7:0] $end
$var reg 1 G read $end
$var reg 8 H rdata [7:0] $end
$var reg 1 I t0 $end
$var reg 1 J oca_data $end
$var reg 1 K ocb_data $end
$var reg 1 L interrupt_request $end
$var reg 1 M status_reg_interrupt_enable $end
$var reg 1 N interrupt_executed $end
$upscope $end


$scope module t $end
$var reg 8 O A_tccra [7:0] $end
$var reg 8 P A_tccra1 [7:0] $end
$var reg 8 Q A_tccrb [7:0] $end
$var reg 8 R A_tccrb1 [7:0] $end
$var reg 8 S A_ocra [7:0] $end
$var reg 8 T A_ocra1 [7:0] $end
$var reg 8 U A_ocrb [7:0] $end
$var reg 8 V A_ocrb1 [7:0] $end
$var reg 8 W A_tcnt [7:0] $end
$var reg 8 X A_tcnt1 [7:0] $end
$var reg 8 Y A_timsk [7:0] $end
$var reg 8 Z A_tifr [7:0] $end
$var reg 8 [ A_tifr1 [7:0] $end
$var reg 32 \ i [31:0] $end
$var reg 1 ] out_clk $end
$upscope $end

$upscope $end

$enddefinitions $end

#0
$dumpvars
1!
0+
0,
0-
0.
0"
0#
0$
0%
0&
0'
0(
0)
0*
1]
b00100111 4
b01000111 5
b00101000 6
b01001000 7
b00100100 0
b01000100 1
b00100101 2
b01000101 3
b00100110 8
b01000110 9
b00010101 ;
b00110101 <
b01101110 :
b00000000000000000000000000000000 \
bxxxxxxxx @
bxxxxxxxx A
bxxxxxxxx S
bxxxxxxxx T
bxxxxxxxx U
bxxxxxxxx V
bxxxxxxxx O
bxxxxxxxx P
bxxxxxxxx Q
bxxxxxxxx R
bxxxxxxxx W
bxxxxxxxx X
bxxxxxxxx Z
bxxxxxxxx [
bxxxxxxxx Y
bxxxxxxxx >
bxxxxxxxx ?
b00000000000000000000000000000000 /
b00000000000000000000000000001000 =
1N
1M
xL
xK
xJ
xI
0G
0D
0C
0B
bxxxxxxxx H
b00110100 F
b00010010 E
$end
#500
1B
0L
b00000000000000000000000000000001 \
0]
#600
0N
1C
b00000000 E
b00000000 F
b00000000 H
0I
0J
0K
0M
b00000000 O
b00000000 P
b00000000 Q
b00000000 R
b00000000 S
b00000000 T
b00000000 U
b00000000 V
b00000000 W
b00000000 X
b00000000 Y
b00000000 Z
b00000000 [
#1000
0B
#1500
1B
1L
b00000010 Z
b00000010 [
b00000110 Z
b00000110 [
b00000111 Z
b00000111 [
b00000000000000000000000000000010 \
#2000
0B
#2500
1B
b00000000 Z
b00000000 [
b00000000000000000000000000000011 \
#3000
0B
#3500
1B
b00000010 Z
b00000010 [
b00000110 Z
b00000110 [
b00000111 Z
b00000111 [
b00000000000000000000000000000100 \
#4000
0B
#4500
1B
b00000000 Z
b00000000 [
b00000000000000000000000000000101 \
#5000
0B
#5500
1B
b00000010 Z
b00000010 [
b00000110 Z
b00000110 [
b00000111 Z
b00000111 [
b00000000000000000000000000000110 \
#5600
0C
b00100111 >
b00000101 ?
b00100111 E
b00000101 F
1D
#6000
0B
#6500
1B
b00000101 T
b00000101 S
b00000101 Z
b00000101 [
b00000001 Z
b00000001 [
b00000000 Z
b00000000 [
b00000000000000000000000000000111 \
#6600
1N
0D
b00000000 E
b00000000 F
b00101000 >
b01110111 ?
b00101000 E
b01110111 F
1D
#7000
0B
#7500
1B
b01110111 V
b01110111 U
b00000100 Z
b00000100 [
b00000101 Z
b00000101 [
b00000000000000000000000000000000 \
1]
#7600
0D
b00000000 E
b00000000 F
b00100100 >
b00000010 ?
b00100100 E
b00000010 F
1D
#8000
0B
#8500
1B
b00000010 P
b00000010 O
0L
b00000001 Z
b00000001 [
b00000000 Z
b00000000 [
b00000000000000000000000000000001 \
0]
#8600
0D
b00000000 E
b00000000 F
b00100101 >
b00100101 E
b00000010 F
1D
#9000
0B
#9500
1B
b00000010 R
b00000010 Q
b00000000000000000000000000000010 \
#9600
0N
0D
b00000000 E
b00000000 F
b00010101 >
b00000111 ?
b00010101 E
b00000111 F
1D
#10000
0B
#10500
1B
b00000111 [
b00000111 Z
b00000000000000000000000000000011 \
#10600
0D
b00000000 E
b00000000 F
b01101110 >
b01101110 E
b00000111 F
1D
#11000
0B
#11500
1B
b00000111 Y
b00000011 Z
b00000011 [
b00000001 Z
b00000001 [
b00000000 Z
b00000000 [
b00000000000000000000000000000100 \
#11600
0D
b00000000 E
b00000000 F
b00100111 @
b00000101 A
b00100111 E
1G
#12000
0B
#12500
1B
b00000101 H
b00000000000000000000000000000101 \
#12600
b00100100 @
b00000010 A
b00100100 E
#13000
0B
#13500
1B
b00000010 H
b00000000000000000000000000000110 \
#13600
b00100101 @
b00100101 E
#14000
0B
#14500
1B
b00000000000000000000000000000111 \
#14600
b01000111 @
b00000101 A
b01000111 E
#15000
0B
#15500
1B
b00000101 H
b00000000000000000000000000000000 \
1]
b00000001 W
b00000001 X
#15600
b01000100 @
b00000010 A
b01000100 E
#16000
0B
#16500
1B
b00000010 H
b00000000000000000000000000000001 \
0]
#16600
b01000101 @
b01000101 E
#17000
0B
#17500
1B
b00000000000000000000000000000010 \
#17600
b00010101 @
b00000110 A
b00010101 E
#18000
0B
#18500
1B
b00000000 H
b00000000000000000000000000000011 \
#19000
0B
#19500
1B
b00000000000000000000000000000100 \
