272-timerCorr/tc.vcd
$date
	Fri Feb 27 18:43:10 2015
$end

$version
	Synopsys VCS version I-2014.03-2
$end

$timescale
	10ps
$end

$comment Csum: 1 846d111acfef1bf2 $end


$scope module top $end
$var reg 1 ! debug $end
$var reg 1 " test1_running $end
$var reg 1 # test2_running $end
$var reg 1 $ test3_running $end
$var reg 1 % test4_running $end
$var reg 1 & test5_running $end
$var reg 1 ' test6_running $end
$var reg 1 ( test7_running $end
$var reg 1 ) test8_running $end
$var reg 1 * test9_running $end
$var reg 1 + test10_running $end
$var reg 1 , test11_running $end
$var reg 1 - test12_running $end
$var reg 1 . test13_running $end
$var reg 32 / death [31:0] $end
$var reg 8 0 A_tccra [7:0] $end
$var reg 8 1 A_tccra1 [7:0] $end
$var reg 8 2 A_tccrb [7:0] $end
$var reg 8 3 A_tccrb1 [7:0] $end
$var reg 8 4 A_ocra [7:0] $end
$var reg 8 5 A_ocra1 [7:0] $end
$var reg 8 6 A_ocrb [7:0] $end
$var reg 8 7 A_ocrb1 [7:0] $end
$var reg 8 8 A_tcnt [7:0] $end
$var reg 8 9 A_tcnt1 [7:0] $end
$var reg 8 : A_timsk [7:0] $end
$var reg 8 ; A_tifr [7:0] $end
$var reg 8 < A_tifr1 [7:0] $end
$var reg 32 = div [31:0] $end

$scope task die $end
$upscope $end


$scope task wreg $end
$var reg 8 > addr [7:0] $end
$var reg 8 ? datax [7:0] $end
$upscope $end


$scope task rreg $end
$var reg 8 @ addr [7:0] $end
$var reg 8 A datax [7:0] $end
$upscope $end


$scope task easyplay $end
$upscope $end


$scope task test1 $end
$upscope $end


$scope task test2 $end
$upscope $end


$scope task test3 $end
$upscope $end


$scope task test4 $end
$upscope $end


$scope task test5 $end
$upscope $end


$scope task test6 $end
$upscope $end


$scope task test7 $end
$upscope $end


$scope task test8 $end
$upscope $end


$scope task test9 $end
$upscope $end


$scope task test10 $end
$upscope $end


$scope task test11 $end
$upscope $end


$scope task test12 $end
$upscope $end


$scope task test13 $end
$upscope $end


$scope task _$$txp_fail_action_unnamed$$_8 $end
$upscope $end


$scope task _$$txp_fail_action_unnamed$$_9 $end
$upscope $end


$scope task _$$txp_fail_action_unnamed$$_10 $end
$upscope $end


$scope task _$$txp_fail_action_unnamed$$_11 $end
$upscope $end


$scope task _$$txp_fail_action_unnamed$$_12 $end
$upscope $end


$scope task _$$txp_fail_action_unnamed$$_13 $end
$upscope $end


$scope task _$$txp_fail_action_unnamed$$_14 $end
$upscope $end


$scope task _$$txp_fail_action_unnamed$$_15 $end
$upscope $end


$scope task _$$txp_fail_action_unnamed$$_16 $end
$upscope $end


$scope task _$$txp_fail_action_unnamed$$_17 $end
$upscope $end


$scope task _$$txp_fail_action_unnamed$$_18 $end
$upscope $end


$scope task _$$txp_fail_action_unnamed$$_19 $end
$upscope $end


$scope task _$$txp_fail_action_unnamed$$_20 $end
$upscope $end


$scope task _$$txp_fail_action_unnamed$$_21 $end
$upscope $end


$scope task _$$txp_fail_action_unnamed$$_22 $end
$upscope $end


$scope task _$$txp_fail_action_unnamed$$_23 $end
$upscope $end


$scope task _$$txp_fail_action_unnamed$$_24 $end
$upscope $end


$scope task _$$txp_fail_action_unnamed$$_25 $end
$upscope $end


$scope task _$$txp_fail_action_unnamed$$_26 $end
$upscope $end


$scope task _$$txp_fail_action_unnamed$$_27 $end
$upscope $end


$scope task _$$txp_fail_action_unnamed$$_28 $end
$upscope $end


$scope task _$$txp_fail_action_unnamed$$_29 $end
$upscope $end


$scope task _$$txp_fail_action_unnamed$$_30 $end
$upscope $end


$scope task _$$txp_fail_action_unnamed$$_31 $end
$upscope $end


$scope task _$$txp_fail_action_unnamed$$_32 $end
$upscope $end


$scope task _$$txp_fail_action_unnamed$$_33 $end
$upscope $end


$scope task _$$txp_fail_action_unnamed$$_34 $end
$upscope $end


$scope task _$$txp_fail_action_unnamed$$_35 $end
$upscope $end


$scope task _$$txp_fail_action_unnamed$$_36 $end
$upscope $end


$scope task _$$txp_fail_action_unnamed$$_37 $end
$upscope $end


$scope task _$$txp_fail_action_unnamed$$_38 $end
$upscope $end


$scope task _$$txp_fail_action_unnamed$$_39 $end
$upscope $end


$scope task _$$txp_fail_action_unnamed$$_40 $end
$upscope $end


$scope task _$$txp_fail_action_unnamed$$_41 $end
$upscope $end


$scope task _$$txp_fail_action_unnamed$$_42 $end
$upscope $end


$scope task _$$txp_fail_action_unnamed$$_43 $end
$upscope $end


$scope task _$$txp_fail_action_unnamed$$_44 $end
$upscope $end


$scope task _$$txp_fail_action_unnamed$$_45 $end
$upscope $end


$scope task _$$txp_fail_action_unnamed$$_46 $end
$upscope $end


$scope task _$$txp_fail_action_unnamed$$_47 $end
$upscope $end


$scope task _$$txp_fail_action_unnamed$$_48 $end
$upscope $end


$scope task _$$txp_fail_action_unnamed$$_49 $end
$upscope $end


$scope task _$$txp_fail_action_unnamed$$_50 $end
$upscope $end


$scope task _$$txp_fail_action_unnamed$$_51 $end
$upscope $end


$scope task _$$txp_fail_action_unnamed$$_52 $end
$upscope $end


$scope task _$$txp_fail_action_unnamed$$_53 $end
$upscope $end


$scope module ai $end
$var reg 1 B clk $end
$var reg 1 C rst $end
$var reg 1 D write $end
$var reg 8 E addr [7:0] $end
$var reg 8 F wdata [7:0] $end
$var reg 1 G read $end
$var reg 8 H rdata [7:0] $end
$var reg 1 I t0 $end
$var reg 1 J interrupt_request $end
$var reg 1 K status_reg_interrupt_enable $end
$var reg 1 L interrupt_executed $end
$var reg 1 M oca_data $end
$var reg 1 N ocb_data $end
$upscope $end


$scope module t $end
$var reg 8 O R_tccra [7:0] $end
$var reg 8 P R_tccra1 [7:0] $end
$var reg 8 Q R_tccrb [7:0] $end
$var reg 8 R R_tccrb1 [7:0] $end
$var reg 8 S R_ocra [7:0] $end
$var reg 8 T R_ocrb [7:0] $end
$var reg 8 U R_timsk [7:0] $end
$var reg 8 V R_tifr [7:0] $end
$var reg 8 W R_ocra1 [7:0] $end
$var reg 8 X R_tifr1 [7:0] $end
$var reg 8 Y R_tcnt [7:0] $end
$var reg 8 Z R_tcnt1 [7:0] $end
$upscope $end

$upscope $end

$enddefinitions $end

#0
$dumpvars
1!
0+
0,
0-
0.
0"
0#
0$
0%
0&
0'
0(
0)
0*
b00100111 4
b01000111 5
b00101000 6
b01001000 7
b00100100 0
b01000100 1
b00100101 2
b01000101 3
b00100110 8
b01000110 9
b00010101 ;
b00110101 <
b01101110 :
bxxxxxxxx S
bxxxxxxxx W
bxxxxxxxx T
bxxxxxxxx O
bxxxxxxxx P
bxxxxxxxx Q
bxxxxxxxx R
bxxxxxxxx Y
bxxxxxxxx Z
bxxxxxxxx V
bxxxxxxxx X
bxxxxxxxx U
bxxxxxxxx @
bxxxxxxxx A
bxxxxxxxx >
bxxxxxxxx ?
b00000000000000000000000000000000 /
b00000000000000000000000000001000 =
1L
1K
xJ
xN
xM
xI
0G
0D
0C
0B
bxxxxxxxx H
b00110100 F
b00010010 E
$end
#500
1B
#600
0L
1C
b00000000 O
b00000000 P
b00000000 Q
b00000000 R
b00000000 S
b00000000 W
b00000000 T
b00000000 U
b00000000 V
b00000000 X
b00000000 Y
b00000000 Z
#1000
0B
#1500
1B
#2000
0B
#2500
1B
#3000
0B
#3500
1B
#4000
0B
#4500
1B
#5000
0B
#5500
1B
#5600
0C
b00100111 >
b00000101 ?
b00100111 E
b00000101 F
1D
#6000
0B
#6500
1B
b00000101 S
#6600
0D
b00000000 E
b00000000 F
b00101000 >
b01110111 ?
b00101000 E
b01110111 F
1D
#7000
0B
#7500
1B
b01110111 T
#7600
0D
b00000000 E
b00000000 F
b00100100 >
b00000010 ?
b00100100 E
b00000010 F
1D
#8000
0B
#8500
1B
b00000010 O
#8600
0D
b00000000 E
b00000000 F
b00100101 >
b00100101 E
b00000010 F
1D
#9000
0B
#9500
1B
b00000010 Q
#9600
0D
b00000000 E
b00000000 F
b00010101 >
b00000111 ?
b00010101 E
b00000111 F
1D
#10000
0B
#10500
1B
b00000111 V
#10600
0D
b00000000 E
b00000000 F
b01101110 >
b01101110 E
b00000111 F
1D
#11000
0B
#11500
1B
b00000111 U
#11600
0D
b00000000 E
b00000000 F
b00100111 @
b00000101 A
b00100111 E
1G
#12000
0B
#12500
1B
b00000101 H
#12600
b00100100 @
b00000010 A
b00100100 E
#13000
0B
#13500
1B
b00000010 H
#13600
b00100101 @
b00100101 E
#14000
0B
#14500
1B
#14600
b01000111 @
b00000101 A
b01000111 E
#15000
0B
#15500
1B
b00000101 H
#15600
b01000100 @
b00000010 A
b01000100 E
#16000
0B
#16500
1B
b00000010 H
#16600
b01000101 @
b01000101 E
#17000
0B
#17500
1B
#17600
b00010101 @
b00000110 A
b00010101 E
#18000
0B
#18500
1B
b00000111 H
