272-timerCorr/tc.vcd
$date
	Fri Feb 27 18:07:10 2015
$end

$version
	Synopsys VCS version I-2014.03-2
$end

$timescale
	10ps
$end

$comment Csum: 1 846d111acfef1bf2 $end


$scope module top $end
$var reg 1 ! debug $end
$var reg 1 " test1_running $end
$var reg 1 # test2_running $end
$var reg 1 $ test3_running $end
$var reg 1 % test4_running $end
$var reg 1 & test5_running $end
$var reg 1 ' test6_running $end
$var reg 1 ( test7_running $end
$var reg 1 ) test8_running $end
$var reg 1 * test9_running $end
$var reg 1 + test10_running $end
$var reg 1 , test11_running $end
$var reg 1 - test12_running $end
$var reg 1 . test13_running $end
$var reg 32 / death [31:0] $end
$var reg 8 0 A_tccra [7:0] $end
$var reg 8 1 A_tccra1 [7:0] $end
$var reg 8 2 A_tccrb [7:0] $end
$var reg 8 3 A_tccrb1 [7:0] $end
$var reg 8 4 A_ocra [7:0] $end
$var reg 8 5 A_ocra1 [7:0] $end
$var reg 8 6 A_ocrb [7:0] $end
$var reg 8 7 A_ocrb1 [7:0] $end
$var reg 8 8 A_tcnt [7:0] $end
$var reg 8 9 A_tcnt1 [7:0] $end
$var reg 8 : A_timsk [7:0] $end
$var reg 8 ; A_tifr [7:0] $end
$var reg 8 < A_tifr1 [7:0] $end
$var reg 32 = div [31:0] $end

$scope task die $end
$upscope $end


$scope task wreg $end
$var reg 8 > addr [7:0] $end
$var reg 8 ? datax [7:0] $end
$upscope $end


$scope task rreg $end
$var reg 8 @ addr [7:0] $end
$var reg 8 A datax [7:0] $end
$upscope $end


$scope task easyplay $end
$upscope $end


$scope task test1 $end
$upscope $end


$scope task test2 $end
$upscope $end


$scope task test3 $end
$upscope $end


$scope task test4 $end
$upscope $end


$scope task test5 $end
$upscope $end


$scope task test6 $end
$upscope $end


$scope task test7 $end
$upscope $end


$scope task test8 $end
$upscope $end


$scope task test9 $end
$upscope $end


$scope task test10 $end
$upscope $end


$scope task test11 $end
$upscope $end


$scope task test12 $end
$upscope $end


$scope task test13 $end
$upscope $end


$scope task _$$txp_fail_action_unnamed$$_8 $end
$upscope $end


$scope task _$$txp_fail_action_unnamed$$_9 $end
$upscope $end


$scope task _$$txp_fail_action_unnamed$$_10 $end
$upscope $end


$scope task _$$txp_fail_action_unnamed$$_11 $end
$upscope $end


$scope task _$$txp_fail_action_unnamed$$_12 $end
$upscope $end


$scope task _$$txp_fail_action_unnamed$$_13 $end
$upscope $end


$scope task _$$txp_fail_action_unnamed$$_14 $end
$upscope $end


$scope task _$$txp_fail_action_unnamed$$_15 $end
$upscope $end


$scope task _$$txp_fail_action_unnamed$$_16 $end
$upscope $end


$scope task _$$txp_fail_action_unnamed$$_17 $end
$upscope $end


$scope task _$$txp_fail_action_unnamed$$_18 $end
$upscope $end


$scope task _$$txp_fail_action_unnamed$$_19 $end
$upscope $end


$scope task _$$txp_fail_action_unnamed$$_20 $end
$upscope $end


$scope task _$$txp_fail_action_unnamed$$_21 $end
$upscope $end


$scope task _$$txp_fail_action_unnamed$$_22 $end
$upscope $end


$scope task _$$txp_fail_action_unnamed$$_23 $end
$upscope $end


$scope task _$$txp_fail_action_unnamed$$_24 $end
$upscope $end


$scope task _$$txp_fail_action_unnamed$$_25 $end
$upscope $end


$scope task _$$txp_fail_action_unnamed$$_26 $end
$upscope $end


$scope task _$$txp_fail_action_unnamed$$_27 $end
$upscope $end


$scope task _$$txp_fail_action_unnamed$$_28 $end
$upscope $end


$scope task _$$txp_fail_action_unnamed$$_29 $end
$upscope $end


$scope task _$$txp_fail_action_unnamed$$_30 $end
$upscope $end


$scope task _$$txp_fail_action_unnamed$$_31 $end
$upscope $end


$scope task _$$txp_fail_action_unnamed$$_32 $end
$upscope $end


$scope task _$$txp_fail_action_unnamed$$_33 $end
$upscope $end


$scope task _$$txp_fail_action_unnamed$$_34 $end
$upscope $end


$scope task _$$txp_fail_action_unnamed$$_35 $end
$upscope $end


$scope task _$$txp_fail_action_unnamed$$_36 $end
$upscope $end


$scope task _$$txp_fail_action_unnamed$$_37 $end
$upscope $end


$scope task _$$txp_fail_action_unnamed$$_38 $end
$upscope $end


$scope task _$$txp_fail_action_unnamed$$_39 $end
$upscope $end


$scope task _$$txp_fail_action_unnamed$$_40 $end
$upscope $end


$scope task _$$txp_fail_action_unnamed$$_41 $end
$upscope $end


$scope task _$$txp_fail_action_unnamed$$_42 $end
$upscope $end


$scope task _$$txp_fail_action_unnamed$$_43 $end
$upscope $end


$scope task _$$txp_fail_action_unnamed$$_44 $end
$upscope $end


$scope task _$$txp_fail_action_unnamed$$_45 $end
$upscope $end


$scope task _$$txp_fail_action_unnamed$$_46 $end
$upscope $end


$scope task _$$txp_fail_action_unnamed$$_47 $end
$upscope $end


$scope task _$$txp_fail_action_unnamed$$_48 $end
$upscope $end


$scope task _$$txp_fail_action_unnamed$$_49 $end
$upscope $end


$scope task _$$txp_fail_action_unnamed$$_50 $end
$upscope $end


$scope task _$$txp_fail_action_unnamed$$_51 $end
$upscope $end


$scope task _$$txp_fail_action_unnamed$$_52 $end
$upscope $end


$scope task _$$txp_fail_action_unnamed$$_53 $end
$upscope $end


$scope module ai $end
$var reg 1 B clk $end
$var reg 1 C rst $end
$var reg 1 D write $end
$var reg 8 E addr [7:0] $end
$var reg 8 F wdata [7:0] $end
$var reg 1 G read $end
$var reg 8 H rdata [7:0] $end
$var reg 1 I t0 $end
$var reg 1 J interrupt_request $end
$var reg 1 K status_reg_interrupt_enable $end
$var reg 1 L interrupt_executed $end
$var reg 1 M oca_data $end
$var reg 1 N ocb_data $end
$upscope $end


$scope module t $end
$var reg 8 O R_tccra [7:0] $end
$var reg 8 P R_tccra1 [7:0] $end
$var reg 8 Q R_tccrb [7:0] $end
$var reg 8 R R_tccrb1 [7:0] $end
$var reg 8 S R_ocra [7:0] $end
$var reg 8 T R_ocrb [7:0] $end
$var reg 8 U R_timsk [7:0] $end
$var reg 8 V R_tifr [7:0] $end
$var reg 8 W R_ocra1 [7:0] $end
$var reg 8 X R_tifr1 [7:0] $end
$var reg 8 Y R_tcnt [7:0] $end
$var reg 8 Z R_tcnt1 [7:0] $end
$upscope $end

$upscope $end

$enddefinitions $end

#0
$dumpvars
1!
0+
0,
0-
0.
0"
0#
0$
0%
0&
0'
0(
0)
0*
b00100111 4
b01000111 5
b00101000 6
b01001000 7
b00100100 0
b01000100 1
b00100101 2
b01000101 3
b00100110 8
b01000110 9
b00010101 ;
b00110101 <
b01101110 :
bxxxxxxxx S
bxxxxxxxx W
bxxxxxxxx T
bxxxxxxxx O
bxxxxxxxx P
bxxxxxxxx Q
bxxxxxxxx R
bxxxxxxxx Y
bxxxxxxxx Z
bxxxxxxxx V
bxxxxxxxx X
bxxxxxxxx U
bxxxxxxxx @
bxxxxxxxx A
bxxxxxxxx >
bxxxxxxxx ?
b00000000000000000000000000000000 /
b00000000000000000000000000001000 =
1L
1K
xJ
xN
xM
xI
0G
0D
0C
0B
bxxxxxxxx H
b00110100 F
b00010010 E
$end
#500
1B
#600
0L
1C
b00000000 O
b00000000 P
b00000000 Q
b00000000 R
b00000000 S
b00000000 W
b00000000 T
b00000000 U
b00000000 V
b00000000 X
b00000000 Y
b00000000 Z
#1000
0B
#1500
1B
#2000
0B
#2500
1B
#3000
0B
#3500
1B
#4000
0B
#4500
1B
#5000
0B
#5500
1B
#5600
0C
b00100111 >
b00000101 ?
b00100111 E
b00000101 F
1D
#6000
0B
#6500
1B
b00000101 S
#6600
0D
b00000000 E
b00000000 F
b00101000 >
b01110111 ?
b00101000 E
b01110111 F
1D
#7000
0B
#7500
1B
b01110111 T
#7600
0D
b00000000 E
b00000000 F
b00100100 >
b00000010 ?
b00100100 E
b00000010 F
1D
#8000
0B
#8500
1B
b00000010 O
#8600
0D
b00000000 E
b00000000 F
b00100101 >
b00100101 E
b00000010 F
1D
#9000
0B
#9500
1B
b00000010 Q
#9600
0D
b00000000 E
b00000000 F
b00010101 >
b00000111 ?
b00010101 E
b00000111 F
1D
#10000
0B
#10500
1B
b00000111 V
#10600
0D
b00000000 E
b00000000 F
b01101110 >
b01101110 E
b00000111 F
1D
#11000
0B
#11500
1B
b00000111 U
#11600
0D
b00000000 E
b00000000 F
b00100111 @
b00000101 A
b00100111 E
1G
#12000
0B
#12500
1B
b00000101 H
#12600
b00100100 @
b00000010 A
b00100100 E
#13000
0B
#13500
1B
b00000010 H
#13600
b00100101 @
b00100101 E
#14000
0B
#14500
1B
#14600
b01000111 @
b00000101 A
b01000111 E
#15000
0B
#15500
1B
b00000101 H
#15600
b01000100 @
b00000010 A
b01000100 E
#16000
0B
#16500
1B
b00000010 H
#16600
b01000101 @
b01000101 E
#17000
0B
#17500
1B
#17600
b00010101 @
b00000110 A
b00010101 E
#18000
0B
#18500
1B
b00000110 H
#18600
b01101110 @
b00000111 A
b01101110 E
#19000
0B
#19500
1B
b00000111 H
#19600
b00110101 @
b00000110 A
b00110101 E
#20000
0B
#20500
1B
b00000110 H
#20600
b00101000 @
b01110111 A
b00101000 E
#21000
0B
#21500
1B
b01110111 H
#21600
b01001000 @
b01001000 E
#22000
0B
#22500
1B
#22600
b00100110 E
#23000
0B
#23500
1B
b00000010 Y
b00000000 H
#24000
0B
#24500
1B
#25000
0B
#25500
1B
#26000
0B
#26500
1B
#27000
0B
#27500
1B
b00000011 H
1J
#28000
0B
#28500
1B
b00000010 H
#29000
0B
#29500
1B
#30000
0B
#30500
1B
#31000
0B
#31500
1B
#32000
0B
#32500
1B
b00000011 H
#32600
1"
1L
#33000
0B
#33500
1B
b00000010 H
#34000
0B
#34500
1B
#35000
0B
#35500
1B
#36000
0B
#36500
1B
#37000
0B
#37500
1B
b00000011 H
#38000
0B
#38500
1B
b00000010 H
#39000
0B
#39500
1B
#40000
0B
#40500
1B
#41000
0B
#41500
1B
#42000
0B
#42500
1B
b00000011 H
#43000
0B
#43500
1B
b00000010 H
#44000
0B
#44500
1B
#45000
0B
#45500
1B
#46000
0B
#46500
1B
#47000
0B
#47500
1B
b00000011 H
#48000
0B
#48500
1B
b00000010 H
#49000
0B
#49500
1B
#50000
0B
#50500
1B
#51000
0B
#51500
1B
#52000
0B
#52500
1B
b00000011 H
#53000
0B
#53500
1B
b00000010 H
#54000
0B
#54500
1B
#55000
0B
#55500
1B
#56000
0B
#56500
1B
#57000
0B
#57500
1B
b00000011 H
#58000
0B
#58500
1B
b00000010 H
#59000
0B
#59500
1B
#60000
0B
#60500
1B
#61000
0B
#61500
1B
#62000
0B
#62500
1B
b00000011 H
#63000
0B
#63500
1B
b00000010 H
#64000
0B
#64500
1B
#65000
0B
#65500
1B
#66000
0B
#66500
1B
#67000
0B
#67500
1B
b00000011 H
#68000
0B
#68500
1B
b00000010 H
#69000
0B
#69500
1B
#70000
0B
#70500
1B
#71000
0B
#71500
1B
#72000
0B
#72500
1B
b00000011 H
#73000
0B
#73500
1B
b00000010 H
#74000
0B
#74500
1B
#75000
0B
#75500
1B
#76000
0B
#76500
1B
#77000
0B
#77500
1B
b00000011 H
#78000
0B
#78500
1B
b00000010 H
#79000
0B
#79500
1B
#80000
0B
#80500
1B
#81000
0B
#81500
1B
#82000
0B
#82500
1B
b00000011 H
#83000
0B
#83500
1B
b00000010 H
#84000
0B
#84500
1B
#85000
0B
#85500
1B
#86000
0B
#86500
1B
#87000
0B
#87500
1B
b00000011 H
#88000
0B
#88500
1B
b00000010 H
#89000
0B
#89500
1B
#90000
0B
#90500
1B
#91000
0B
#91500
1B
#92000
0B
#92500
1B
b00000011 H
#93000
0B
#93500
1B
b00000010 H
#94000
0B
#94500
1B
#95000
0B
#95500
1B
#96000
0B
#96500
1B
#97000
0B
#97500
1B
b00000011 H
#98000
0B
#98500
1B
b00000010 H
#99000
0B
#99500
1B
#100000
0B
#100500
1B
#101000
0B
#101500
1B
#102000
0B
#102500
1B
b00000011 H
#103000
0B
#103500
1B
b00000010 H
#104000
0B
#104500
1B
#105000
0B
#105500
1B
#106000
0B
#106500
1B
#107000
0B
#107500
1B
b00000011 H
#108000
0B
#108500
1B
b00000010 H
#109000
0B
#109500
1B
#110000
0B
#110500
1B
#111000
0B
#111500
1B
#112000
0B
#112500
1B
b00000011 H
#113000
0B
#113500
1B
b00000010 H
#114000
0B
#114500
1B
#115000
0B
#115500
1B
#116000
0B
#116500
1B
#117000
0B
#117500
1B
b00000011 H
#118000
0B
#118500
1B
b00000010 H
#119000
0B
#119500
1B
#120000
0B
#120500
1B
#121000
0B
#121500
1B
#122000
0B
#122500
1B
b00000011 H
#123000
0B
#123500
1B
b00000010 H
#124000
0B
#124500
1B
#125000
0B
#125500
1B
#126000
0B
#126500
1B
#127000
0B
#127500
1B
b00000011 H
#128000
0B
#128500
1B
b00000010 H
#129000
0B
#129500
1B
#130000
0B
#130500
1B
#131000
0B
#131500
1B
#132000
0B
#132500
1B
b00000011 H
#133000
0B
#133500
1B
b00000010 H
#134000
0B
#134500
1B
#135000
0B
#135500
1B
#136000
0B
#136500
1B
#137000
0B
#137500
1B
b00000011 H
#138000
0B
#138500
1B
b00000010 H
#139000
0B
#139500
1B
#140000
0B
#140500
1B
#141000
0B
#141500
1B
#142000
0B
#142500
1B
b00000011 H
#143000
0B
#143500
1B
b00000010 H
#144000
0B
#144500
1B
#145000
0B
#145500
1B
#146000
0B
#146500
1B
#147000
0B
#147500
1B
b00000011 H
#148000
0B
#148500
1B
b00000010 H
#149000
0B
#149500
1B
#150000
0B
#150500
1B
#151000
0B
#151500
1B
#152000
0B
#152500
1B
b00000011 H
#153000
0B
#153500
1B
b00000010 H
#154000
0B
#154500
1B
#155000
0B
#155500
1B
#156000
0B
#156500
1B
#157000
0B
#157500
1B
b00000011 H
#158000
0B
#158500
1B
b00000010 H
#159000
0B
#159500
1B
#160000
0B
#160500
1B
#161000
0B
#161500
1B
#162000
0B
#162500
1B
b00000011 H
#163000
0B
#163500
1B
b00000010 H
#164000
0B
#164500
1B
#165000
0B
#165500
1B
#166000
0B
#166500
1B
#167000
0B
#167500
1B
b00000011 H
#168000
0B
#168500
1B
b00000010 H
#169000
0B
#169500
1B
#170000
0B
#170500
1B
#171000
0B
#171500
1B
#172000
0B
#172500
1B
b00000011 H
#173000
0B
#173500
1B
b00000010 H
#174000
0B
#174500
1B
#175000
0B
#175500
1B
#176000
0B
#176500
1B
#177000
0B
#177500
1B
b00000011 H
#178000
0B
#178500
1B
b00000010 H
#179000
0B
#179500
1B
#180000
0B
#180500
1B
#181000
0B
#181500
1B
#182000
0B
#182500
1B
b00000011 H
#183000
0B
#183500
1B
b00000010 H
#184000
0B
#184500
1B
#185000
0B
#185500
1B
#186000
0B
#186500
1B
#187000
0B
#187500
1B
b00000011 H
#188000
0B
#188500
1B
b00000010 H
#189000
0B
#189500
1B
#190000
0B
#190500
1B
#191000
0B
#191500
1B
#192000
0B
#192500
1B
b00000011 H
#193000
0B
#193500
1B
b00000010 H
#194000
0B
#194500
1B
#195000
0B
#195500
1B
#196000
0B
#196500
1B
#197000
0B
#197500
1B
b00000011 H
#198000
0B
#198500
1B
b00000010 H
#199000
0B
#199500
1B
#200000
0B
#200500
1B
#201000
0B
#201500
1B
#202000
0B
#202500
1B
b00000011 H
#203000
0B
#203500
1B
b00000010 H
#204000
0B
#204500
1B
#205000
0B
#205500
1B
#206000
0B
#206500
1B
#207000
0B
#207500
1B
b00000011 H
#208000
0B
#208500
1B
b00000010 H
#209000
0B
#209500
1B
#210000
0B
#210500
1B
#211000
0B
#211500
1B
#212000
0B
#212500
1B
b00000011 H
#213000
0B
#213500
1B
b00000010 H
#214000
0B
#214500
1B
#215000
0B
#215500
1B
#216000
0B
#216500
1B
#217000
0B
#217500
1B
b00000011 H
#218000
0B
#218500
1B
b00000010 H
#219000
0B
#219500
1B
#220000
0B
#220500
1B
#221000
0B
#221500
1B
#222000
0B
#222500
1B
b00000011 H
#223000
0B
#223500
1B
b00000010 H
#224000
0B
#224500
1B
#225000
0B
#225500
1B
#226000
0B
#226500
1B
#227000
0B
#227500
1B
b00000011 H
#228000
0B
#228500
1B
b00000010 H
#229000
0B
#229500
1B
#230000
0B
#230500
1B
#231000
0B
#231500
1B
#232000
0B
#232500
1B
b00000011 H
#233000
0B
#233500
1B
b00000010 H
#234000
0B
#234500
1B
#235000
0B
#235500
1B
#236000
0B
#236500
1B
#237000
0B
#237500
1B
b00000011 H
#238000
0B
#238500
1B
b00000010 H
#239000
0B
#239500
1B
#240000
0B
#240500
1B
#241000
0B
#241500
1B
#242000
0B
#242500
1B
b00000011 H
#243000
0B
#243500
1B
b00000010 H
#244000
0B
#244500
1B
#245000
0B
#245500
1B
#246000
0B
#246500
1B
#247000
0B
#247500
1B
b00000011 H
#248000
0B
#248500
1B
b00000010 H
#249000
0B
#249500
1B
#250000
0B
#250500
1B
#251000
0B
#251500
1B
#252000
0B
#252500
1B
b00000011 H
#253000
0B
#253500
1B
b00000010 H
#254000
0B
#254500
1B
#255000
0B
#255500
1B
#256000
0B
#256500
1B
#257000
0B
#257500
1B
b00000011 H
#258000
0B
#258500
1B
b00000010 H
#259000
0B
#259500
1B
#260000
0B
#260500
1B
#261000
0B
#261500
1B
#262000
0B
#262500
1B
b00000011 H
#263000
0B
#263500
1B
b00000010 H
#264000
0B
#264500
1B
#265000
0B
#265500
1B
#266000
0B
#266500
1B
#267000
0B
#267500
1B
b00000011 H
#268000
0B
#268500
1B
b00000010 H
#269000
0B
#269500
1B
#270000
0B
#270500
1B
#271000
0B
#271500
1B
#272000
0B
#272500
1B
b00000011 H
#273000
0B
#273500
1B
b00000010 H
#274000
0B
#274500
1B
#275000
0B
#275500
1B
#276000
0B
#276500
1B
#277000
0B
#277500
1B
b00000011 H
#278000
0B
#278500
1B
b00000010 H
#279000
0B
#279500
1B
#280000
0B
#280500
1B
#281000
0B
#281500
1B
#282000
0B
#282500
1B
b00000011 H
#283000
0B
#283500
1B
b00000010 H
#284000
0B
#284500
1B
#285000
0B
#285500
1B
#286000
0B
#286500
1B
#287000
0B
#287500
1B
b00000011 H
#288000
0B
#288500
1B
b00000010 H
#289000
0B
#289500
1B
#290000
0B
#290500
1B
#291000
0B
#291500
1B
#292000
0B
#292500
1B
b00000011 H
#293000
0B
#293500
1B
b00000010 H
#294000
0B
#294500
1B
#295000
0B
#295500
1B
#296000
0B
#296500
1B
#297000
0B
#297500
1B
b00000011 H
#298000
0B
#298500
1B
b00000010 H
#299000
0B
#299500
1B
#300000
0B
#300500
1B
#301000
0B
#301500
1B
#302000
0B
#302500
1B
b00000011 H
#303000
0B
#303500
1B
b00000010 H
#304000
0B
#304500
1B
#305000
0B
#305500
1B
#306000
0B
#306500
1B
#307000
0B
#307500
1B
b00000011 H
#308000
0B
#308500
1B
b00000010 H
#309000
0B
#309500
1B
#310000
0B
#310500
1B
#311000
0B
#311500
1B
#312000
0B
#312500
1B
b00000011 H
#313000
0B
#313500
1B
b00000010 H
#314000
0B
#314500
1B
#315000
0B
#315500
1B
#316000
0B
#316500
1B
#317000
0B
#317500
1B
b00000011 H
#318000
0B
#318500
1B
b00000010 H
#319000
0B
#319500
1B
#320000
0B
#320500
1B
#321000
0B
#321500
1B
#322000
0B
#322500
1B
b00000011 H
#323000
0B
#323500
1B
b00000010 H
#324000
0B
#324500
1B
#325000
0B
#325500
1B
#326000
0B
#326500
1B
#327000
0B
#327500
1B
b00000011 H
#328000
0B
#328500
1B
b00000010 H
#329000
0B
#329500
1B
#330000
0B
#330500
1B
#331000
0B
#331500
1B
#332000
0B
#332500
1B
b00000011 H
#333000
0B
#333500
1B
b00000010 H
#334000
0B
#334500
1B
#335000
0B
#335500
1B
#336000
0B
#336500
1B
#337000
0B
#337500
1B
b00000011 H
#338000
0B
#338500
1B
b00000010 H
#339000
0B
#339500
1B
#340000
0B
#340500
1B
#341000
0B
#341500
1B
#342000
0B
#342500
1B
b00000011 H
#343000
0B
#343500
1B
b00000010 H
#344000
0B
#344500
1B
#345000
0B
#345500
1B
#346000
0B
#346500
1B
#347000
0B
#347500
1B
b00000011 H
#348000
0B
#348500
1B
b00000010 H
#349000
0B
#349500
1B
#350000
0B
#350500
1B
#351000
0B
#351500
1B
#352000
0B
#352500
1B
b00000011 H
#353000
0B
#353500
1B
b00000010 H
#354000
0B
#354500
1B
#355000
0B
#355500
1B
#356000
0B
#356500
1B
#357000
0B
#357500
1B
b00000011 H
#358000
0B
#358500
1B
b00000010 H
#359000
0B
#359500
1B
#360000
0B
#360500
1B
#361000
0B
#361500
1B
#362000
0B
#362500
1B
b00000011 H
#363000
0B
#363500
1B
b00000010 H
#364000
0B
#364500
1B
#365000
0B
#365500
1B
#366000
0B
#366500
1B
#367000
0B
#367500
1B
b00000011 H
#368000
0B
#368500
1B
b00000010 H
#369000
0B
#369500
1B
#370000
0B
#370500
1B
#371000
0B
#371500
1B
#372000
0B
#372500
1B
b00000011 H
#373000
0B
#373500
1B
b00000010 H
#374000
0B
#374500
1B
#375000
0B
#375500
1B
#376000
0B
#376500
1B
#377000
0B
#377500
1B
b00000011 H
#378000
0B
#378500
1B
b00000010 H
#379000
0B
#379500
1B
#380000
0B
#380500
1B
#381000
0B
#381500
1B
#382000
0B
#382500
1B
b00000011 H
#383000
0B
#383500
1B
b00000010 H
#384000
0B
#384500
1B
#385000
0B
#385500
1B
#386000
0B
#386500
1B
#387000
0B
#387500
1B
b00000011 H
#388000
0B
#388500
1B
b00000010 H
#389000
0B
#389500
1B
#390000
0B
#390500
1B
#391000
0B
#391500
1B
#392000
0B
#392500
1B
b00000011 H
#393000
0B
#393500
1B
b00000010 H
#394000
0B
#394500
1B
#395000
0B
#395500
1B
#396000
0B
#396500
1B
#397000
0B
#397500
1B
b00000011 H
#398000
0B
#398500
1B
b00000010 H
#399000
0B
#399500
1B
#400000
0B
#400500
1B
#401000
0B
#401500
1B
#402000
0B
#402500
1B
b00000011 H
#403000
0B
#403500
1B
b00000010 H
#404000
0B
#404500
1B
#405000
0B
#405500
1B
#406000
0B
#406500
1B
#407000
0B
#407500
1B
b00000011 H
#408000
0B
#408500
1B
b00000010 H
#409000
0B
#409500
1B
#410000
0B
#410500
1B
#411000
0B
#411500
1B
#412000
0B
#412500
1B
b00000011 H
#413000
0B
#413500
1B
b00000010 H
#414000
0B
#414500
1B
#415000
0B
#415500
1B
#416000
0B
#416500
1B
#417000
0B
#417500
1B
b00000011 H
#418000
0B
#418500
1B
b00000010 H
#419000
0B
#419500
1B
#420000
0B
#420500
1B
#421000
0B
#421500
1B
#422000
0B
#422500
1B
b00000011 H
#423000
0B
#423500
1B
b00000010 H
#424000
0B
#424500
1B
#425000
0B
#425500
1B
#426000
0B
#426500
1B
#427000
0B
#427500
1B
b00000011 H
#428000
0B
#428500
1B
b00000010 H
#429000
0B
#429500
1B
#430000
0B
#430500
1B
#431000
0B
#431500
1B
#432000
0B
#432500
1B
b00000011 H
#433000
0B
#433500
1B
b00000010 H
#434000
0B
#434500
1B
#435000
0B
#435500
1B
#436000
0B
#436500
1B
#437000
0B
#437500
1B
b00000011 H
#438000
0B
#438500
1B
b00000010 H
#439000
0B
#439500
1B
#440000
0B
#440500
1B
#441000
0B
#441500
1B
#442000
0B
#442500
1B
b00000011 H
#443000
0B
#443500
1B
b00000010 H
#444000
0B
#444500
1B
#445000
0B
#445500
1B
#446000
0B
#446500
1B
#447000
0B
#447500
1B
b00000011 H
#448000
0B
#448500
1B
b00000010 H
#449000
0B
#449500
1B
#450000
0B
#450500
1B
#451000
0B
#451500
1B
#452000
0B
#452500
1B
b00000011 H
#453000
0B
#453500
1B
b00000010 H
#454000
0B
#454500
1B
#455000
0B
#455500
1B
#456000
0B
#456500
1B
#457000
0B
#457500
1B
b00000011 H
#458000
0B
#458500
1B
b00000010 H
#459000
0B
#459500
1B
#460000
0B
#460500
1B
#461000
0B
#461500
1B
#462000
0B
#462500
1B
b00000011 H
#463000
0B
#463500
1B
b00000010 H
#464000
0B
#464500
1B
#465000
0B
#465500
1B
#466000
0B
#466500
1B
#467000
0B
#467500
1B
b00000011 H
#468000
0B
#468500
1B
b00000010 H
#469000
0B
#469500
1B
#470000
0B
#470500
1B
#471000
0B
#471500
1B
#472000
0B
#472500
1B
b00000011 H
#473000
0B
#473500
1B
b00000010 H
#474000
0B
#474500
1B
#475000
0B
#475500
1B
#476000
0B
#476500
1B
#477000
0B
#477500
1B
b00000011 H
#478000
0B
#478500
1B
b00000010 H
#479000
0B
#479500
1B
#480000
0B
#480500
1B
#481000
0B
#481500
1B
#482000
0B
#482500
1B
b00000011 H
#483000
0B
#483500
1B
b00000010 H
#484000
0B
#484500
1B
#485000
0B
#485500
1B
#486000
0B
#486500
1B
#487000
0B
#487500
1B
b00000011 H
#488000
0B
#488500
1B
b00000010 H
#489000
0B
#489500
1B
#490000
0B
#490500
1B
#491000
0B
#491500
1B
#492000
0B
#492500
1B
b00000011 H
#493000
0B
#493500
1B
b00000010 H
#494000
0B
#494500
1B
#495000
0B
#495500
1B
#496000
0B
#496500
1B
#497000
0B
#497500
1B
b00000011 H
#498000
0B
#498500
1B
b00000010 H
#499000
0B
#499500
1B
#500000
0B
#500500
1B
#501000
0B
#501500
1B
#502000
0B
#502500
1B
b00000011 H
#503000
0B
#503500
1B
b00000010 H
#504000
0B
#504500
1B
#505000
0B
#505500
1B
#506000
0B
#506500
1B
#507000
0B
#507500
1B
b00000011 H
#508000
0B
#508500
1B
b00000010 H
#509000
0B
#509500
1B
#510000
0B
#510500
1B
#511000
0B
#511500
1B
#512000
0B
#512500
1B
b00000011 H
#513000
0B
#513500
1B
b00000010 H
#514000
0B
#514500
1B
#515000
0B
#515500
1B
#516000
0B
#516500
1B
#517000
0B
#517500
1B
b00000011 H
#518000
0B
#518500
1B
b00000010 H
#519000
0B
#519500
1B
#520000
0B
#520500
1B
#521000
0B
#521500
1B
#522000
0B
#522500
1B
b00000011 H
#523000
0B
#523500
1B
b00000010 H
#524000
0B
#524500
1B
#525000
0B
#525500
1B
#526000
0B
#526500
1B
#527000
0B
#527500
1B
b00000011 H
#528000
0B
#528500
1B
b00000010 H
#529000
0B
#529500
1B
#530000
0B
#530500
1B
#531000
0B
#531500
1B
#532000
0B
#532500
1B
b00000011 H
#533000
0B
#533500
1B
b00000010 H
#534000
0B
#534500
1B
#535000
0B
#535500
1B
#536000
0B
#536500
1B
#537000
0B
#537500
1B
b00000011 H
#538000
0B
#538500
1B
b00000010 H
#539000
0B
#539500
1B
#540000
0B
#540500
1B
#541000
0B
#541500
1B
#542000
0B
#542500
1B
b00000011 H
#543000
0B
#543500
1B
b00000010 H
#544000
0B
#544500
1B
#545000
0B
#545500
1B
#546000
0B
#546500
1B
#547000
0B
#547500
1B
b00000011 H
#548000
0B
#548500
1B
b00000010 H
#549000
0B
#549500
1B
#550000
0B
#550500
1B
#551000
0B
#551500
1B
#552000
0B
#552500
1B
b00000011 H
#553000
0B
#553500
1B
b00000010 H
#554000
0B
#554500
1B
#555000
0B
#555500
1B
#556000
0B
#556500
1B
#557000
0B
#557500
1B
b00000011 H
#558000
0B
#558500
1B
b00000010 H
#559000
0B
#559500
1B
#560000
0B
#560500
1B
#561000
0B
#561500
1B
#562000
0B
#562500
1B
b00000011 H
#563000
0B
#563500
1B
b00000010 H
#564000
0B
#564500
1B
#565000
0B
#565500
1B
#566000
0B
#566500
1B
#567000
0B
#567500
1B
b00000011 H
#568000
0B
#568500
1B
b00000010 H
#569000
0B
#569500
1B
#570000
0B
#570500
1B
#571000
0B
#571500
1B
#572000
0B
#572500
1B
b00000011 H
#573000
0B
#573500
1B
b00000010 H
#574000
0B
#574500
1B
#575000
0B
#575500
1B
#576000
0B
#576500
1B
#577000
0B
#577500
1B
b00000011 H
#578000
0B
#578500
1B
b00000010 H
#579000
0B
#579500
1B
#580000
0B
#580500
1B
#581000
0B
#581500
1B
#582000
0B
#582500
1B
b00000011 H
#583000
0B
#583500
1B
b00000010 H
#584000
0B
#584500
1B
#585000
0B
#585500
1B
#586000
0B
#586500
1B
#587000
0B
#587500
1B
b00000011 H
#588000
0B
#588500
1B
b00000010 H
#589000
0B
#589500
1B
#590000
0B
#590500
1B
#591000
0B
#591500
1B
#592000
0B
#592500
1B
b00000011 H
#593000
0B
#593500
1B
b00000010 H
#594000
0B
#594500
1B
#595000
0B
#595500
1B
#596000
0B
#596500
1B
#597000
0B
#597500
1B
b00000011 H
#598000
0B
#598500
1B
b00000010 H
#599000
0B
#599500
1B
#600000
0B
#600500
1B
#601000
0B
#601500
1B
#602000
0B
#602500
1B
b00000011 H
#603000
0B
#603500
1B
b00000010 H
#604000
0B
#604500
1B
#605000
0B
#605500
1B
#606000
0B
#606500
1B
#607000
0B
#607500
1B
b00000011 H
#608000
0B
#608500
1B
b00000010 H
#609000
0B
#609500
1B
#610000
0B
#610500
1B
#611000
0B
#611500
1B
#612000
0B
#612500
1B
b00000011 H
#613000
0B
#613500
1B
b00000010 H
#614000
0B
#614500
1B
#615000
0B
#615500
1B
#616000
0B
#616500
1B
#617000
0B
#617500
1B
b00000011 H
#618000
0B
#618500
1B
b00000010 H
#619000
0B
#619500
1B
#620000
0B
#620500
1B
#621000
0B
#621500
1B
#622000
0B
#622500
1B
b00000011 H
#623000
0B
#623500
1B
b00000010 H
#624000
0B
#624500
1B
#625000
0B
#625500
1B
#626000
0B
#626500
1B
#627000
0B
#627500
1B
b00000011 H
#628000
0B
#628500
1B
b00000010 H
#629000
0B
#629500
1B
#630000
0B
#630500
1B
#631000
0B
#631500
1B
#632000
0B
#632500
1B
b00000011 H
#633000
0B
#633500
1B
b00000010 H
#634000
0B
#634500
1B
#635000
0B
#635500
1B
#636000
0B
#636500
1B
#637000
0B
#637500
1B
b00000011 H
#638000
0B
#638500
1B
b00000010 H
#639000
0B
#639500
1B
